%!PS-Adobe-2.0
%%Title: higz.ps (Landscape A 4)
%%Pages: (atend)
%%Creator: ROOT Version 2.22/10
%%CreationDate:Sat Sep 18 15:21:53 1999
%%EndComments
%%BeginProlog
/s {stroke} def /l {lineto} def /m {moveto} def /t {translate} def
/sw {stringwidth} def /r {rotate} def /rl {roll}  def /R {repeat} def
/d {rlineto} def /rm {rmoveto} def /gr {grestore} def /f {eofill} def
/c {setrgbcolor} def /lw {setlinewidth} def /sd {setdash} def
/cl {closepath} def /sf {scalefont setfont} def /black {0 setgray} def
/box {m dup 0 exch d exch 0 d 0 exch neg d cl} def
/NC{systemdict begin initclip end}def/C{NC box clip newpath}def
/bl {box s} def /bf {box f} def /Y { 0 exch d} def /X { 0 d} def 
/mp {newpath /y exch def /x exch def} def
/side {[w .77 mul w .23 mul] .385 w mul sd w 0 l currentpoint t -144 r} def
/mr {mp x y w2 0 360 arc} def /m24 {mr s} def /m20 {mr f} def
/mb {mp x y w2 add m w2 neg 0 d 0 w neg d w 0 d 0 w d cl} def
/mt {mp x y w2 add m w2 neg w neg d w 0 d cl} def
/m21 {mb f} def /m25 {mb s} def /m22 {mt f} def /m26{mt s} def
/m23 {mp x y w2 sub m w2 w d w neg 0 d cl f} def
/m27 {mp x y w2 add m w3 neg w2 neg d w3 w2 neg d w3 w2 d cl s} def
/m28 {mp x w2 sub y w2 sub w3 add m w3 0 d  0 w3 neg d w3 0 d 0 w3 d w3 0 d  0 w3 d w3 neg 0 d 0 w3 d w3 neg 0 d
 0 w3 neg d w3 neg 0 d cl s } def
/m29 {mp gsave x w2 sub y w2 add w3 sub m currentpoint t
 4 {side} repeat cl fill gr} def
/m30 {mp gsave x w2 sub y w2 add w3 sub m currentpoint t
 5 {side} repeat s gr} def
/m31 {mp x y w2 sub m 0 w d x w2 sub y m w 0 d x w2 sub y w2 add m w w neg d x w2 sub y w2
 sub m w w d s} def
/m2 {mp x y w2 sub m 0 w d x w2 sub y m w 0 d s} def
/m5 {mp x w2 sub y w2 sub m w w d x w2 sub y w2 add m w w neg d s} def
/reencdict 24 dict def /ReEncode {reencdict begin /nco&na exch def
/nfnam exch def /basefontname exch def /basefontdict basefontname findfont def
/newfont basefontdict maxlength dict def basefontdict {exch dup /FID ne
{dup /Encoding eq {exch dup length array copy newfont 3 1 roll put} {exch 
newfont 3 1 roll put} ifelse} {pop pop} ifelse } forall newfont
/FontName nfnam put nco&na aload pop nco&na length 2 idiv {newfont
/Encoding get 3 1 roll put} repeat nfnam newfont definefont pop end } def
/accvec [ 176 /agrave 181 /Agrave 190 /acircumflex 192 /Acircumflex
201 /adieresis 204 /Adieresis 209 /ccedilla 210 /Ccedilla 211 /eacute
212 /Eacute 213 /egrave 214 /Egrave 215 /ecircumflex 216 /Ecircumflex
217 /edieresis 218 /Edieresis 219 /icircumflex 220 /Icircumflex
221 /idieresis 222 /Idieresis 223 /ntilde 224 /Ntilde 226 /ocircumflex
228 /Ocircumflex 229 /odieresis 230 /Odieresis 231 /ucircumflex 236 /Ucircumflex
237 /udieresis 238 /Udieresis 239 /aring 242 /Aring 243 /ydieresis
244 /Ydieresis 246 /aacute 247 /Aacute 252 /ugrave 253 /Ugrave] def
/Times-Roman /Times-Roman accvec ReEncode
/Times-Italic /Times-Italic accvec ReEncode
/Times-Bold /Times-Bold accvec ReEncode
/Times-BoldItalic /Times-BoldItalic accvec ReEncode
/Helvetica /Helvetica accvec ReEncode
/Helvetica-Oblique /Helvetica-Oblique accvec ReEncode
/Helvetica-Bold /Helvetica-Bold accvec ReEncode
/Helvetica-BoldOblique /Helvetica-BoldOblique  accvec ReEncode
/Courier /Courier accvec ReEncode
/Courier-Oblique /Courier-Oblique accvec ReEncode
/Courier-Bold /Courier-Bold accvec ReEncode
/Courier-BoldOblique /Courier-BoldOblique accvec ReEncode
/oshow {gsave [] 0 sd true charpath stroke gr} def
/stwn { /fs exch def /fn exch def /text exch def fn findfont fs sf
 text sw pop xs add /xs exch def} def
/stwb { /fs exch def /fn exch def /nbas exch def /textf exch def
textf length /tlen exch def nbas tlen gt {/nbas tlendef} if
fn findfont fs sf textf dup length nbas sub nbas getinterval sw
pop neg xs add /xs exch def} def
/accspe [ 65 /plusminus  66 /bar  67 /existential  68 /universal 
69 /exclam  70 /numbersign 71 /greater  72 /question  73 /integral 
74 /colon  75 /semicolon  76 /less  77 /bracketleft  78 /bracketright
79 /greaterequal 80 /braceleft 81 /braceright 82 /radical
83 /spade 84 /heart 85 /diamond 86 /club 87 /lessequal
88 /multiply 89 /percent 90 /infinity 48 /circlemultiply 49 /circleplus
50 /emptyset  51 /lozenge 52 /bullet 53 /arrowright 54 /arrowup
55 /arrowleft 56 /arrowdown 57 /arrowboth 48 /degree 44 /comma 43 /plus 45 /angle 42 /angleleft 47 /divide 61 /notequal
 40 /equivalence 41 /second 97 /approxequal 98 /congruent 99 /perpendicular 100 /partialdiff 101 /florin
 102 /intersection 103 /union 104 /propersuperset 105 /reflexsuperset 106 /notsubset 107 /propersubset 108 /reflexsubset
 109 /element 110 /notelement 111 /gradient 112 /logicaland 113 /logicalor 114 /arrowdblboth 115 /arrowdblleft
 116 /arrowdblup 117 /arrowdblright 118 /arrowdbldown 119 /ampersand 120 /omega1 121 /similar 122 /aleph ] def
/Symbol /Special accspe ReEncode
/Zone {/iy exch def /ix exch def  ix 1 sub  3144 mul  1 iy sub  2224
 mul t} def
%%EndProlog
 gsave  90 r 0 -594 t  28 20 t .25 .25 scale  gsave 
%%Page: number 1
 black [] 0 sd 1 lw 0.999 0.999 0.999 c 2363 2268 0 0 bf 0.8 0.8 0.8 c 0 0 m 2 2 d 2264 Y 2359 X 2 2 d -2363 X -2268 Y f
 0.999 0.999 0.999 c 0 0 m 2 2 d 2359 X 2264 Y 2 2 d -2268 Y -2363 X f black [] 0 sd 1 lw 0 0 1 c 294 52 -39 1108 bf
 black [] 0 sd 1 lw -21 1108 m -12 Y 288 X 46 Y -12 X -34 Y f [] 0 sd 1 lw 0 1160 m 255 X s [] 0 sd 1 lw 255 1160 m -52
 Y s [] 0 sd 1 lw 255 1108 m -255 X s 1 1 0 c
 /xs 0 def (ITSV) /Helvetica-Bold 32 stwn  gsave  107 1124
 t 0 r xs 2 div neg 0 t 0 0 m /Helvetica-Bold findfont 32 sf 0 0 m (ITSV) show  gr  black [] 0 sd 1 lw 0 0 1 c 296 52
 550 541 bf black [] 0 sd 1 lw 568 541 m -12 Y 290 X 46 Y -12 X -34 Y f [] 0 sd 1 lw 550 541 m 52 Y s [] 0 sd 1 lw 550
 593 m 296 X s [] 0 sd 1 lw 846 593 m -52 Y s [] 0 sd 1 lw 846 541 m -296 X s 1 1 0 c
 /xs 0 def (IS01) /Helvetica-Bold 32 stwn  gsave  698 557
 t 0 r xs 2 div neg 0 t 0 0 m /Helvetica-Bold findfont 32 sf 0 0 m (IS01) show  gr  black [] 0 sd 1 lw 0 0 1 c 296 52
 550 1675 bf black [] 0 sd 1 lw 568 1675 m -12 Y 290 X 46 Y -12 X -34 Y f [] 0 sd 1 lw 550 1675 m 52 Y s [] 0 sd 1 lw
 550 1727 m 296 X s [] 0 sd 1 lw 846 1727 m -52 Y s [] 0 sd 1 lw 846 1675 m -296 X s 1 1 0 c
 /xs 0 def (IS02) /Helvetica-Bold 32 stwn  gsave  698 1691
 t 0 r xs 2 div neg 0 t 0 0 m /Helvetica-Bold findfont 32 sf 0 0 m (IS02) show  gr  black [] 0 sd 1 lw 0 0 1 c 296 51
 1141 26 bf black [] 0 sd 1 lw 1159 26 m -12 Y 289 X 45 Y -11 X -33 Y f [] 0 sd 1 lw 1141 26 m 51 Y s [] 0 sd 1 lw 1141
 77 m 296 X s [] 0 sd 1 lw 1437 77 m -51 Y s [] 0 sd 1 lw 1437 26 m -296 X s 1 1 0 c
 /xs 0 def (I212) /Helvetica-Bold 32 stwn  gsave  1289 42
 t 0 r xs 2 div neg 0 t 0 0 m /Helvetica-Bold findfont 32 sf 0 0 m (I212) show  gr  black [] 0 sd 1 lw 0 0 1 c 296 51
 1141 129 bf black [] 0 sd 1 lw 1159 129 m -12 Y 289 X 46 Y -11 X -34 Y f [] 0 sd 1 lw 1141 129 m 51 Y s [] 0 sd 1 lw
 1141 180 m 296 X s [] 0 sd 1 lw 1437 180 m -51 Y s [] 0 sd 1 lw 1437 129 m -296 X s 1 1 0 c
 /xs 0 def (I210) /Helvetica-Bold 32 stwn  gsave  1289 145
 t 0 r xs 2 div neg 0 t 0 0 m /Helvetica-Bold findfont 32 sf 0 0 m (I210) show  gr  black [] 0 sd 1 lw 0 0 1 c 296 51
 1141 232 bf black [] 0 sd 1 lw 1159 232 m -12 Y 289 X 46 Y -11 X -34 Y f [] 0 sd 1 lw 1141 232 m 51 Y s [] 0 sd 1 lw
 1141 283 m 296 X s [] 0 sd 1 lw 1437 283 m -51 Y s [] 0 sd 1 lw 1437 232 m -296 X s 1 1 0 c
 /xs 0 def (I211) /Helvetica-Bold 32 stwn  gsave  1289 248
 t 0 r xs 2 div neg 0 t 0 0 m /Helvetica-Bold findfont 32 sf 0 0 m (I211) show  gr  black [] 0 sd 1 lw 0 0 1 c 296 52
 1141 335 bf black [] 0 sd 1 lw 1159 335 m -12 Y 289 X 46 Y -11 X -34 Y f [] 0 sd 1 lw 1141 335 m 52 Y s [] 0 sd 1 lw
 1141 387 m 296 X s [] 0 sd 1 lw 1437 387 m -52 Y s [] 0 sd 1 lw 1437 335 m -296 X s 1 1 0 c
 /xs 0 def (I217) /Helvetica-Bold 32 stwn  gsave  1289 351
 t 0 r xs 2 div neg 0 t 0 0 m /Helvetica-Bold findfont 32 sf 0 0 m (I217) show  gr  black [] 0 sd 1 lw 0 0 1 c 296 52
 1141 438 bf black [] 0 sd 1 lw 1159 438 m -12 Y 289 X 46 Y -11 X -34 Y f [] 0 sd 1 lw 1141 438 m 52 Y s [] 0 sd 1 lw
 1141 490 m 296 X s [] 0 sd 1 lw 1437 490 m -52 Y s [] 0 sd 1 lw 1437 438 m -296 X s 1 1 0 c
 /xs 0 def (I218) /Helvetica-Bold 32 stwn  gsave  1289 454
 t 0 r xs 2 div neg 0 t 0 0 m /Helvetica-Bold findfont 32 sf 0 0 m (I218) show  gr  black [] 0 sd 1 lw 0 0 1 c 296 52
 1141 541 bf black [] 0 sd 1 lw 1159 541 m -12 Y 289 X 46 Y -11 X -34 Y f [] 0 sd 1 lw 1141 541 m 52 Y s [] 0 sd 1 lw
 1141 593 m 296 X s [] 0 sd 1 lw 1437 593 m -52 Y s [] 0 sd 1 lw 1437 541 m -296 X s 1 1 0 c
 /xs 0 def (I219) /Helvetica-Bold 32 stwn  gsave  1289 557
 t 0 r xs 2 div neg 0 t 0 0 m /Helvetica-Bold findfont 32 sf 0 0 m (I219) show  gr  black [] 0 sd 1 lw 0 0 1 c 296 52
 1141 644 bf black [] 0 sd 1 lw 1159 644 m -12 Y 289 X 46 Y -11 X -34 Y f [] 0 sd 1 lw 1141 644 m 52 Y s [] 0 sd 1 lw
 1141 696 m 296 X s [] 0 sd 1 lw 1437 696 m -52 Y s [] 0 sd 1 lw 1437 644 m -296 X s 1 1 0 c
 /xs 0 def (I220) /Helvetica-Bold 32 stwn  gsave  1289 660
 t 0 r xs 2 div neg 0 t 0 0 m /Helvetica-Bold findfont 32 sf 0 0 m (I220) show  gr  black [] 0 sd 1 lw 0 0 1 c 296 52
 1141 747 bf black [] 0 sd 1 lw 1159 747 m -12 Y 289 X 46 Y -11 X -34 Y f [] 0 sd 1 lw 1141 747 m 52 Y s [] 0 sd 1 lw
 1141 799 m 296 X s [] 0 sd 1 lw 1437 799 m -52 Y s [] 0 sd 1 lw 1437 747 m -296 X s 1 1 0 c
 /xs 0 def (I214) /Helvetica-Bold 32 stwn  gsave  1289 763
 t 0 r xs 2 div neg 0 t 0 0 m /Helvetica-Bold findfont 32 sf 0 0 m (I214) show  gr  black [] 0 sd 1 lw 0 0 1 c 296 52
 1141 850 bf black [] 0 sd 1 lw 1159 850 m -11 Y 289 X 45 Y -11 X -34 Y f [] 0 sd 1 lw 1141 850 m 52 Y s [] 0 sd 1 lw
 1141 902 m 296 X s [] 0 sd 1 lw 1437 902 m -52 Y s [] 0 sd 1 lw 1437 850 m -296 X s 1 1 0 c
 /xs 0 def (I213) /Helvetica-Bold 32 stwn  gsave  1289 867
 t 0 r xs 2 div neg 0 t 0 0 m /Helvetica-Bold findfont 32 sf 0 0 m (I213) show  gr  black [] 0 sd 1 lw 0 0 1 c 296 52
 1141 953 bf black [] 0 sd 1 lw 1159 953 m -11 Y 289 X 45 Y -11 X -34 Y f [] 0 sd 1 lw 1141 953 m 52 Y s [] 0 sd 1 lw
 1141 1005 m 296 X s [] 0 sd 1 lw 1437 1005 m -52 Y s [] 0 sd 1 lw 1437 953 m -296 X s 1 1 0 c
 /xs 0 def (I215) /Helvetica-Bold 32 stwn  gsave  1289 970
 t 0 r xs 2 div neg 0 t 0 0 m /Helvetica-Bold findfont 32 sf 0 0 m (I215) show  gr  black [] 0 sd 1 lw 0 0 1 c 296 51
 1141 1057 bf black [] 0 sd 1 lw 1159 1057 m -12 Y 289 X 45 Y -11 X -33 Y f [] 0 sd 1 lw 1141 1057 m 51 Y s [] 0 sd 1 lw
 1141 1108 m 296 X s [] 0 sd 1 lw 1437 1108 m -51 Y s [] 0 sd 1 lw 1437 1057 m -296 X s 1 1 0 c
 /xs 0 def (I216) /Helvetica-Bold 32 stwn  gsave  1289 1073
 t 0 r xs 2 div neg 0 t 0 0 m /Helvetica-Bold findfont 32 sf 0 0 m (I216) show  gr  black [] 0 sd 1 lw 0 0 1 c 296 51
 1141 1160 bf black [] 0 sd 1 lw 1159 1160 m -12 Y 289 X 45 Y -11 X -33 Y f [] 0 sd 1 lw 1141 1160 m 51 Y s [] 0 sd 1 lw
 1141 1211 m 296 X s [] 0 sd 1 lw 1437 1211 m -51 Y s [] 0 sd 1 lw 1437 1160 m -296 X s 1 1 0 c
 /xs 0 def (I093) /Helvetica-Bold 32 stwn  gsave  1289 1176
 t 0 r xs 2 div neg 0 t 0 0 m /Helvetica-Bold findfont 32 sf 0 0 m (I093) show  gr  black [] 0 sd 1 lw 0 0 1 c 296 51
 1141 1263 bf black [] 0 sd 1 lw 1159 1263 m -12 Y 289 X 45 Y -11 X -33 Y f [] 0 sd 1 lw 1141 1263 m 51 Y s [] 0 sd 1 lw
 1141 1314 m 296 X s [] 0 sd 1 lw 1437 1314 m -51 Y s [] 0 sd 1 lw 1437 1263 m -296 X s 1 1 0 c
 /xs 0 def (I099) /Helvetica-Bold 32 stwn  gsave  1289 1279
 t 0 r xs 2 div neg 0 t 0 0 m /Helvetica-Bold findfont 32 sf 0 0 m (I099) show  gr  black [] 0 sd 1 lw 0 0 1 c 296 51
 1141 1366 bf black [] 0 sd 1 lw 1159 1366 m -12 Y 289 X 45 Y -11 X -33 Y f [] 0 sd 1 lw 1141 1366 m 51 Y s [] 0 sd 1 lw
 1141 1417 m 296 X s [] 0 sd 1 lw 1437 1417 m -51 Y s [] 0 sd 1 lw 1437 1366 m -296 X s 1 1 0 c
 /xs 0 def (I200) /Helvetica-Bold 32 stwn  gsave  1289 1382
 t 0 r xs 2 div neg 0 t 0 0 m /Helvetica-Bold findfont 32 sf 0 0 m (I200) show  gr  black [] 0 sd 1 lw 0 0 1 c 296 51
 1141 1469 bf black [] 0 sd 1 lw 1159 1469 m -12 Y 289 X 46 Y -11 X -34 Y f [] 0 sd 1 lw 1141 1469 m 51 Y s [] 0 sd 1 lw
 1141 1520 m 296 X s [] 0 sd 1 lw 1437 1520 m -51 Y s [] 0 sd 1 lw 1437 1469 m -296 X s 1 1 0 c
 /xs 0 def (I090) /Helvetica-Bold 32 stwn  gsave  1289 1485
 t 0 r xs 2 div neg 0 t 0 0 m /Helvetica-Bold findfont 32 sf 0 0 m (I090) show  gr  black [] 0 sd 1 lw 0 0 1 c 296 51
 1141 1572 bf black [] 0 sd 1 lw 1159 1572 m -12 Y 289 X 46 Y -11 X -34 Y f [] 0 sd 1 lw 1141 1572 m 51 Y s [] 0 sd 1 lw
 1141 1623 m 296 X s [] 0 sd 1 lw 1437 1623 m -51 Y s [] 0 sd 1 lw 1437 1572 m -296 X s 1 1 0 c
 /xs 0 def (I089) /Helvetica-Bold 32 stwn  gsave  1289 1588
 t 0 r xs 2 div neg 0 t 0 0 m /Helvetica-Bold findfont 32 sf 0 0 m (I089) show  gr  black [] 0 sd 1 lw 0 0 1 c 296 51
 1141 1727 bf black [] 0 sd 1 lw 1159 1727 m -12 Y 289 X 45 Y -11 X -33 Y f [] 0 sd 1 lw 1141 1727 m 51 Y s [] 0 sd 1 lw
 1141 1778 m 296 X s [] 0 sd 1 lw 1437 1778 m -51 Y s [] 0 sd 1 lw 1437 1727 m -296 X s 1 1 0 c
 /xs 0 def (I098) /Helvetica-Bold 32 stwn  gsave  1289 1743
 t 0 r xs 2 div neg 0 t 0 0 m /Helvetica-Bold findfont 32 sf 0 0 m (I098) show  gr  black [] 0 sd 1 lw 0 0 1 c 296 51
 1141 1933 bf black [] 0 sd 1 lw 1159 1933 m -12 Y 289 X 45 Y -11 X -33 Y f [] 0 sd 1 lw 1141 1933 m 51 Y s [] 0 sd 1 lw
 1141 1984 m 296 X s [] 0 sd 1 lw 1437 1984 m -51 Y s [] 0 sd 1 lw 1437 1933 m -296 X s 1 1 0 c
 /xs 0 def (I097) /Helvetica-Bold 32 stwn  gsave  1289 1949
 t 0 r xs 2 div neg 0 t 0 0 m /Helvetica-Bold findfont 32 sf 0 0 m (I097) show  gr  black [] 0 sd 1 lw 0 0 1 c 296 52
 1141 2087 bf black [] 0 sd 1 lw 1159 2087 m -12 Y 289 X 46 Y -11 X -34 Y f [] 0 sd 1 lw 1141 2087 m 52 Y s [] 0 sd 1 lw
 1141 2139 m 296 X s [] 0 sd 1 lw 1437 2139 m -52 Y s [] 0 sd 1 lw 1437 2087 m -296 X s 1 1 0 c
 /xs 0 def (I202) /Helvetica-Bold 32 stwn  gsave  1289 2104
 t 0 r xs 2 div neg 0 t 0 0 m /Helvetica-Bold findfont 32 sf 0 0 m (I202) show  gr  black [] 0 sd 1 lw 0 0 1 c 296 52
 1141 2190 bf black [] 0 sd 1 lw 1159 2190 m -11 Y 289 X 45 Y -11 X -34 Y f [] 0 sd 1 lw 1141 2190 m 52 Y s [] 0 sd 1 lw
 1141 2242 m 296 X s [] 0 sd 1 lw 1437 2242 m -52 Y s [] 0 sd 1 lw 1437 2190 m -296 X s 1 1 0 c
 /xs 0 def (I203) /Helvetica-Bold 32 stwn  gsave  1289 2207
 t 0 r xs 2 div neg 0 t 0 0 m /Helvetica-Bold findfont 32 sf 0 0 m (I203) show  gr  black [] 0 sd 1 lw 0 0 1 c 295 52
 1732 1675 bf black [] 0 sd 1 lw 1750 1675 m -12 Y 289 X 46 Y -12 X -34 Y f [] 0 sd 1 lw 1732 1675 m 52 Y s [] 0 sd 1 lw
 1732 1727 m 295 X s [] 0 sd 1 lw 2027 1727 m -52 Y s [] 0 sd 1 lw 2027 1675 m -295 X s 1 1 0 c
 /xs 0 def (I095) /Helvetica-Bold 32 stwn  gsave  1880 1691
 t 0 r xs 2 div neg 0 t 0 0 m /Helvetica-Bold findfont 32 sf 0 0 m (I095) show  gr  black [] 0 sd 1 lw 0 0 1 c 295 52
 1732 1778 bf black [] 0 sd 1 lw 1750 1778 m -12 Y 289 X 46 Y -12 X -34 Y f [] 0 sd 1 lw 1732 1778 m 52 Y s [] 0 sd 1 lw
 1732 1830 m 295 X s [] 0 sd 1 lw 2027 1830 m -52 Y s [] 0 sd 1 lw 2027 1778 m -295 X s 1 1 0 c
 /xs 0 def (I096) /Helvetica-Bold 32 stwn  gsave  1880 1794
 t 0 r xs 2 div neg 0 t 0 0 m /Helvetica-Bold findfont 32 sf 0 0 m (I096) show  gr  black [] 0 sd 1 lw 0 0 1 c 295 52
 1732 1881 bf black [] 0 sd 1 lw 1750 1881 m -12 Y 289 X 46 Y -12 X -34 Y f [] 0 sd 1 lw 1732 1881 m 52 Y s [] 0 sd 1 lw
 1732 1933 m 295 X s [] 0 sd 1 lw 2027 1933 m -52 Y s [] 0 sd 1 lw 2027 1881 m -295 X s 1 1 0 c
 /xs 0 def (I094) /Helvetica-Bold 32 stwn  gsave  1880 1897
 t 0 r xs 2 div neg 0 t 0 0 m /Helvetica-Bold findfont 32 sf 0 0 m (I094) show  gr  black [] 0 sd 1 lw 0 0 1 c 295 52
 1732 1984 bf black [] 0 sd 1 lw 1750 1984 m -12 Y 289 X 46 Y -12 X -34 Y f [] 0 sd 1 lw 1732 1984 m 52 Y s [] 0 sd 1 lw
 1732 2036 m 295 X s [] 0 sd 1 lw 2027 2036 m -52 Y s [] 0 sd 1 lw 2027 1984 m -295 X s 1 1 0 c
 /xs 0 def (I096) /Helvetica-Bold 32 stwn  gsave  1880 2000
 t 0 r xs 2 div neg 0 t 0 0 m /Helvetica-Bold findfont 32 sf 0 0 m (I096) show  gr  black [] 0 sd 1 lw 0.95 0.95 0.95 c
 [] 0 sd 1 lw black 255 1134 m 148 X s [] 0 sd 1 lw 403 1134 m -567 Y s [] 0 sd 1 lw 403 567 m 147 X s [] 0 sd 1 lw 0.95
 0.95 0.95 c [] 0 sd 1 lw black 255 1134 m 148 X s [] 0 sd 1 lw 403 1134 m 567 Y s [] 0 sd 1 lw 403 1701 m 147 X s
 [] 0 sd 1 lw 0.95 0.95 0.95 c [] 0 sd 1 lw black 846 567 m 147 X s [] 0 sd 1 lw 993 567 m -515 Y s [] 0 sd 1 lw 993 52
 m 148 X s [] 0 sd 1 lw 0.95 0.95 0.95 c [] 0 sd 1 lw black 846 567 m 147 X s [] 0 sd 1 lw 993 567 m -412 Y s [] 0 sd 1
 lw 993 155 m 148 X s [] 0 sd 1 lw 0.95 0.95 0.95 c [] 0 sd 1 lw black 846 567 m 147 X s [] 0 sd 1 lw 993 567 m -309 Y s
 [] 0 sd 1 lw 993 258 m 148 X s [] 0 sd 1 lw 0.95 0.95 0.95 c [] 0 sd 1 lw black 846 567 m 147 X s [] 0 sd 1 lw 993 567
 m -206 Y s [] 0 sd 1 lw 993 361 m 148 X s [] 0 sd 1 lw 0.95 0.95 0.95 c [] 0 sd 1 lw black 846 567 m 147 X s [] 0 sd 1
 lw 993 567 m -103 Y s [] 0 sd 1 lw 993 464 m 148 X s [] 0 sd 1 lw 0.95 0.95 0.95 c [] 0 sd 1 lw black 846 567 m 147 X s
 [] 0 sd 1 lw 993 567 m cl s [] 0 sd 1 lw 993 567 m 148 X s [] 0 sd 1 lw 0.95 0.95 0.95 c [] 0 sd 1 lw black 846 567 m
 147 X s [] 0 sd 1 lw 993 567 m 103 Y s [] 0 sd 1 lw 993 670 m 148 X s [] 0 sd 1 lw 0.95 0.95 0.95 c [] 0 sd 1 lw black
 846 567 m 147 X s [] 0 sd 1 lw 993 567 m 206 Y s [] 0 sd 1 lw 993 773 m 148 X s [] 0 sd 1 lw 0.95 0.95 0.95 c [] 0 sd 1
 lw black 846 567 m 147 X s [] 0 sd 1 lw 993 567 m 309 Y s [] 0 sd 1 lw 993 876 m 148 X s [] 0 sd 1 lw 0.95 0.95 0.95 c
 [] 0 sd 1 lw black 846 567 m 147 X s [] 0 sd 1 lw 993 567 m 412 Y s [] 0 sd 1 lw 993 979 m 148 X s [] 0 sd 1 lw 0.95
 0.95 0.95 c [] 0 sd 1 lw black 846 567 m 147 X s [] 0 sd 1 lw 993 567 m 515 Y s [] 0 sd 1 lw 993 1082 m 148 X s [] 0 sd
 1 lw 0.95 0.95 0.95 c [] 0 sd 1 lw black 846 1701 m 147 X s [] 0 sd 1 lw 993 1701 m -516 Y s [] 0 sd 1 lw 993 1185 m
 148 X s [] 0 sd 1 lw 0.95 0.95 0.95 c [] 0 sd 1 lw black 846 1701 m 147 X s [] 0 sd 1 lw 993 1701 m -413 Y s [] 0 sd 1
 lw 993 1288 m 148 X s [] 0 sd 1 lw 0.95 0.95 0.95 c [] 0 sd 1 lw black 846 1701 m 147 X s [] 0 sd 1 lw 993 1701 m -309
 Y s [] 0 sd 1 lw 993 1392 m 148 X s [] 0 sd 1 lw 0.95 0.95 0.95 c [] 0 sd 1 lw black 846 1701 m 147 X s [] 0 sd 1 lw
 993 1701 m -206 Y s [] 0 sd 1 lw 993 1495 m 148 X s [] 0 sd 1 lw 0.95 0.95 0.95 c [] 0 sd 1 lw black 846 1701 m 147 X s
 [] 0 sd 1 lw 993 1701 m -103 Y s [] 0 sd 1 lw 993 1598 m 148 X s [] 0 sd 1 lw 0.95 0.95 0.95 c [] 0 sd 1 lw black 846
 1701 m 147 X s [] 0 sd 1 lw 993 1701 m 51 Y s [] 0 sd 1 lw 993 1752 m 148 X s [] 0 sd 1 lw 0.95 0.95 0.95 c [] 0 sd 1
 lw black 846 1701 m 147 X s [] 0 sd 1 lw 993 1701 m 257 Y s [] 0 sd 1 lw 993 1958 m 148 X s [] 0 sd 1 lw 0.95 0.95 0.95
 c [] 0 sd 1 lw black 846 1701 m 147 X s [] 0 sd 1 lw 993 1701 m 412 Y s [] 0 sd 1 lw 993 2113 m 148 X s [] 0 sd 1 lw
 0.95 0.95 0.95 c [] 0 sd 1 lw black 846 1701 m 147 X s [] 0 sd 1 lw 993 1701 m 515 Y s [] 0 sd 1 lw 993 2216 m 148 X s
 [] 0 sd 1 lw 0.95 0.95 0.95 c [] 0 sd 1 lw black 1437 1752 m 147 X s [] 0 sd 1 lw 1584 1752 m -51 Y s [] 0 sd 1 lw 1584
 1701 m 148 X s [] 0 sd 1 lw 0.95 0.95 0.95 c [] 0 sd 1 lw black 1437 1752 m 147 X s [] 0 sd 1 lw 1584 1752 m 52 Y s
 [] 0 sd 1 lw 1584 1804 m 148 X s [] 0 sd 1 lw 0.95 0.95 0.95 c [] 0 sd 1 lw black 1437 1958 m 147 X s [] 0 sd 1 lw 1584
 1958 m -51 Y s [] 0 sd 1 lw 1584 1907 m 148 X s [] 0 sd 1 lw 0.95 0.95 0.95 c [] 0 sd 1 lw black 1437 1958 m 147 X s
 [] 0 sd 1 lw 1584 1958 m 52 Y s [] 0 sd 1 lw 1584 2010 m 148 X s 1 0 0 c gr 
showpage gr
 gr 
%%Trailer
%%Pages:  1
%%EOF
