%!PS-Adobe-2.0 EPSF-2.0
%%BoundingBox:  0 0 567 384
%%Title: ./c1.eps: c1
%%Creator: ROOT Version 4.04/02
%%CreationDate: Thu Jun  9 15:09:44 2005
%%EndComments
%%BeginProlog
80 dict begin
/s {stroke} def /l {lineto} def /m {moveto} def /t {translate} def
/sw {stringwidth} def /r {rotate} def /rl {roll}  def /R {repeat} def
/d {rlineto} def /rm {rmoveto} def /gr {grestore} def /f {eofill} def
/c {setrgbcolor} def /lw {setlinewidth} def /sd {setdash} def
/cl {closepath} def /sf {scalefont setfont} def /black {0 setgray} def
/box {m dup 0 exch d exch 0 d 0 exch neg d cl} def
/NC{systemdict begin initclip end}def/C{NC box clip newpath}def
/bl {box s} def /bf {box f} def /Y { 0 exch d} def /X { 0 d} def 
/mp {newpath /y exch def /x exch def} def
/side {[w .77 mul w .23 mul] .385 w mul sd w 0 l currentpoint t -144 r} def
/mr {mp x y w2 0 360 arc} def /m24 {mr s} def /m20 {mr f} def
/mb {mp x y w2 add m w2 neg 0 d 0 w neg d w 0 d 0 w d cl} def
/mt {mp x y w2 add m w2 neg w neg d w 0 d cl} def
/m21 {mb f} def /m25 {mb s} def /m22 {mt f} def /m26{mt s} def
/m23 {mp x y w2 sub m w2 w d w neg 0 d cl f} def
/m27 {mp x y w2 add m w3 neg w2 neg d w3 w2 neg d w3 w2 d cl s} def
/m28 {mp x w2 sub y w2 sub w3 add m w3 0 d  0 w3 neg d w3 0 d 0 w3 d w3 0 d  0 w3 d w3 neg 0 d 0 w3 d w3 neg 0 d
 0 w3 neg d w3 neg 0 d cl s } def
/m29 {mp gsave x w2 sub y w2 add w3 sub m currentpoint t
 4 {side} repeat cl fill gr} def
/m30 {mp gsave x w2 sub y w2 add w3 sub m currentpoint t
 4 {side} repeat cl s gr} def
/m31 {mp x y w2 sub m 0 w d x w2 sub y m w 0 d x w2 sub y w2 add m w w neg d x w2 sub y w2
 sub m w w d s} def
/m2 {mp x y w2 sub m 0 w d x w2 sub y m w 0 d s} def
/m5 {mp x w2 sub y w2 sub m w w d x w2 sub y w2 add m w w neg d s} def
/reencdict 24 dict def /ReEncode {reencdict begin /nco&na exch def
/nfnam exch def /basefontname exch def /basefontdict basefontname findfont def
/newfont basefontdict maxlength dict def basefontdict {exch dup /FID ne
{dup /Encoding eq {exch dup length array copy newfont 3 1 roll put} {exch 
newfont 3 1 roll put} ifelse} {pop pop} ifelse } forall newfont
/FontName nfnam put nco&na aload pop nco&na length 2 idiv {newfont
/Encoding get 3 1 roll put} repeat nfnam newfont definefont pop end } def
/accvec [ 176 /agrave 181 /Agrave 190 /acircumflex 192 /Acircumflex
201 /adieresis 204 /Adieresis 209 /ccedilla 210 /Ccedilla 211 /eacute
212 /Eacute 213 /egrave 214 /Egrave 215 /ecircumflex 216 /Ecircumflex
217 /edieresis 218 /Edieresis 219 /icircumflex 220 /Icircumflex
221 /idieresis 222 /Idieresis 223 /ntilde 224 /Ntilde 226 /ocircumflex
228 /Ocircumflex 229 /odieresis 230 /Odieresis 231 /ucircumflex 236 /Ucircumflex
237 /udieresis 238 /Udieresis 239 /aring 242 /Aring 243 /ydieresis
244 /Ydieresis 246 /aacute 247 /Aacute 252 /ugrave 253 /Ugrave] def
/Times-Roman /Times-Roman accvec ReEncode
/Times-Italic /Times-Italic accvec ReEncode
/Times-Bold /Times-Bold accvec ReEncode
/Times-BoldItalic /Times-BoldItalic accvec ReEncode
/Helvetica /Helvetica accvec ReEncode
/Helvetica-Oblique /Helvetica-Oblique accvec ReEncode
/Helvetica-Bold /Helvetica-Bold accvec ReEncode
/Helvetica-BoldOblique /Helvetica-BoldOblique  accvec ReEncode
/Courier /Courier accvec ReEncode
/Courier-Oblique /Courier-Oblique accvec ReEncode
/Courier-Bold /Courier-Bold accvec ReEncode
/Courier-BoldOblique /Courier-BoldOblique accvec ReEncode
/oshow {gsave [] 0 sd true charpath stroke gr} def
/stwn { /fs exch def /fn exch def /text exch def fn findfont fs sf
 text sw pop xs add /xs exch def} def
/stwb { /fs exch def /fn exch def /nbas exch def /textf exch deftextf length /tlen exch def nbas tlen gt {/nbas tlendef} iffn findfont fs sf textf dup length nbas sub nbas getinterval sw
pop neg xs add /xs exch def} def
/accspe [ 65 /plusminus  66 /bar  67 /existential  68 /universal 
69 /exclam  70 /numbersign 71 /greater  72 /question  73 /integral 
74 /colon  75 /semicolon  76 /less  77 /bracketleft  78 /bracketright
79 /greaterequal 80 /braceleft 81 /braceright 82 /radical
83 /spade 84 /heart 85 /diamond 86 /club 87 /lessequal
88 /multiply 89 /percent 90 /infinity 48 /circlemultiply 49 /circleplus
50 /emptyset  51 /lozenge 52 /bullet 53 /arrowright 54 /arrowup
55 /arrowleft 56 /arrowdown 57 /arrowboth 48 /degree 44 /comma 43 /plus 45 /angle 42 /angleleft 47 /divide 61 /notequal 40 /equivalence 41 /second 97 /approxequal 98 /congruent 99 /perpendicular 100 /partialdiff 101 /florin 102 /intersection
 103 /union 104 /propersuperset 105 /reflexsuperset 106 /notsubset 107 /propersubset 108 /reflexsubset 109 /element 110 /notelement 111 /gradient 112 /logicaland 113 /logicalor 114 /arrowdblboth 115 /arrowdblleft 116 /arrowdblup 117 /arrowdblright
 118 /arrowdbldown 119 /ampersand 120 /omega1 121 /similar 122 /aleph ] def
/Symbol /Special accspe ReEncode
%%EndProlog
%%BeginSetup
newpath  gsave  .25 .25 scale 
%%EndSetup
 gsave  0 0 t black[  ] 0 sd 3 lw 1 1 1 c 2268 1538 0 0 bf 0 0 m 1 1 d 1536 Y 2266 X 1 1 d -2268 X -1538 Y f 0 0 m 1 1 d 2266 X 1536 Y 1 1 d -1538 Y -2268 X f black 0.999 0.999 0.999 c 1814 1230 227 154 bf 227 154 m 1 1 d 1228 Y 1812 X 1 1 d -1814 X
 -1230 Y f 1 1 1 c 227 154 m 1 1 d 1812 X 1228 Y 1 1 d -1230 Y -1814 X f black 1814 1230 227 154 bl 0.999 0.999 0.999 c 1814 1230 227 154 bf 227 154 m 1 1 d 1228 Y 1812 X 1 1 d -1814 X -1230 Y f 1 1 1 c 227 154 m 1 1 d 1812 X 1228 Y 1 1 d -1230 Y
 -1814 X f black 1814 1230 227 154 bl 227 154 m 1814 X s
 gsave  1756 36
 t 0 r 0 0 m /Helvetica-Bold findfont 58.6478 sf 0 0 m (\), GeV/c^2) show  gr 
 gsave  1743 59
 t 0 r 0 0 m /Helvetica-Bold findfont 39.0986 sf 0 0 m (-) show  gr 
 gsave  1711 36
 t 0 r 0 0 m /Symbol findfont 58.6478 sf 0 0 m (p) show  gr 
 gsave  1688 55
 t 0 r 0 0 m /Helvetica-Bold findfont 39.0986 sf 0 0 m (+) show  gr 
 gsave  1655 36
 t 0 r 0 0 m /Symbol findfont 58.6478 sf 0 0 m (p) show  gr 
 gsave  1587 36
 t 0 r 0 0 m /Helvetica-Bold findfont 58.6478 sf 0 0 m (M\() show  gr  227 191 m -37 Y s[ 4 8] 0 sd 227 1384 m -1230 Y s[  ] 0 sd 302 172 m -18 Y s 378 172 m -18 Y s 454 172 m -18 Y s 529 191 m -37 Y s[ 4 8] 0 sd 529 1384 m -1230 Y s[  ] 0 sd 605 172
 m -18 Y s 680 172 m -18 Y s 756 172 m -18 Y s 831 191 m -37 Y s[ 4 8] 0 sd 831 1384 m -1230 Y s[  ] 0 sd 907 172 m -18 Y s 983 172 m -18 Y s 1058 172 m -18 Y s 1134 191 m -37 Y s[ 4 8] 0 sd 1134 1384 m -1230 Y s[  ] 0 sd 1209 172 m -18 Y s 1285 172
 m -18 Y s 1361 172 m -18 Y s 1436 191 m -37 Y s[ 4 8] 0 sd 1436 1384 m -1230 Y s[  ] 0 sd 1512 172 m -18 Y s 1587 172 m -18 Y s 1663 172 m -18 Y s 1739 191 m -37 Y s[ 4 8] 0 sd 1739 1384 m -1230 Y s[  ] 0 sd 1814 172 m -18 Y s 1890 172 m -18 Y s
 1965 172 m -18 Y s 2041 191 m -37 Y s[ 4 8] 0 sd 2041 1384 m -1230 Y s[  ] 0 sd 2041 191 m -37 Y s[ 4 8] 0 sd 2041 1384 m -1230 Y s
 gsave  166 98
 t 0 r 0 0 m /Helvetica-Bold findfont 58.6478 sf 0 0 m (0.44) show  gr 
 gsave  469 98
 t 0 r 0 0 m /Helvetica-Bold findfont 58.6478 sf 0 0 m (0.46) show  gr 
 gsave  772 98
 t 0 r 0 0 m /Helvetica-Bold findfont 58.6478 sf 0 0 m (0.48) show  gr 
 gsave  1092 98
 t 0 r 0 0 m /Helvetica-Bold findfont 58.6478 sf 0 0 m (0.5) show  gr 
 gsave  1375 98
 t 0 r 0 0 m /Helvetica-Bold findfont 58.6478 sf 0 0 m (0.52) show  gr 
 gsave  1678 98
 t 0 r 0 0 m /Helvetica-Bold findfont 58.6478 sf 0 0 m (0.54) show  gr 
 gsave  1981 98
 t 0 r 0 0 m /Helvetica-Bold findfont 58.6478 sf 0 0 m (0.56) show  gr [  ] 0 sd 227 154 m 1230 Y s[ 4 8] 0 sd 2041 199 m -1814 X s 2041 239 m -1814 X s 2041 504 m -1814 X s 2041 659 m -1814 X s 2041 769 m -1814 X s 2041 854 m -1814 X s 2041 924 m
 -1814 X s 2041 983 m -1814 X s 2041 1034 m -1814 X s 2041 1079 m -1814 X s 2041 1119 m -1814 X s 2041 1384 m -1814 X s[  ] 0 sd 1 1 1 c 30 373 227 154 bf black 1 1 1 c 30 373 257 154 bf black 1 1 1 c 30 354 287 154 bf black 1 1 1 c 31 356 317 154 bf
 black 1 1 1 c 30 335 348 154 bf black 1 1 1 c 30 347 378 154 bf black 1 1 1 c 30 322 408 154 bf black 1 1 1 c 31 327 438 154 bf black 1 1 1 c 30 313 469 154 bf black 1 1 1 c 30 312 499 154 bf black 1 1 1 c 30 315 529 154 bf black 1 1 1 c 31 296 559
 154 bf black 1 1 1 c 30 281 590 154 bf black 1 1 1 c 30 294 620 154 bf black 1 1 1 c 30 282 650 154 bf black 1 1 1 c 31 267 680 154 bf black 1 1 1 c 30 266 711 154 bf black 1 1 1 c 30 261 741 154 bf black 1 1 1 c 30 265 771 154 bf black 1 1 1 c 30
 264 801 154 bf black 1 1 1 c 31 245 831 154 bf black 1 1 1 c 30 274 862 154 bf black 1 1 1 c 30 281 892 154 bf black 1 1 1 c 30 326 922 154 bf black 1 1 1 c 31 446 952 154 bf black 1 1 1 c 30 634 983 154 bf black 1 1 1 c 30 893 1013 154 bf black 1 1
 1 c 30 1113 1043 154 bf black 1 1 1 c 31 1210 1073 154 bf black 1 1 1 c 30 1119 1104 154 bf black 1 1 1 c 30 907 1134 154 bf black 1 1 1 c 30 655 1164 154 bf black 1 1 1 c 31 450 1194 154 bf black 1 1 1 c 30 336 1225 154 bf black 1 1 1 c 30 253 1255
 154 bf black 1 1 1 c 30 208 1285 154 bf black 1 1 1 c 31 155 1315 154 bf black 1 1 1 c 30 143 1346 154 bf black 1 1 1 c 30 130 1376 154 bf black 1 1 1 c 30 122 1406 154 bf black 1 1 1 c 30 124 1436 154 bf black 1 1 1 c 31 116 1466 154 bf black 1 1 1
 c 30 121 1497 154 bf black 1 1 1 c 30 122 1527 154 bf black 1 1 1 c 30 106 1557 154 bf black 1 1 1 c 31 115 1587 154 bf black 1 1 1 c 30 104 1618 154 bf black 1 1 1 c 30 70 1648 154 bf black 1 1 1 c 30 101 1678 154 bf black 1 1 1 c 31 89 1708 154 bf
 black 1 1 1 c 30 73 1739 154 bf black 1 1 1 c 30 78 1769 154 bf black 1 1 1 c 30 76 1799 154 bf black 1 1 1 c 31 38 1829 154 bf black 1 1 1 c 30 65 1860 154 bf black 1 1 1 c 30 66 1890 154 bf black 1 1 1 c 30 35 1920 154 bf black 1 1 1 c 30 61 1950
 154 bf black 1 1 1 c 31 43 1980 154 bf black 1 1 1 c 30 50 2011 154 bf black 1 1 1 c black 227 527 m 2 X s 255 527 m 2 X s 227 520 m 13 Y s 257 520 m 13 Y s /w 26 def /w2 {w 2 div} def /w3 {w 3 div} def 242 527 m24 257 527 m 2 X s 285 527 m 2 X s
 257 520 m 13 Y s 287 520 m 13 Y s 272 527 m24 287 508 m 2 X s 315 508 m 2 X s 287 501 m 13 Y s 317 501 m 13 Y s 302 508 m24 317 510 m 3 X s 346 510 m 2 X s 317 503 m 13 Y s 348 503 m 13 Y s 333 510 m24 348 489 m 2 X s 376 489 m 2 X s 348 482 m 13 Y
 s 378 482 m 13 Y s 363 489 m24 378 501 m 2 X s 406 501 m 2 X s 378 495 m 13 Y s 408 495 m 13 Y s 393 501 m24 408 476 m 2 X s 436 476 m 2 X s 408 470 m 13 Y s 438 470 m 13 Y s 423 476 m24 438 481 m 3 X s 467 481 m 2 X s 438 474 m 13 Y s 469 474 m 13
 Y s 454 481 m24 469 467 m 2 X s 497 467 m 2 X s 469 461 m 13 Y s 499 461 m 13 Y s 484 467 m24 499 466 m 2 X s 527 466 m 2 X s 499 459 m 13 Y s 529 459 m 13 Y s 514 466 m24 529 469 m 2 X s 557 469 m 2 X s 529 462 m 13 Y s 559 462 m 13 Y s 544 469 m24
 559 450 m 2 X s 588 450 m 2 X s 559 444 m 13 Y s 590 444 m 13 Y s 574 450 m24 590 435 m 2 X s 618 435 m 2 X s 590 428 m 13 Y s 620 428 m 13 Y s 605 435 m24 620 448 m 2 X s 648 448 m 2 X s 620 442 m 13 Y s 650 442 m 13 Y s 635 448 m24 650 436 m 2 X s
 678 436 m 2 X s 650 429 m 13 Y s 680 429 m 13 Y s 665 436 m24 680 421 m 2 X s 708 421 m 3 X s 680 414 m 13 Y s 711 414 m 13 Y s 695 421 m24 711 420 m 2 X s 739 420 m 2 X s 711 413 m 13 Y s 741 413 m 13 Y s 726 420 m24 741 415 m 2 X s 769 415 m 2 X s
 741 409 m 13 Y s 771 409 m 13 Y s 756 415 m24 771 419 m 2 X s 799 419 m 2 X s 771 412 m 13 Y s 801 412 m 13 Y s 786 419 m24 801 418 m 2 X s 829 418 m 2 X s 801 411 m 14 Y s 831 411 m 14 Y s 816 418 m24 831 399 m 3 X s 860 399 m 2 X s 831 392 m 13 Y
 s 862 392 m 13 Y s 847 399 m24 862 428 m 2 X s 890 428 m 2 X s 862 422 m 13 Y s 892 422 m 13 Y s 877 428 m24 892 435 m 2 X s 920 435 m 2 X s 892 428 m 13 Y s 922 428 m 13 Y s 907 435 m24 922 480 m 2 X s 950 480 m 2 X s 922 473 m 13 Y s 952 473 m 13
 Y s 937 480 m24 952 600 m 3 X s 981 600 m 2 X s 952 593 m 13 Y s 983 593 m 13 Y s 968 600 m24 983 788 m 2 X s 1011 788 m 2 X s 983 782 m 13 Y s 1013 782 m 13 Y s 998 788 m24 1013 1047 m 2 X s 1041 1047 m 2 X s 1013 1041 m 13 Y s 1043 1041 m 13 Y s
 1028 1047 m24 1043 1267 m 2 X s 1071 1267 m 2 X s 1043 1261 m 13 Y s 1073 1261 m 13 Y s 1058 1267 m24 1073 1364 m 2 X s 1102 1364 m 2 X s 1073 1357 m 13 Y s 1104 1357 m 13 Y s 1089 1364 m24 1104 1273 m 2 X s 1132 1273 m 2 X s 1104 1267 m 13 Y s 1134
 1267 m 13 Y s 1119 1273 m24 1134 1061 m 2 X s 1162 1061 m 2 X s 1134 1054 m 13 Y s 1164 1054 m 13 Y s 1149 1061 m24 1164 809 m 2 X s 1192 809 m 2 X s 1164 803 m 13 Y s 1194 803 m 13 Y s 1179 809 m24 1194 604 m 2 X s 1222 604 m 3 X s 1194 597 m 14 Y
 s 1225 597 m 14 Y s 1209 604 m24 1225 490 m 2 X s 1253 490 m 2 X s 1225 483 m 13 Y s 1255 483 m 13 Y s 1240 490 m24 1255 407 m 2 X s 1283 407 m 2 X s 1255 400 m 13 Y s 1285 400 m 13 Y s 1270 407 m24 1285 362 m 2 X s 1313 362 m 2 X s 1285 356 m 13 Y
 s 1315 356 m 13 Y s 1300 362 m24 1315 309 m 2 X s 1343 309 m 3 X s 1315 303 m 13 Y s 1346 303 m 13 Y s 1330 309 m24 1346 297 m 2 X s 1374 297 m 2 X s 1346 290 m 13 Y s 1376 290 m 13 Y s 1361 297 m24 1376 284 m 2 X s 1404 284 m 2 X s 1376 278 m 13 Y
 s 1406 278 m 13 Y s 1391 284 m24 1406 276 m 2 X s 1434 276 m 2 X s 1406 269 m 13 Y s 1436 269 m 13 Y s 1421 276 m24 1436 278 m 2 X s 1464 278 m 2 X s 1436 271 m 13 Y s 1466 271 m 13 Y s 1451 278 m24 1466 270 m 3 X s 1495 270 m 2 X s 1466 263 m 13 Y
 s 1497 263 m 13 Y s 1482 270 m24 1497 275 m 2 X s 1525 275 m 2 X s 1497 268 m 13 Y s 1527 268 m 13 Y s 1512 275 m24 1527 276 m 2 X s 1555 276 m 2 X s 1527 269 m 13 Y s 1557 269 m 13 Y s 1542 276 m24 1557 260 m 2 X s 1585 260 m 2 X s 1557 253 m 13 Y
 s 1587 253 m 13 Y s 1572 260 m24 1587 269 m 2 X s 1616 269 m 2 X s 1587 262 m 13 Y s 1618 262 m 13 Y s 1603 269 m24 1618 258 m 2 X s 1646 258 m 2 X s 1618 252 m 13 Y s 1648 252 m 13 Y s 1633 258 m24 1648 224 m 2 X s 1676 224 m 2 X s 1648 217 m 13 Y
 s 1678 217 m 13 Y s 1663 224 m24 1678 255 m 2 X s 1706 255 m 2 X s 1678 249 m 13 Y s 1708 249 m 13 Y s 1693 255 m24 1708 243 m 2 X s 1736 243 m 3 X s 1708 236 m 13 Y s 1739 236 m 13 Y s 1723 243 m24 1739 227 m 2 X s 1767 227 m 2 X s 1739 221 m 13 Y
 s 1769 221 m 13 Y s 1754 227 m24 1769 232 m 2 X s 1797 232 m 2 X s 1769 226 m 13 Y s 1799 226 m 13 Y s 1784 232 m24 1799 230 m 2 X s 1827 230 m 2 X s 1799 224 m 13 Y s 1829 224 m 13 Y s 1814 230 m24 1844 179 m s 1829 192 m 2 X s 1857 192 m 3 X s
 1838 179 m 13 X s 1829 185 m 13 Y s 1860 185 m 13 Y s 1844 192 m24 1860 219 m 2 X s 1888 219 m 2 X s 1860 212 m 13 Y s 1890 212 m 13 Y s 1875 219 m24 1890 220 m 2 X s 1918 220 m 2 X s 1890 214 m 13 Y s 1920 214 m 13 Y s 1905 220 m24 1935 176 m s
 1920 189 m 2 X s 1948 189 m 2 X s 1929 176 m 13 X s 1920 183 m 13 Y s 1950 183 m 13 Y s 1935 189 m24 1950 215 m 2 X s 1978 215 m 2 X s 1950 209 m 13 Y s 1980 209 m 13 Y s 1965 215 m24 1980 197 m 3 X s 2009 197 m 2 X s 1980 190 m 13 Y s 2011 190 m 13
 Y s 1996 197 m24 2011 204 m 2 X s 2039 204 m 2 X s 2011 198 m 13 Y s 2041 198 m 13 Y s 2026 204 m24 9 lw 0.95 0.95 0.95 c black 236 519 m 18 -3 d 18 -3 d 18 -3 d 18 -2 d 19 -3 d 18 -3 d 18 -3 d 18 -3 d 18 -3 d 18 -3 d 18 -3 d 19 -3 d 18 -3 d 18 -3 d
 18 -3 d 18 -3 d 18 -3 d 18 -3 d 19 -3 d 18 -3 d 18 -4 d 18 -3 d 18 -3 d 18 -3 d 18 -3 d 19 -3 d 18 -3 d 18 -4 d 18 -3 d 18 -3 d 18 -3 d 18 -3 d 19 -4 d 18 -3 d 18 -3 d 18 -2 d 18 -1 d 18 7 d 18 28 d 19 67 d 18 122 d 18 163 d 18 171 d 18 153 d 18 117
 d 18 74 d 19 27 d 18 -20 d 18 -68 d s 1125 1250 m 18 -113 d 18 -151 d 18 -176 d 18 -175 d 18 -142 d 19 -89 d 18 -43 d 18 -18 d 18 -8 d 18 -5 d 18 -4 d 18 -3 d 19 -4 d 18 -3 d 18 -4 d 18 -4 d 18 -3 d 18 -4 d 18 -4 d 19 -3 d 18 -4 d 18 -4 d 18 -4 d 18
 -3 d 18 -4 d 18 -4 d 19 -4 d 18 -4 d 18 -4 d 18 -3 d 18 -4 d 18 -4 d 18 -4 d 19 -4 d 18 -4 d 18 -4 d 18 -4 d 18 -4 d 18 -4 d 18 -4 d 19 -4 d 18 -4 d 18 -4 d 18 -4 d 18 -4 d 18 -4 d 18 -5 d 19 -4 d 18 -4 d s 2014 179 m 18 -4 d s 3 lw 0.999 0.999
 0.999 c 816 307 1406 1223 bf black 1416 1223 m -7 Y 813 X 304 Y -7 X -297 Y f 1406 1223 m 307 Y 816 X -307 Y -816 X cl s
 gsave  1502 1473
 t 0 r 0 0 m /Helvetica findfont 61.9061 sf 0 0 m ( / ndf\040) show  gr 
 gsave  1479 1489
 t 0 r 0 0 m /Helvetica findfont 42.3568 sf 0 0 m (2) show  gr 
 gsave  1447 1473
 t 0 r 0 0 m /Symbol findfont 61.9061 sf 0 0 m (c) show  gr 
 gsave  1906 1466
 t 0 r 0 0 m /Helvetica findfont 61.9061 sf 0 0 m (   580 / 57) show  gr 
 gsave  1821 1395
 t 0 r 0 0 m /Helvetica findfont 61.9061 sf 0 0 m (\040) show  gr 
 gsave  1795 1424
 t 0 r 0 0 m /Helvetica findfont 42.3568 sf 0 0 m (0) show  gr 
 gsave  1795 1372
 t 0 r 0 0 m /Helvetica findfont 42.3568 sf 0 0 m (S) show  gr 
 gsave  1447 1395
 t 0 r 0 0 m /Helvetica findfont 61.9061 sf 0 0 m (Number of K) show  gr 
 gsave  1870 1391
 t 0 r 0 0 m /Helvetica findfont 61.9061 sf 0 0 m ( 6.644e+04) show  gr 
 gsave  1447 1313
 t 0 r 0 0 m /Helvetica findfont 61.9061 sf 0 0 m (Mass    \040) show  gr 
 gsave  1984 1313
 t 0 r 0 0 m /Helvetica findfont 61.9061 sf 0 0 m ( 0.4971) show  gr 
 gsave  1447 1245
 t 0 r 0 0 m /Helvetica findfont 61.9061 sf 0 0 m (Sigma   \040) show  gr 
 gsave  1906 1238
 t 0 r 0 0 m /Helvetica findfont 61.9061 sf 0 0 m ( 0.003244) show  gr  227 154 m 1814 X s
 gsave  1756 36
 t 0 r 0 0 m /Helvetica-Bold findfont 58.6478 sf 0 0 m (\), GeV/c^2) show  gr 
 gsave  1743 59
 t 0 r 0 0 m /Helvetica-Bold findfont 39.0986 sf 0 0 m (-) show  gr 
 gsave  1711 36
 t 0 r 0 0 m /Symbol findfont 58.6478 sf 0 0 m (p) show  gr 
 gsave  1688 55
 t 0 r 0 0 m /Helvetica-Bold findfont 39.0986 sf 0 0 m (+) show  gr 
 gsave  1655 36
 t 0 r 0 0 m /Symbol findfont 58.6478 sf 0 0 m (p) show  gr 
 gsave  1587 36
 t 0 r 0 0 m /Helvetica-Bold findfont 58.6478 sf 0 0 m (M\() show  gr  227 191 m -37 Y s 302 172 m -18 Y s 378 172 m -18 Y s 454 172 m -18 Y s 529 191 m -37 Y s 605 172 m -18 Y s 680 172 m -18 Y s 756 172 m -18 Y s 831 191 m -37 Y s 907 172 m -18 Y s
 983 172 m -18 Y s 1058 172 m -18 Y s 1134 191 m -37 Y s 1209 172 m -18 Y s 1285 172 m -18 Y s 1361 172 m -18 Y s 1436 191 m -37 Y s 1512 172 m -18 Y s 1587 172 m -18 Y s 1663 172 m -18 Y s 1739 191 m -37 Y s 1814 172 m -18 Y s 1890 172 m -18 Y s
 1965 172 m -18 Y s 2041 191 m -37 Y s 2041 191 m -37 Y s
 gsave  166 98
 t 0 r 0 0 m /Helvetica-Bold findfont 58.6478 sf 0 0 m (0.44) show  gr 
 gsave  469 98
 t 0 r 0 0 m /Helvetica-Bold findfont 58.6478 sf 0 0 m (0.46) show  gr 
 gsave  772 98
 t 0 r 0 0 m /Helvetica-Bold findfont 58.6478 sf 0 0 m (0.48) show  gr 
 gsave  1092 98
 t 0 r 0 0 m /Helvetica-Bold findfont 58.6478 sf 0 0 m (0.5) show  gr 
 gsave  1375 98
 t 0 r 0 0 m /Helvetica-Bold findfont 58.6478 sf 0 0 m (0.52) show  gr 
 gsave  1678 98
 t 0 r 0 0 m /Helvetica-Bold findfont 58.6478 sf 0 0 m (0.54) show  gr 
 gsave  1981 98
 t 0 r 0 0 m /Helvetica-Bold findfont 58.6478 sf 0 0 m (0.56) show  gr  227 154 m 1230 Y s
 gsave  78 775
 t 90 r 0 0 m /Helvetica-Bold findfont 58.6478 sf 0 0 m (Entries/0.002 GeV/c^2) show  gr  254 199 m -27 X s 281 239 m -54 X s
 gsave  182 238
 t 0 r 0 0 m /Helvetica-Bold findfont 39.0986 sf 0 0 m (3) show  gr 
 gsave  117 209
 t 0 r 0 0 m /Helvetica-Bold findfont 58.6478 sf 0 0 m (10) show  gr  254 504 m -27 X s 254 659 m -27 X s 254 769 m -27 X s 254 854 m -27 X s 254 924 m -27 X s 254 983 m -27 X s 254 1034 m -27 X s 254 1079 m -27 X s 281 1119 m -54 X s
 gsave  182 1114
 t 0 r 0 0 m /Helvetica-Bold findfont 39.0986 sf 0 0 m (4) show  gr 
 gsave  117 1088
 t 0 r 0 0 m /Helvetica-Bold findfont 58.6478 sf 0 0 m (10) show  gr  254 1384 m -27 X s 0.999 0.999 0.999 c 816 307 1406 1223 bf black 1416 1223 m -7 Y 813 X 304 Y -7 X -297 Y f 1406 1223 m 307 Y 816 X -307 Y -816 X cl s
 gsave  1502 1473
 t 0 r 0 0 m /Helvetica findfont 61.9061 sf 0 0 m ( / ndf\040) show  gr 
 gsave  1479 1489
 t 0 r 0 0 m /Helvetica findfont 42.3568 sf 0 0 m (2) show  gr 
 gsave  1447 1473
 t 0 r 0 0 m /Symbol findfont 61.9061 sf 0 0 m (c) show  gr 
 gsave  1906 1466
 t 0 r 0 0 m /Helvetica findfont 61.9061 sf 0 0 m (   580 / 57) show  gr 
 gsave  1821 1395
 t 0 r 0 0 m /Helvetica findfont 61.9061 sf 0 0 m (\040) show  gr 
 gsave  1795 1424
 t 0 r 0 0 m /Helvetica findfont 42.3568 sf 0 0 m (0) show  gr 
 gsave  1795 1372
 t 0 r 0 0 m /Helvetica findfont 42.3568 sf 0 0 m (S) show  gr 
 gsave  1447 1395
 t 0 r 0 0 m /Helvetica findfont 61.9061 sf 0 0 m (Number of K) show  gr 
 gsave  1870 1391
 t 0 r 0 0 m /Helvetica findfont 61.9061 sf 0 0 m ( 6.644e+04) show  gr 
 gsave  1447 1313
 t 0 r 0 0 m /Helvetica findfont 61.9061 sf 0 0 m (Mass    \040) show  gr 
 gsave  1984 1313
 t 0 r 0 0 m /Helvetica findfont 61.9061 sf 0 0 m ( 0.4971) show  gr 
 gsave  1447 1245
 t 0 r 0 0 m /Helvetica findfont 61.9061 sf 0 0 m (Sigma   \040) show  gr 
 gsave  1906 1238
 t 0 r 0 0 m /Helvetica findfont 61.9061 sf 0 0 m ( 0.003244) show  gr  0.95 0.95 0.95 c 1009 113 23 1417 bf black 32 1417 m -7 Y 1007 X 110 Y -7 X -103 Y f 23 1417 m 113 Y 1009 X -113 Y -1009 X cl s 1 1 1 c black
 gsave  147 1443
 t 0 r 0 0 m /Helvetica-Bold findfont 68.4225 sf 0 0 m ( mass \(3840 PbPb events\)) show  gr 
 gsave  117 1479
 t 0 r 0 0 m /Helvetica-Bold findfont 45.615 sf 0 0 m (0) show  gr 
 gsave  117 1424
 t 0 r 0 0 m /Helvetica-Bold findfont 45.615 sf 0 0 m (S) show  gr 
 gsave  65 1443
 t 0 r 0 0 m /Helvetica-Bold findfont 68.4225 sf 0 0 m (K) show  gr 
 gr  gr 
showpage
end
%%EOF
