%!PS-Adobe-2.0 EPSF-2.0
%%BoundingBox:  0 0 567 384
%%Title: ./c1.eps: c1
%%Creator: ROOT Version 4.04/02
%%CreationDate: Sun Jun  5 09:51:19 2005
%%EndComments
%%BeginProlog
80 dict begin
/s {stroke} def /l {lineto} def /m {moveto} def /t {translate} def
/sw {stringwidth} def /r {rotate} def /rl {roll}  def /R {repeat} def
/d {rlineto} def /rm {rmoveto} def /gr {grestore} def /f {eofill} def
/c {setrgbcolor} def /lw {setlinewidth} def /sd {setdash} def
/cl {closepath} def /sf {scalefont setfont} def /black {0 setgray} def
/box {m dup 0 exch d exch 0 d 0 exch neg d cl} def
/NC{systemdict begin initclip end}def/C{NC box clip newpath}def
/bl {box s} def /bf {box f} def /Y { 0 exch d} def /X { 0 d} def 
/mp {newpath /y exch def /x exch def} def
/side {[w .77 mul w .23 mul] .385 w mul sd w 0 l currentpoint t -144 r} def
/mr {mp x y w2 0 360 arc} def /m24 {mr s} def /m20 {mr f} def
/mb {mp x y w2 add m w2 neg 0 d 0 w neg d w 0 d 0 w d cl} def
/mt {mp x y w2 add m w2 neg w neg d w 0 d cl} def
/m21 {mb f} def /m25 {mb s} def /m22 {mt f} def /m26{mt s} def
/m23 {mp x y w2 sub m w2 w d w neg 0 d cl f} def
/m27 {mp x y w2 add m w3 neg w2 neg d w3 w2 neg d w3 w2 d cl s} def
/m28 {mp x w2 sub y w2 sub w3 add m w3 0 d  0 w3 neg d w3 0 d 0 w3 d w3 0 d  0 w3 d w3 neg 0 d 0 w3 d w3 neg 0 d
 0 w3 neg d w3 neg 0 d cl s } def
/m29 {mp gsave x w2 sub y w2 add w3 sub m currentpoint t
 4 {side} repeat cl fill gr} def
/m30 {mp gsave x w2 sub y w2 add w3 sub m currentpoint t
 4 {side} repeat cl s gr} def
/m31 {mp x y w2 sub m 0 w d x w2 sub y m w 0 d x w2 sub y w2 add m w w neg d x w2 sub y w2
 sub m w w d s} def
/m2 {mp x y w2 sub m 0 w d x w2 sub y m w 0 d s} def
/m5 {mp x w2 sub y w2 sub m w w d x w2 sub y w2 add m w w neg d s} def
/reencdict 24 dict def /ReEncode {reencdict begin /nco&na exch def
/nfnam exch def /basefontname exch def /basefontdict basefontname findfont def
/newfont basefontdict maxlength dict def basefontdict {exch dup /FID ne
{dup /Encoding eq {exch dup length array copy newfont 3 1 roll put} {exch 
newfont 3 1 roll put} ifelse} {pop pop} ifelse } forall newfont
/FontName nfnam put nco&na aload pop nco&na length 2 idiv {newfont
/Encoding get 3 1 roll put} repeat nfnam newfont definefont pop end } def
/accvec [ 176 /agrave 181 /Agrave 190 /acircumflex 192 /Acircumflex
201 /adieresis 204 /Adieresis 209 /ccedilla 210 /Ccedilla 211 /eacute
212 /Eacute 213 /egrave 214 /Egrave 215 /ecircumflex 216 /Ecircumflex
217 /edieresis 218 /Edieresis 219 /icircumflex 220 /Icircumflex
221 /idieresis 222 /Idieresis 223 /ntilde 224 /Ntilde 226 /ocircumflex
228 /Ocircumflex 229 /odieresis 230 /Odieresis 231 /ucircumflex 236 /Ucircumflex
237 /udieresis 238 /Udieresis 239 /aring 242 /Aring 243 /ydieresis
244 /Ydieresis 246 /aacute 247 /Aacute 252 /ugrave 253 /Ugrave] def
/Times-Roman /Times-Roman accvec ReEncode
/Times-Italic /Times-Italic accvec ReEncode
/Times-Bold /Times-Bold accvec ReEncode
/Times-BoldItalic /Times-BoldItalic accvec ReEncode
/Helvetica /Helvetica accvec ReEncode
/Helvetica-Oblique /Helvetica-Oblique accvec ReEncode
/Helvetica-Bold /Helvetica-Bold accvec ReEncode
/Helvetica-BoldOblique /Helvetica-BoldOblique  accvec ReEncode
/Courier /Courier accvec ReEncode
/Courier-Oblique /Courier-Oblique accvec ReEncode
/Courier-Bold /Courier-Bold accvec ReEncode
/Courier-BoldOblique /Courier-BoldOblique accvec ReEncode
/oshow {gsave [] 0 sd true charpath stroke gr} def
/stwn { /fs exch def /fn exch def /text exch def fn findfont fs sf
 text sw pop xs add /xs exch def} def
/stwb { /fs exch def /fn exch def /nbas exch def /textf exch deftextf length /tlen exch def nbas tlen gt {/nbas tlendef} iffn findfont fs sf textf dup length nbas sub nbas getinterval sw
pop neg xs add /xs exch def} def
/accspe [ 65 /plusminus  66 /bar  67 /existential  68 /universal 
69 /exclam  70 /numbersign 71 /greater  72 /question  73 /integral 
74 /colon  75 /semicolon  76 /less  77 /bracketleft  78 /bracketright
79 /greaterequal 80 /braceleft 81 /braceright 82 /radical
83 /spade 84 /heart 85 /diamond 86 /club 87 /lessequal
88 /multiply 89 /percent 90 /infinity 48 /circlemultiply 49 /circleplus
50 /emptyset  51 /lozenge 52 /bullet 53 /arrowright 54 /arrowup
55 /arrowleft 56 /arrowdown 57 /arrowboth 48 /degree 44 /comma 43 /plus 45 /angle 42 /angleleft 47 /divide 61 /notequal 40 /equivalence 41 /second 97 /approxequal 98 /congruent 99 /perpendicular 100 /partialdiff 101 /florin 102 /intersection
 103 /union 104 /propersuperset 105 /reflexsuperset 106 /notsubset 107 /propersubset 108 /reflexsubset 109 /element 110 /notelement 111 /gradient 112 /logicaland 113 /logicalor 114 /arrowdblboth 115 /arrowdblleft 116 /arrowdblup 117 /arrowdblright
 118 /arrowdbldown 119 /ampersand 120 /omega1 121 /similar 122 /aleph ] def
/Symbol /Special accspe ReEncode
%%EndProlog
%%BeginSetup
newpath  gsave  .25 .25 scale 
%%EndSetup
 gsave  0 0 t black[  ] 0 sd 3 lw 0.999 0.999 0.999 c 2268 1538 0 0 bf 0 0 m 1 1 d 1536 Y 2266 X 1 1 d -2268 X -1538 Y f 1 1 1 c 0 0 m 1 1 d 2266 X 1536 Y 1 1 d -1538 Y -2268 X f black 0.999 0.999 0.999 c 1814 1230 227 154 bf 227 154 m 1 1 d 1228 Y
 1812 X 1 1 d -1814 X -1230 Y f 1 1 1 c 227 154 m 1 1 d 1812 X 1228 Y 1 1 d -1230 Y -1814 X f black 1814 1230 227 154 bl 0.999 0.999 0.999 c 1814 1230 227 154 bf 227 154 m 1 1 d 1228 Y 1812 X 1 1 d -1814 X -1230 Y f 1 1 1 c 227 154 m 1 1 d 1812 X
 1228 Y 1 1 d -1230 Y -1814 X f black 1814 1230 227 154 bl 1 1 1 c black /w 26 def /w2 {w 2 div} def /w3 {w 3 div} def 236 154 m24 256 244 m24 275 406 m 10 Y s 275 442 m 9 Y s 275 429 m24 294 530 m 14 Y s 294 570 m 15 Y s 294 557 m24 314 553 m 15 Y s
 314 594 m 15 Y s 314 581 m24 333 608 m 17 Y s 333 651 m 17 Y s 333 638 m24 352 562 m 15 Y s 352 603 m 16 Y s 352 590 m24 372 631 m 18 Y s 372 675 m 17 Y s 372 662 m24 391 720 m 21 Y s 391 767 m 20 Y s 391 754 m24 410 703 m 19 Y s 410 748 m 20 Y s
 410 735 m24 429 765 m 21 Y s 429 812 m 22 Y s 429 799 m24 449 744 m 20 Y s 449 790 m 21 Y s 449 777 m24 468 731 m 21 Y s 468 778 m 20 Y s 468 765 m24 487 767 m 21 Y s 487 814 m 22 Y s 487 801 m24 507 726 m 20 Y s 507 772 m 20 Y s 507 759 m24 526 792
 m 22 Y s 526 840 m 22 Y s 526 827 m24 545 890 m 25 Y s 545 941 m 25 Y s 545 928 m24 565 845 m 24 Y s 565 895 m 24 Y s 565 882 m24 584 905 m 25 Y s 584 956 m 25 Y s 584 943 m24 603 869 m 24 Y s 603 919 m 24 Y s 603 906 m24 622 915 m 26 Y s 622 967 m
 25 Y s 622 954 m24 642 854 m 24 Y s 642 904 m 24 Y s 642 891 m24 661 901 m 25 Y s 661 952 m 25 Y s 661 939 m24 680 971 m 26 Y s 680 1023 m 27 Y s 680 1010 m24 700 922 m 26 Y s 700 974 m 25 Y s 700 961 m24 719 971 m 26 Y s 719 1023 m 27 Y s 719 1010
 m24 738 931 m 26 Y s 738 983 m 26 Y s 738 970 m24 758 956 m 27 Y s 758 1009 m 26 Y s 758 996 m24 777 1057 m 28 Y s 777 1111 m 29 Y s 777 1098 m24 796 1041 m 28 Y s 796 1095 m 28 Y s 796 1082 m24 815 1073 m 29 Y s 815 1128 m 29 Y s 815 1115 m24 835
 1125 m 30 Y s 835 1181 m 30 Y s 835 1168 m24 854 1190 m 31 Y s 854 1247 m 32 Y s 854 1234 m24 873 1213 m 32 Y s 873 1271 m 32 Y s 873 1258 m24 893 1209 m 32 Y s 893 1267 m 32 Y s 893 1254 m24 912 1172 m 31 Y s 912 1229 m 31 Y s 912 1216 m24 931 1148
 m 31 Y s 931 1205 m 31 Y s 931 1192 m24 951 1080 m 29 Y s 951 1135 m 29 Y s 951 1122 m24 970 1075 m 29 Y s 970 1130 m 29 Y s 970 1117 m24 989 1093 m 29 Y s 989 1148 m 30 Y s 989 1135 m24 1008 1055 m 29 Y s 1008 1110 m 28 Y s 1008 1097 m24 1028 1039
 m 28 Y s 1028 1093 m 28 Y s 1028 1080 m24 1047 1032 m 28 Y s 1047 1086 m 28 Y s 1047 1073 m24 1066 990 m 28 Y s 1066 1044 m 27 Y s 1066 1031 m24 1086 1053 m 29 Y s 1086 1108 m 28 Y s 1086 1095 m24 1105 1093 m 29 Y s 1105 1148 m 30 Y s 1105 1135 m24
 1124 965 m 27 Y s 1124 1018 m 26 Y s 1124 1005 m24 1144 1041 m 28 Y s 1144 1095 m 28 Y s 1144 1082 m24 1163 974 m 27 Y s 1163 1027 m 27 Y s 1163 1014 m24 1182 1130 m 31 Y s 1182 1187 m 30 Y s 1182 1174 m24 1201 1037 m 28 Y s 1201 1091 m 28 Y s 1201
 1078 m24 1221 1082 m 29 Y s 1221 1137 m 29 Y s 1221 1124 m24 1240 999 m 28 Y s 1240 1053 m 27 Y s 1240 1040 m24 1259 1087 m 30 Y s 1259 1143 m 29 Y s 1259 1130 m24 1279 1064 m 29 Y s 1279 1119 m 29 Y s 1279 1106 m24 1298 1069 m 29 Y s 1298 1124 m 29
 Y s 1298 1111 m24 1317 987 m 27 Y s 1317 1040 m 27 Y s 1317 1027 m24 1337 1080 m 29 Y s 1337 1135 m 29 Y s 1337 1122 m24 1356 1032 m 28 Y s 1356 1086 m 28 Y s 1356 1073 m24 1375 1057 m 28 Y s 1375 1111 m 29 Y s 1375 1098 m24 1394 1100 m 29 Y s 1394
 1156 m 29 Y s 1394 1142 m24 1414 1148 m 31 Y s 1414 1205 m 31 Y s 1414 1192 m24 1433 1084 m 29 Y s 1433 1139 m 29 Y s 1433 1126 m24 1452 1120 m 30 Y s 1452 1176 m 30 Y s 1452 1163 m24 1472 1059 m 28 Y s 1472 1113 m 29 Y s 1472 1100 m24 1491 1111 m
 29 Y s 1491 1167 m 29 Y s 1491 1153 m24 1510 1042 m 29 Y s 1510 1097 m 28 Y s 1510 1084 m24 1530 1154 m 30 Y s 1530 1211 m 30 Y s 1530 1198 m24 1549 1143 m 30 Y s 1549 1200 m 30 Y s 1549 1187 m24 1568 1109 m 30 Y s 1568 1165 m 29 Y s 1568 1152 m24
 1587 1116 m 30 Y s 1587 1172 m 30 Y s 1587 1159 m24 1607 1075 m 29 Y s 1607 1130 m 29 Y s 1607 1117 m24 1626 1087 m 30 Y s 1626 1143 m 29 Y s 1626 1130 m24 1645 1175 m 31 Y s 1645 1233 m 31 Y s 1645 1220 m24 1665 1156 m 30 Y s 1665 1212 m 31 Y s
 1665 1199 m24 1684 1127 m 30 Y s 1684 1183 m 30 Y s 1684 1170 m24 1703 1141 m 31 Y s 1703 1198 m 30 Y s 1703 1185 m24 1722 1073 m 29 Y s 1722 1128 m 29 Y s 1722 1115 m24 1742 1138 m 30 Y s 1742 1194 m 30 Y s 1742 1181 m24 1761 1159 m 31 Y s 1761
 1216 m 31 Y s 1761 1203 m24 1780 1159 m 31 Y s 1780 1216 m 31 Y s 1780 1203 m24 1800 1143 m 30 Y s 1800 1200 m 30 Y s 1800 1187 m24 1819 1152 m 31 Y s 1819 1209 m 30 Y s 1819 1196 m24 1838 1145 m 30 Y s 1838 1201 m 31 Y s 1838 1188 m24 1858 1224 m
 32 Y s 1858 1282 m 32 Y s 1858 1269 m24 1877 1179 m 31 Y s 1877 1236 m 31 Y s 1877 1223 m24 1896 1100 m 29 Y s 1896 1156 m 29 Y s 1896 1142 m24 1915 1209 m 32 Y s 1915 1267 m 32 Y s 1915 1254 m24 1935 1138 m 30 Y s 1935 1194 m 30 Y s 1935 1181 m24
 1954 1235 m 32 Y s 1954 1293 m 33 Y s 1954 1280 m24 1973 1132 m 30 Y s 1973 1189 m 30 Y s 1973 1175 m24 1993 1191 m 32 Y s 1993 1249 m 32 Y s 1993 1236 m24 2012 1150 m 31 Y s 2012 1207 m 31 Y s 2012 1194 m24 2031 1150 m 31 Y s 2031 1207 m 31 Y s
 2031 1194 m24 227 154 m 1814 X s
 gsave  2017 55
 t 0 r 0 0 m /Helvetica-Bold findfont 39.0986 sf 0 0 m (2) show  gr 
 gsave  1799 29
 t 0 r 0 0 m /Helvetica-Bold findfont 58.6478 sf 0 0 m (\), GeV/c) show  gr 
 gsave  1786 59
 t 0 r 0 0 m /Helvetica-Bold findfont 39.0986 sf 0 0 m (-) show  gr 
 gsave  1743 29
 t 0 r 0 0 m /Helvetica-Bold findfont 58.6478 sf 0 0 m (K) show  gr 
 gsave  1720 59
 t 0 r 0 0 m /Helvetica-Bold findfont 39.0986 sf 0 0 m (+) show  gr 
 gsave  1610 29
 t 0 r 0 0 m /Helvetica-Bold findfont 58.6478 sf 0 0 m (M\(K) show  gr  304 191 m -37 Y s 343 172 m -18 Y s 381 172 m -18 Y s 420 172 m -18 Y s 458 172 m -18 Y s 497 191 m -37 Y s 536 172 m -18 Y s 574 172 m -18 Y s 613 172 m -18 Y s 651 172 m -18 Y
 s 690 191 m -37 Y s 729 172 m -18 Y s 767 172 m -18 Y s 806 172 m -18 Y s 844 172 m -18 Y s 883 191 m -37 Y s 922 172 m -18 Y s 960 172 m -18 Y s 999 172 m -18 Y s 1037 172 m -18 Y s 1076 191 m -37 Y s 1115 172 m -18 Y s 1153 172 m -18 Y s 1192 172
 m -18 Y s 1230 172 m -18 Y s 1269 191 m -37 Y s 1308 172 m -18 Y s 1346 172 m -18 Y s 1385 172 m -18 Y s 1423 172 m -18 Y s 1462 191 m -37 Y s 1501 172 m -18 Y s 1539 172 m -18 Y s 1578 172 m -18 Y s 1616 172 m -18 Y s 1655 191 m -37 Y s 1694 172 m
 -18 Y s 1732 172 m -18 Y s 1771 172 m -18 Y s 1809 172 m -18 Y s 1848 191 m -37 Y s 1887 172 m -18 Y s 1925 172 m -18 Y s 1964 172 m -18 Y s 2002 172 m -18 Y s 2041 191 m -37 Y s 304 191 m -37 Y s 265 172 m -18 Y s 227 172 m -18 Y s
 gsave  244 98
 t 0 r 0 0 m /Helvetica-Bold findfont 58.6478 sf 0 0 m (0.99) show  gr 
 gsave  482 98
 t 0 r 0 0 m /Helvetica-Bold findfont 58.6478 sf 0 0 m (1) show  gr 
 gsave  632 98
 t 0 r 0 0 m /Helvetica-Bold findfont 58.6478 sf 0 0 m (1.01) show  gr 
 gsave  821 98
 t 0 r 0 0 m /Helvetica-Bold findfont 58.6478 sf 0 0 m (1.02) show  gr 
 gsave  1017 98
 t 0 r 0 0 m /Helvetica-Bold findfont 58.6478 sf 0 0 m (1.03) show  gr 
 gsave  1209 98
 t 0 r 0 0 m /Helvetica-Bold findfont 58.6478 sf 0 0 m (1.04) show  gr 
 gsave  1401 98
 t 0 r 0 0 m /Helvetica-Bold findfont 58.6478 sf 0 0 m (1.05) show  gr 
 gsave  1593 98
 t 0 r 0 0 m /Helvetica-Bold findfont 58.6478 sf 0 0 m (1.06) show  gr 
 gsave  1789 98
 t 0 r 0 0 m /Helvetica-Bold findfont 58.6478 sf 0 0 m (1.07) show  gr 
 gsave  1981 98
 t 0 r 0 0 m /Helvetica-Bold findfont 58.6478 sf 0 0 m (1.08) show  gr  227 154 m 1230 Y s
 gsave  59 1362
 t 90 r 0 0 m /Helvetica-Bold findfont 39.0986 sf 0 0 m (2) show  gr 
 gsave  85 818
 t 90 r 0 0 m /Helvetica-Bold findfont 58.6478 sf 0 0 m (Entries/0.001 GeV/c) show  gr  281 154 m -54 X s 254 190 m -27 X s 254 227 m -27 X s 254 264 m -27 X s 254 301 m -27 X s 281 337 m -54 X s 254 374 m -27 X s 254 411 m -27 X s 254 447 m -27 X s
 254 484 m -27 X s 281 521 m -54 X s 254 557 m -27 X s 254 594 m -27 X s 254 631 m -27 X s 254 667 m -27 X s 281 704 m -54 X s 254 741 m -27 X s 254 777 m -27 X s 254 814 m -27 X s 254 851 m -27 X s 281 888 m -54 X s 254 924 m -27 X s 254 961 m -27 X
 s 254 998 m -27 X s 254 1034 m -27 X s 281 1071 m -54 X s 254 1108 m -27 X s 254 1144 m -27 X s 254 1181 m -27 X s 254 1218 m -27 X s 281 1254 m -54 X s 281 1254 m -54 X s 254 1291 m -27 X s 254 1328 m -27 X s 254 1364 m -27 X s
 gsave  182 130
 t 0 r 0 0 m /Helvetica-Bold findfont 58.6478 sf 0 0 m (0) show  gr 
 gsave  117 313
 t 0 r 0 0 m /Helvetica-Bold findfont 58.6478 sf 0 0 m (100) show  gr 
 gsave  117 495
 t 0 r 0 0 m /Helvetica-Bold findfont 58.6478 sf 0 0 m (200) show  gr 
 gsave  117 681
 t 0 r 0 0 m /Helvetica-Bold findfont 58.6478 sf 0 0 m (300) show  gr 
 gsave  117 863
 t 0 r 0 0 m /Helvetica-Bold findfont 58.6478 sf 0 0 m (400) show  gr 
 gsave  117 1046
 t 0 r 0 0 m /Helvetica-Bold findfont 58.6478 sf 0 0 m (500) show  gr 
 gsave  117 1228
 t 0 r 0 0 m /Helvetica-Bold findfont 58.6478 sf 0 0 m (600) show  gr  6 lw 1 1 1 c black 227 154 m 19 X 92 Y 19 X 204 Y 20 X 87 Y 19 X 61 Y 19 X 16 Y 20 X -2 Y 19 X 70 Y 19 X 41 Y 19 X 40 Y 20 X 34 Y 19 X -2 Y 19 X -8 Y 20 X 34 Y 19 X -26 Y 19 X 51
 Y 20 X 18 Y 19 X 28 Y 19 X 20 Y 19 X -5 Y 20 X 45 Y 19 X -31 Y 19 X 40 Y 20 X -21 Y 19 X 51 Y 19 X 35 Y 20 X -18 Y 19 X 5 Y 19 X 75 Y 19 X -4 Y 20 X 46 Y 19 X 54 Y 19 X 42 Y 20 X 20 Y 19 X 46 Y 19 X -98 Y 20 X -10 Y 19 X -92 Y 19 X 15 Y 19 X 11 Y 20
 X -4 Y 19 X -65 Y 19 X 44 Y 20 X -24 Y 19 X -3 Y 19 X 62 Y 20 X -56 Y 19 X 1 Y 19 X -8 Y 19 X 53 Y 20 X -35 Y 19 X 4 Y 19 X 5 Y 20 X 55 Y 19 X -18 Y 19 X -20 Y 20 X -50 Y 19 X 83 Y 19 X -68 Y 19 X 43 Y 20 X 13 Y 19 X 23 Y 19 X 10 Y 20 X 25 Y 19 X
 -98 Y 19 X 61 Y 20 X -57 Y 19 X 45 Y 19 X 10 Y 19 X -19 Y 20 X 20 Y 19 X -30 Y 19 X 29 Y 20 X 23 Y 19 X 8 Y 19 X 16 Y 20 X -21 Y 19 X -36 Y 19 X 57 Y 19 X 22 Y 20 X -40 Y 19 X -23 Y 19 X 7 Y 20 X 13 Y 19 X 11 Y 19 X 4 Y 20 X -30 Y 19 X 56 Y 19 X 6 Y
 19 X 49 Y 20 X -68 Y 19 X 4 Y 19 X -12 Y 20 X 10 Y 19 X s[ 12 12] 0 sd 1 1 1 c black 227 154 m 19 X 96 Y 19 X 224 Y 20 X 39 Y 19 X 105 Y 19 X -33 Y 20 X 52 Y 19 X 68 Y 19 X -18 Y 19 X 109 Y 20 X -2 Y 19 X 22 Y 19 X -2 Y 20 X 30 Y 19 X -6 Y 19 X 30 Y
 20 X -83 Y 19 X 116 Y 19 X -26 Y 19 X 32 Y 20 X 29 Y 19 X 11 Y 19 X 28 Y 20 X -144 Y 19 X 177 Y 19 X 17 Y 20 X -2 Y 19 X -28 Y 19 X 24 Y 19 X -22 Y 20 X 35 Y 19 X -7 Y 19 X -22 Y 20 X -19 Y 19 X 117 Y 19 X -111 Y 20 X 46 Y 19 X -44 Y 19 X 55 Y 19 X
 17 Y 20 X 44 Y 19 X -116 Y 19 X 107 Y 20 X 9 Y 19 X -94 Y 19 X 98 Y 20 X 35 Y 19 X -89 Y 19 X 63 Y 19 X -70 Y 20 X 37 Y 19 X -48 Y 19 X 114 Y 20 X 13 Y 19 X -11 Y 19 X -50 Y 20 X -9 Y 19 X 67 Y 19 X -89 Y 19 X 61 Y 20 X -22 Y 19 X -8 Y 19 X 102 Y 20
 X 11 Y 19 X -142 Y 19 X 70 Y 20 X -41 Y 19 X -37 Y 19 X 34 Y 39 X 35 Y 19 X -15 Y 19 X 48 Y 20 X -54 Y 19 X 41 Y 19 X 70 Y 20 X -64 Y 19 X 3 Y 19 X 48 Y 19 X 21 Y 20 X -87 Y 19 X -32 Y 19 X 6 Y 20 X 37 Y 19 X -72 Y 19 X 63 Y 20 X 31 Y 19 X -11 Y 19
 X 98 Y 19 X -9 Y 20 X -24 Y 19 X -63 Y 19 X 24 Y 20 X 22 Y 19 X s[  ] 0 sd 1 1 1 c black 3 lw 545 156 m2 6 lw 3 lw 565 157 m2 6 lw 3 lw 603 156 m2 6 lw 3 lw 622 168 m2 6 lw 3 lw 642 163 m2 6 lw 3 lw 661 167 m2 6 lw 3 lw 680 179 m2 6 lw 3 lw 700 172
 m2 6 lw 3 lw 719 174 m2 6 lw 3 lw 738 183 m2 6 lw 3 lw 758 192 m2 6 lw 3 lw 777 211 m2 6 lw 3 lw 796 244 m2 6 lw 815 255 m 1 Y s 815 283 m 1 Y s 3 lw 815 269 m2 6 lw 835 314 m 5 Y s 835 345 m 5 Y s 3 lw 835 332 m2 6 lw 854 347 m 7 Y s 854 380 m 7 Y
 s 3 lw 854 367 m2 6 lw 873 380 m 9 Y s 873 415 m 8 Y s 3 lw 873 402 m2 6 lw 893 366 m 8 Y s 893 400 m 8 Y s 3 lw 893 387 m2 6 lw 912 314 m 5 Y s 912 345 m 5 Y s 3 lw 912 332 m2 6 lw 931 276 m 2 Y s 931 305 m 2 Y s 3 lw 931 292 m2 6 lw 3 lw 951 218
 m2 6 lw 3 lw 970 203 m2 6 lw 3 lw 989 187 m2 6 lw 3 lw 1008 179 m2 6 lw 3 lw 1028 174 m2 6 lw 3 lw 1047 172 m2 6 lw 3 lw 1066 161 m2 6 lw 3 lw 1086 172 m2 6 lw 3 lw 1105 161 m2 6 lw 3 lw 1124 159 m2 6 lw 3 lw 1144 157 m2 6 lw 3 lw 1163 159 m2 6 lw 3
 lw 1221 156 m2 6 lw 3 lw 1279 156 m2 6 lw 3 lw 1375 156 m2 6 lw 3 lw 1530 156 m2 6 lw 3 lw 1549 156 m2 6 lw 3 lw 1935 156 m2 6 lw 3 lw 1 1 1 c 680 462 1361 461 bf black 1380 461 m -13 Y 674 X 455 Y -13 X -442 Y f 1361 461 m 462 Y 680 X -462 Y -680 X
 cl s
 gsave  1528 844
 t 0 r 0 0 m /Helvetica findfont 52.1314 sf 0 0 m (Data) show  gr  1446 865 m24
 gsave  1528 736
 t 0 r 0 0 m /Helvetica findfont 52.1314 sf 0 0 m (Signal + Background) show  gr  6 lw 1386 750 m 119 X s
 gsave  1528 619
 t 0 r 0 0 m /Helvetica findfont 52.1314 sf 0 0 m (Background) show  gr [ 12 12] 0 sd 1386 634 m 119 X s
 gsave  1528 505
 t 0 r 0 0 m /Helvetica findfont 52.1314 sf 0 0 m (Signal) show  gr [  ] 0 sd 3 lw 1446 519 m2[ 12 12] 0 sd 6 lw[  ] 0 sd 3 lw 0.95 0.95 0.95 c 1195 86 23 1444 bf black 32 1444 m -6 Y 1193 X 82 Y -7 X -76 Y f 23 1444 m 86 Y 1195 X -86 Y -1195 X cl s
 1 1 1 c black
 gsave  104 1463
 t 0 r 0 0 m /Helvetica-Bold findfont 68.4225 sf 0 0 m ( meson mass \(120000 pp events\)) show  gr 
 gsave  68 1463
 t 0 r 0 0 m /Symbol findfont 68.4225 sf 0 0 m (f) show  gr 
 gr  gr 
showpage
end
%%EOF
