%!PS-Adobe-2.0 EPSF-2.0
%%BoundingBox:  0 0 567 320
%%Title: /home/pchrist/ALICE/Notes/TagDB/fig3.eps: POST CREATION
%%Creator: ROOT Version 5.12/00
%%CreationDate: Fri Aug 11 11:19:49 2006
%%EndComments
%%BeginProlog
80 dict begin
/s {stroke} def /l {lineto} def /m {moveto} def /t {translate} def
/sw {stringwidth} def /r {rotate} def /rl {roll}  def /R {repeat} def
/d {rlineto} def /rm {rmoveto} def /gr {grestore} def /f {eofill} def
/c {setrgbcolor} def /black {0 setgray} def /sd {setdash} def
/cl {closepath} def /sf {scalefont setfont} def /lw {setlinewidth} def
/box {m dup 0 exch d exch 0 d 0 exch neg d cl} def
/NC{systemdict begin initclip end}def/C{NC box clip newpath}def
/bl {box s} def /bf {box f} def /Y { 0 exch d} def /X { 0 d} def 
/mp {newpath /y exch def /x exch def} def
/side {[w .77 mul w .23 mul] .385 w mul sd w 0 l currentpoint t -144 r} def
/mr {mp x y w2 0 360 arc} def /m24 {mr s} def /m20 {mr f} def
/mb {mp x y w2 add m w2 neg 0 d 0 w neg d w 0 d 0 w d cl} def
/mt {mp x y w2 add m w2 neg w neg d w 0 d cl} def
/m21 {mb f} def /m25 {mb s} def /m22 {mt f} def /m26{mt s} def
/m23 {mp x y w2 sub m w2 w d w neg 0 d cl f} def
/m27 {mp x y w2 add m w3 neg w2 neg d w3 w2 neg d w3 w2 d cl s} def
/m28 {mp x w2 sub y w2 sub w3 add m w3 0 d  0 w3 neg d w3 0 d 0 w3 d w3 0 d  0 w3 d w3 neg 0 d 0 w3 d w3 neg 0 d
 0 w3 neg d w3 neg 0 d cl s } def
/m29 {mp gsave x w2 sub y w2 add w3 sub m currentpoint t
 4 {side} repeat cl fill gr} def
/m30 {mp gsave x w2 sub y w2 add w3 sub m currentpoint t
 4 {side} repeat cl s gr} def
/m31 {mp x y w2 sub m 0 w d x w2 sub y m w 0 d x w2 sub y w2 add m w w neg d x w2 sub y w2
 sub m w w d s} def
/m2 {mp x y w2 sub m 0 w d x w2 sub y m w 0 d s} def
/m5 {mp x w2 sub y w2 sub m w w d x w2 sub y w2 add m w w neg d s} def
/reencdict 24 dict def /ReEncode {reencdict begin /nco&na exch def
/nfnam exch def /basefontname exch def /basefontdict basefontname findfont def
/newfont basefontdict maxlength dict def basefontdict {exch dup /FID ne
{dup /Encoding eq {exch dup length array copy newfont 3 1 roll put} {exch 
newfont 3 1 roll put} ifelse} {pop pop} ifelse } forall newfont
/FontName nfnam put nco&na aload pop nco&na length 2 idiv {newfont
/Encoding get 3 1 roll put} repeat nfnam newfont definefont pop end } def
/accvec [ 176 /agrave 181 /Agrave 190 /acircumflex 192 /Acircumflex
201 /adieresis 204 /Adieresis 209 /ccedilla 210 /Ccedilla 211 /eacute
212 /Eacute 213 /egrave 214 /Egrave 215 /ecircumflex 216 /Ecircumflex
217 /edieresis 218 /Edieresis 219 /icircumflex 220 /Icircumflex
221 /idieresis 222 /Idieresis 223 /ntilde 224 /Ntilde 226 /ocircumflex
228 /Ocircumflex 229 /odieresis 230 /Odieresis 231 /ucircumflex 236 /Ucircumflex
237 /udieresis 238 /Udieresis 239 /aring 242 /Aring 243 /ydieresis
244 /Ydieresis 246 /aacute 247 /Aacute 252 /ugrave 253 /Ugrave] def
/Times-Roman /Times-Roman accvec ReEncode
/Times-Italic /Times-Italic accvec ReEncode
/Times-Bold /Times-Bold accvec ReEncode
/Times-BoldItalic /Times-BoldItalic accvec ReEncode
/Helvetica /Helvetica accvec ReEncode
/Helvetica-Oblique /Helvetica-Oblique accvec ReEncode
/Helvetica-Bold /Helvetica-Bold accvec ReEncode
/Helvetica-BoldOblique /Helvetica-BoldOblique  accvec ReEncode
/Courier /Courier accvec ReEncode
/Courier-Oblique /Courier-Oblique accvec ReEncode
/Courier-Bold /Courier-Bold accvec ReEncode
/Courier-BoldOblique /Courier-BoldOblique accvec ReEncode
/oshow {gsave [] 0 sd true charpath stroke gr} def
/stwn { /fs exch def /fn exch def /text exch def fn findfont fs sf
 text sw pop xs add /xs exch def} def
/stwb { /fs exch def /fn exch def /nbas exch def /textf exch deftextf length /tlen exch def nbas tlen gt {/nbas tlendef} iffn findfont fs sf textf dup length nbas sub nbas getinterval sw
pop neg xs add /xs exch def} def
/accspe [ 65 /plusminus  66 /bar  67 /existential  68 /universal 
69 /exclam  70 /numbersign 71 /greater  72 /question  73 /integral 
74 /colon  75 /semicolon  76 /less  77 /bracketleft  78 /bracketright
79 /greaterequal 80 /braceleft 81 /braceright 82 /radical
83 /spade 84 /heart 85 /diamond 86 /club 87 /lessequal
88 /multiply 89 /percent 90 /infinity 48 /circlemultiply 49 /circleplus
50 /emptyset  51 /lozenge 52 /bullet 53 /arrowright 54 /arrowup
55 /arrowleft 56 /arrowdown 57 /arrowboth 48 /degree 44 /comma 43 /plus 45 /angle 42 /angleleft 47 /divide 61 /notequal 40 /equivalence 41 /second 97 /approxequal 98 /congruent 99 /perpendicular 100 /partialdiff 101 /florin 102 /intersection
 103 /union 104 /propersuperset 105 /reflexsuperset 106 /notsubset 107 /propersubset 108 /reflexsubset 109 /element 110 /notelement 111 /gradient 112 /logicaland 113 /logicalor 114 /arrowdblboth 115 /arrowdblleft 116 /arrowdblup 117 /arrowdblright
 118 /arrowdbldown 119 /ampersand 120 /omega1 121 /similar 122 /aleph ] def
/Symbol /Special accspe ReEncode
%%EndProlog
%%BeginSetup
%%EndSetup
newpath  gsave  .25 .25 scale  gsave  0 0 t black[  ] 0 sd 3 lw 0.999 0.999 0.999 c 2268 1279 0 0 bf 1 1 1 c 0 0 m 8 8 d 1263 Y 2252 X 8 8 d -2268 X -1279 Y f 0.999 0.999 0.999 c 0 0 m 8 8 d 2252 X 1263 Y 8 8 d -1279 Y -2268 X f black 0.7 0.7 0.7 c
 1079 153 560 996 bf black 571 996 m -7 Y 1075 X 150 Y -7 X -143 Y f 560 996 m 153 Y 1079 X -153 Y -1079 X cl s
 gsave  728 1031
 t 0 r 0 0 m /Helvetica-Bold findfont 91.839 sf 0 0 m (POST CREATION) show  gr  1 0.466667 0 c 410 427 21 400 bf black 35 400 m -9 Y 405 X 421 Y -9 X -412 Y f 21 400 m 427 Y 410 X -427 Y -410 X cl s 1 1 1 c black
 gsave  38 749
 t 0 r 0 0 m /Helvetica-Bold findfont 42.3872 sf 0 0 m (Create a collection) show  gr 
 gsave  75 650
 t 0 r 0 0 m /Helvetica-Bold findfont 32.9678 sf 0 0 m (TGridResult \(GRID\)) show  gr 
 gsave  33 544
 t 0 r 0 0 m /Helvetica-Bold findfont 32.9678 sf 0 0 m (Directory name \(LOCAL\)) show  gr 
 gsave  101 438
 t 0 r 0 0 m /Helvetica-Bold findfont 32.9678 sf 0 0 m (File name \(CAF\)) show  gr  0 0 1 c 12 lw black 0 0 1 c 432 592 m 98 X s 3 lw black 530 611 m 32 -19 d -32 -18 d cl s 12 lw 0 0 1 c 530 611 m 32 -19 d -32 -18 d 37 Y cl s black 3 lw 1 1 0 c
 518 206 562 489 bf black 576 489 m -9 Y 513 X 201 Y -9 X -192 Y f 562 489 m 206 Y 518 X -206 Y -518 X cl s
 gsave  626 560
 t 0 r 0 0 m /Helvetica-Bold findfont 42.3872 sf 0 0 m (Read the collection) show  gr  0 0 1 c 12 lw black 0 0 1 c 821 489 m -121 Y s 3 lw black 839 368 m -18 -32 d -19 32 d cl s 12 lw 0 0 1 c 839 368 m -18 -32 d -19 32 d 37 X cl s black 3 lw 1 1 0
 c 518 198 562 130 bf black 576 130 m -9 Y 513 X 192 Y -9 X -183 Y f 562 130 m 198 Y 518 X -198 Y -518 X cl s
 gsave  666 203
 t 0 r 0 0 m /Helvetica-Bold findfont 42.3872 sf 0 0 m (Create the tags) show  gr  0 0 1 c 12 lw black 0 0 1 c 1080 229 m 111 154 d s 3 lw black 1176 393 m 33 15 d -3 -36 d cl s 12 lw 0 0 1 c 1176 393 m 33 15 d -3 -36 d -30 21 d cl s black 0 0 1 c
 1080 229 m 103 -72 d s 3 lw black 1194 172 m 15 -33 d -36 3 d cl s 12 lw 0 0 1 c 1194 172 m 15 -33 d -36 3 d 21 30 d cl s black 3 lw 1 1 0 c 465 197 1209 310 bf black 1224 310 m -10 Y 459 X 193 Y -9 X -183 Y f 1209 310 m 197 Y 465 X -197 Y -465 X
 cl s
 gsave  1265 381
 t 0 r 0 0 m /Helvetica-Bold findfont 42.3872 sf 0 0 m (Store tags locally) show  gr  1 1 0 c 465 198 1209 40 bf black 1224 40 m -9 Y 459 X 193 Y -9 X -184 Y f 1209 40 m 198 Y 465 X -198 Y -465 X cl s
 gsave  1253 113
 t 0 r 0 0 m /Helvetica-Bold findfont 42.3872 sf 0 0 m (Store tags in AliEn) show  gr  1 1 0 c 303 198 1857 130 bf black 1871 130 m -9 Y 298 X 192 Y -9 X -183 Y f 1857 130 m 198 Y 303 X -198 Y -303 X cl s
 gsave  1856 203
 t 0 r 0 0 m /Helvetica-Bold findfont 42.3872 sf 0 0 m (Merge the tags) show  gr  0 0 1 c 12 lw black 0 0 1 c 1674 408 m 161 -157 d s 3 lw black 1847 264 m 10 -35 d -35 9 d cl s 12 lw 0 0 1 c 1847 264 m 10 -35 d -35 9 d 25 26 d cl s black 0 0 1 c
 1674 139 m 155 76 d s 3 lw black 1821 231 m 36 -2 d -20 -31 d cl s 12 lw 0 0 1 c 1821 231 m 36 -2 d -20 -31 d -16 33 d cl s
 gr  gr 
showpage
end
%%EOF
