%!PS-Adobe-2.0
%%Title: ITShitDensity_5_Eta.ps (Landscape A 4)
%%Pages: (atend)
%%Creator: ROOT Version 2.22/09
%%CreationDate:Sat Sep 18 07:10:29 1999
%%EndComments
%%BeginProlog
/s {stroke} def /l {lineto} def /m {moveto} def /t {translate} def
/sw {stringwidth} def /r {rotate} def /rl {roll}  def /R {repeat} def
/d {rlineto} def /rm {rmoveto} def /gr {grestore} def /f {eofill} def
/c {setrgbcolor} def /lw {setlinewidth} def /sd {setdash} def
/cl {closepath} def /sf {scalefont setfont} def /black {0 setgray} def
/box {m dup 0 exch d exch 0 d 0 exch neg d cl} def
/NC{systemdict begin initclip end}def/C{NC box clip newpath}def
/bl {box s} def /bf {box f} def /Y { 0 exch d} def /X { 0 d} def 
/mp {newpath /y exch def /x exch def} def
/side {[w .77 mul w .23 mul] .385 w mul sd w 0 l currentpoint t -144 r} def
/mr {mp x y w2 0 360 arc} def /m24 {mr s} def /m20 {mr f} def
/mb {mp x y w2 add m w2 neg 0 d 0 w neg d w 0 d 0 w d cl} def
/mt {mp x y w2 add m w2 neg w neg d w 0 d cl} def
/m21 {mb f} def /m25 {mb s} def /m22 {mt f} def /m26{mt s} def
/m23 {mp x y w2 sub m w2 w d w neg 0 d cl f} def
/m27 {mp x y w2 add m w3 neg w2 neg d w3 w2 neg d w3 w2 d cl s} def
/m28 {mp x w2 sub y w2 sub w3 add m w3 0 d  0 w3 neg d w3 0 d 0 w3 d w3 0 d  0 w3 d w3 neg 0 d 0 w3 d w3 neg 0 d
 0 w3 neg d w3 neg 0 d cl s } def
/m29 {mp gsave x w2 sub y w2 add w3 sub m currentpoint t
 4 {side} repeat cl fill gr} def
/m30 {mp gsave x w2 sub y w2 add w3 sub m currentpoint t
 5 {side} repeat s gr} def
/m31 {mp x y w2 sub m 0 w d x w2 sub y m w 0 d x w2 sub y w2 add m w w neg d x w2 sub y w2
 sub m w w d s} def
/m2 {mp x y w2 sub m 0 w d x w2 sub y m w 0 d s} def
/m5 {mp x w2 sub y w2 sub m w w d x w2 sub y w2 add m w w neg d s} def
/DP {/PT exch def gsave 47.2 47.2 scale PT 1  eq { 16 16 1 [ 16 0 0 16 neg 0 16
] { < AA AA 55 55 AA AA 55 55 AA AA 55 55 AA AA 55 55 AA AA 55 55 AA AA 55 55
AA AA 55 55 AA AA 55 55 > } image } if PT 2 eq { 16 16 1 [ 16 0 0 16 neg 0 16
] { < BB BB EE EE BB BB EE EE BB BB EE EE BB BB EE EE BB BB EE EE BB BB EE EE
BB BB EE EE BB BB EE EE > } image } if PT 3 eq { 16 16 1 [ 16 0 0 16 neg 0 16
] { < FF FF BB BB FF FF EE EE FF FF BB BB FF FF EE EE FF FF BB BB FF FF EE EE
FF FF BB BB FF FF EE EE > } image } if PT 4 eq { 16 16 1 [ 16 0 0 16 neg 0 16
] { < DF DF BF BF 7F 7F FE FE FD FD FB FB F7 F7 EF EF DF DF BF BF 7F 7F FE FE
FD FD FB FB F7 F7 EF EF > } image } if PT 5 eq { 16 16 1 [ 16 0 0 16 neg 0 16
] { < 7F 7F BF B F DF DF EF EF F7 F7 FB FB FD FD FE FE 7F 7F BF BF DF DF EF
EF F7 F7 FB FB FD FD FE FE > } image } if PT 6 eq { 16 16 1 [ 16 0 0 16 neg 0
16 ] { < BB BB BB BB BB BB BB BB BB BB BB BB BB BB BB BB BB BB BB BB BB BB BB
BB BB BB BB BB BB BB BB BB > } image } if PT 7 eq { 16 16 1 [ 16 0 0 16 neg 0
16 ] { < FF FF FF FF FF FF 00 00 FF FF FF FF FF FF 00 00 FF FF FF FF FF FF 00
00 FF FF FF FF FF FF 00 00 > } image } if PT 8 eq { 16 16 1 [ 16 0 0 16 neg 0
16 ] { < EE EE 47 47 83 83 C5 C5 EE EE 5C 5C 38 38 74 74 EE EE 47 47 83 83 C5
C5 EE EE 5C 5C 38 38 74 74 > } image } if PT 9 eq { 16 16 1 [ 16 0 0 16 neg 0
16 ] { < EF EF EF EF D7 D7 38 38 FE FE FE FE 7D 7D 83 83 EF EF EF EF D7 D7 38
38  FE FE FE FE 7D 7D 83 83 > } image } if PT 10 eq { 16 16 1 [ 16 0 0 16 neg
0 16 ] { <  EF EF EF EF EF EF 00 00 FE FE FE FE FE FE 00 00 EF EF EF EF EF EF
00 00 FE FE FE FE FE FE 00 00 > } image } if PT 11 eq { 16 16 1 [ 16 0 0 16
neg 0 16 ] { < F7 F7 B6 B6 D5 D5 E3 E3 D5 D5 B6 B6 F7 F7 FF FF 7F 7F 6B 6B 5D
5D 3E 3E 5D 5D 6B 6B 7F 7F FF FF > } image } if PT 12 eq { 16 16 1 [ 16 0 0
16 neg 0 16 ] { < E3 E3 DD DD BE BE BE BE BE BE DD DD E3 E3 FF FF 3E 3E DD DD
EB EB EB EB EB EB DD DD 3E 3E FF FF > } image } if PT 13 eq { 16 16 1 [ 16 0
0 16 neg 0 16 ] { <  FE FE 7D 7D BB BB D7 D7 EF EF D7 D7 BB BB 7D 7D FE FE 7D
7D BB BB D7 D7 EF EF D7 D7 BB BB 7D 7D > } image } if PT 14 eq { 16 16 1 [ 16
0 0 16 neg 0 16 ] { < 00 00 EE EF EE EF EE EF 0E E0 EE EE EE EE EE EE 00 EE
FE EE FE EE FE EE 00 00 FE EF FE EF FE EF > } image } if PT 15 eq { 16 16 1 [
16 0 0 16 neg 0 16 ] { < DD DD AA AA DD DD FF FF 77 77 AA AA 77 77 FF FF DD
DD AA AA DD DD FF FF 77 77 AA AA 77 77 FF FF > } image } if PT 16 eq { 16 16
1 [ 16 0 0 16 neg 0 16 ] { <  F1 F1 EE EE 1F 1F FF FF F1 F1 EE EE 1F 1F FF FF
F1 F1 EE EE 1F 1F FF FF F1 F1 EE EE 1F 1F FF FF > } image } if PT 17 eq { 16
16 1 [ 16 0 0 16 neg 0 16 ] { <  EE EE DD DD BB BB FF FF EE EE DD DD BB BB FF
 FF EE EE DD DD BB BB FF FF EE EE DD DD BB BB FF FF > } image } if PT 18 eq {
16 16 1 [ 16 0 0 16 neg 0 16 ] { <  BB BB DD DD EE EE FF FF BB BB DD DD EE EE
FF FF BB BB DD DD EE EE FF FF BB BB DD DD EE EE FF FF > } image } if PT 19 eq
{ 16 16 1 [ 16 0 0 16 neg 0 16 ] { < 1F FC 67 F3 7B EF BD DE BD DE DE BD E6
B3 F8 0F E6 B3 DE BD BD DE BD DE 7B EF 67 F3 1F FC 7F FF > } image } if PT
20 eq { 16 16 1 [ 16 0 0 16 neg 0 16 ] { < DD DD EE EE EE EE EE EE DD DD BB
BB BB BB BB BB DD DD EE EE EE EE EE EE DD DD BB BB BB BB BB BB > } image }
if PT 21 eq { 16 16 1 [ 16 0 0 16 neg 0 16 ] { < 0E 0E EF EF EF EF EF EF E0
E0 FE FE FE FE FE FE 0E 0E EF EF EF EF EF EF E0 E0 FE FE FE FE FE FE > }
image }  if PT 22 eq { 16 16 1 [ 16 0 0 16 neg 0 16 ] { < 70 70 F7 F7 F7 F7 F7
F7 07 07 7F 7F 7F 7F 7F 7F 70 70 F7 F7 F7 F7 F7 F7 07 07 7F 7F 7F 7F 7F 7F >
} image } if PT 23 eq  { 16 16 1 [ 16 0 0 16 neg 0 16 ] { < AA AA 55 55 A9 A9
D1 D1 E1 E1 D1 D1 A9 A9 55 55 AA AA 55 55 A9 A9 D1 D1 E1 E1 D1 D1 A9 A9 55 55
> } image } if PT 24 eq { 16 16 1 [ 16 0 0 16 neg 0 16 ] { < FF FE FF FC EA
A8 D5 54 EA A8 D5 54 E8 28 D4 54 E8 E8 D4 D4 E8 EA 54 D5 A8 EA 54 D5 00 C0 00
80 > } image } if PT 25 eq {  16 16 1 [ 16 0 0 16 neg 0 16 ] { < FF FE FF FC
FF F8 FF F0 F0 00 F0 00 F0 20 F0 60 F0 E0 F1 E0 F3 E0 F0 00 E0 00 C0 00 80 00
00 00 > } image } if gr } def /FA { /PT exch def gsave clip 0 0 translate 1 1
74 { 1 sub 47.2 mul /Xcurr exch def 1 1 74 { 1 sub 47.2 mul /Ycurr exch def
gsave Xcurr Ycurr translate PT DP gr } for } for gr newpath } def
/reencdict 24 dict def /ReEncode {reencdict begin /nco&na exch def
/nfnam exch def /basefontname exch def /basefontdict basefontname findfont def
/newfont basefontdict maxlength dict def basefontdict {exch dup /FID ne
{dup /Encoding eq {exch dup length array copy newfont 3 1 roll put} {exch 
newfont 3 1 roll put} ifelse} {pop pop} ifelse } forall newfont
/FontName nfnam put nco&na aload pop nco&na length 2 idiv {newfont
/Encoding get 3 1 roll put} repeat nfnam newfont definefont pop end } def
/accvec [ 176 /agrave 181 /Agrave 190 /acircumflex 192 /Acircumflex
201 /adieresis 204 /Adieresis 209 /ccedilla 210 /Ccedilla 211 /eacute
212 /Eacute 213 /egrave 214 /Egrave 215 /ecircumflex 216 /Ecircumflex
217 /edieresis 218 /Edieresis 219 /icircumflex 220 /Icircumflex
221 /idieresis 222 /Idieresis 223 /ntilde 224 /Ntilde 226 /ocircumflex
228 /Ocircumflex 229 /odieresis 230 /Odieresis 231 /ucircumflex 236 /Ucircumflex
237 /udieresis 238 /Udieresis 239 /aring 242 /Aring 243 /ydieresis
244 /Ydieresis 246 /aacute 247 /Aacute 252 /ugrave 253 /Ugrave] def
/Times-Roman /Times-Roman accvec ReEncode
/Times-Italic /Times-Italic accvec ReEncode
/Times-Bold /Times-Bold accvec ReEncode
/Times-BoldItalic /Times-BoldItalic accvec ReEncode
/Helvetica /Helvetica accvec ReEncode
/Helvetica-Oblique /Helvetica-Oblique accvec ReEncode
/Helvetica-Bold /Helvetica-Bold accvec ReEncode
/Helvetica-BoldOblique /Helvetica-BoldOblique  accvec ReEncode
/Courier /Courier accvec ReEncode
/Courier-Oblique /Courier-Oblique accvec ReEncode
/Courier-Bold /Courier-Bold accvec ReEncode
/Courier-BoldOblique /Courier-BoldOblique accvec ReEncode
/oshow {gsave [] 0 sd true charpath stroke gr} def
/stwn { /fs exch def /fn exch def /text exch def fn findfont fs sf
 text sw pop xs add /xs exch def} def
/stwb { /fs exch def /fn exch def /nbas exch def /textf exch def
textf length /tlen exch def nbas tlen gt {/nbas tlendef} if
fn findfont fs sf textf dup length nbas sub nbas getinterval sw
pop neg xs add /xs exch def} def
/accspe [ 65 /plusminus  66 /bar  67 /existential  68 /universal 
69 /exclam  70 /numbersign 71 /greater  72 /question  73 /integral 
74 /colon  75 /semicolon  76 /less  77 /bracketleft  78 /bracketright
79 /greaterequal 80 /braceleft 81 /braceright 82 /radical
83 /spade 84 /heart 85 /diamond 86 /club 87 /lessequal
88 /multiply 89 /percent 90 /infinity 48 /circlemultiply 49 /circleplus
50 /emptyset  51 /lozenge 52 /bullet 53 /arrowright 54 /arrowup
55 /arrowleft 56 /arrowdown 57 /arrowboth 48 /degree 44 /comma 43 /plus 45 /angle 42 /angleleft 47 /divide 61 /notequal
 40 /equivalence 41 /second 97 /approxequal 98 /congruent 99 /perpendicular 100 /partialdiff 101 /florin
 102 /intersection 103 /union 104 /propersuperset 105 /reflexsuperset 106 /notsubset 107 /propersubset 108 /reflexsubset
 109 /element 110 /notelement 111 /gradient 112 /logicaland 113 /logicalor 114 /arrowdblboth 115 /arrowdblleft
 116 /arrowdblup 117 /arrowdblright 118 /arrowdbldown 119 /ampersand 120 /omega1 121 /similar 122 /aleph ] def
/Symbol /Special accspe ReEncode
/Zone {/iy exch def /ix exch def  ix 1 sub  3144 mul  1 iy sub  2224
 mul t} def
%%EndProlog
 gsave  90 r 0 -594 t  28 20 t .25 .25 scale  gsave 
%%Page: number 1
 black [] 0 sd 1 lw 0.95 0.95 0.95 c 2948 1944 0 0 bf 0.8 0.8 0.8 c 0 0 m 2 2 d 1940 Y 2944 X 2 2 d -2948 X -1944 Y f
 0.3 0.3 0.3 c 0 0 m 2 2 d 2944 X 1940 Y 2 2 d -1944 Y -2948 X f black [] 0 sd 1 lw 0.95 0.95 0.95 c 2358 1556 295 194
 bf 0.8 0.8 0.8 c 295 194 m 1 1 d 1554 Y 2356 X 1 1 d -2358 X -1556 Y f 0.3 0.3 0.3 c 295 194 m 1 1 d 2356 X 1554 Y 1 1
 d -1556 Y -2358 X f [] 0 sd 1 lw black 295 194 m 2358 X s [] 0 sd 1 lw 2653 194 m 1556 Y s [] 0 sd 1 lw 2653 1750 m
 -2358 X s [] 0 sd 1 lw 295 1750 m -1556 Y s [] 0 sd 1 lw 1 1 1 c black [] 0 sd 1 lw 295 194 m 6 X s [] 0 sd 1 lw 301
 194 m 6 X s [] 0 sd 1 lw 307 194 m 5 X s [] 0 sd 1 lw 312 194 m 6 X s [] 0 sd 1 lw 318 194 m 6 X s [] 0 sd 1 lw 324 194
 m 6 X s [] 0 sd 1 lw 330 194 m 6 X s [] 0 sd 1 lw 336 194 m 6 X s [] 0 sd 1 lw 342 194 m 6 X s [] 0 sd 1 lw 348 194 m 6
 X s [] 0 sd 1 lw 354 194 m 6 X s [] 0 sd 1 lw 360 194 m 6 X s [] 0 sd 1 lw 366 194 m 5 X s [] 0 sd 1 lw 371 194 m 6 X s
 [] 0 sd 1 lw 377 194 m 6 X s [] 0 sd 1 lw 383 194 m 6 X s [] 0 sd 1 lw 389 194 m 6 X s [] 0 sd 1 lw 395 194 m 6 X s
 [] 0 sd 1 lw 401 194 m 6 X s [] 0 sd 1 lw 407 194 m 6 X s [] 0 sd 1 lw 413 194 m 6 X s [] 0 sd 1 lw 419 194 m 6 X s
 [] 0 sd 1 lw 425 194 m 5 X s [] 0 sd 1 lw 430 194 m 6 X s [] 0 sd 1 lw 442 194 m 109 Y s [] 0 sd 1 lw 442 303 m 109 Y s
 [] 0 sd 1 lw 436 303 m 6 X s [] 0 sd 1 lw 442 303 m 6 X s [] 0 sd 1 lw /w 2 def /w2 {w 2 div} def /w3 {w 3 div} def 442
 303 m20 [] 0 sd 1 lw [] 0 sd 1 lw 448 194 m 6 X s [] 0 sd 1 lw 454 194 m 6 X s [] 0 sd 1 lw 466 259 m 156 Y s [] 0 sd 1
 lw 466 415 m 156 Y s [] 0 sd 1 lw 460 415 m 6 X s [] 0 sd 1 lw 466 415 m 6 X s [] 0 sd 1 lw 466 415 m20 [] 0 sd 1 lw
 [] 0 sd 1 lw 478 194 m 111 Y s [] 0 sd 1 lw 478 305 m 111 Y s [] 0 sd 1 lw 472 305 m 6 X s [] 0 sd 1 lw 478 305 m 5 X s
 [] 0 sd 1 lw 478 305 m20 [] 0 sd 1 lw [] 0 sd 1 lw 489 194 m 111 Y s [] 0 sd 1 lw 489 305 m 110 Y s [] 0 sd 1 lw 483
 305 m 6 X s [] 0 sd 1 lw 489 305 m 6 X s [] 0 sd 1 lw 489 305 m20 [] 0 sd 1 lw [] 0 sd 1 lw 501 194 m 113 Y s [] 0 sd 1
 lw 501 307 m 112 Y s [] 0 sd 1 lw 495 307 m 6 X s [] 0 sd 1 lw 501 307 m 6 X s [] 0 sd 1 lw 501 307 m20 [] 0 sd 1 lw
 [] 0 sd 1 lw 513 261 m 160 Y s [] 0 sd 1 lw 513 421 m 160 Y s [] 0 sd 1 lw 507 421 m 6 X s [] 0 sd 1 lw 513 421 m 6 X s
 [] 0 sd 1 lw 513 421 m20 [] 0 sd 1 lw [] 0 sd 1 lw 525 339 m 197 Y s [] 0 sd 1 lw 525 536 m 198 Y s [] 0 sd 1 lw 519
 536 m 6 X s [] 0 sd 1 lw 525 536 m 6 X s [] 0 sd 1 lw 525 536 m20 [] 0 sd 1 lw [] 0 sd 1 lw 537 262 m 162 Y s [] 0 sd 1
 lw 537 424 m 163 Y s [] 0 sd 1 lw 531 424 m 6 X s [] 0 sd 1 lw 537 424 m 5 X s [] 0 sd 1 lw 537 424 m20 [] 0 sd 1 lw
 [] 0 sd 1 lw 548 341 m 199 Y s [] 0 sd 1 lw 548 540 m 200 Y s [] 0 sd 1 lw 542 540 m 6 X s [] 0 sd 1 lw 548 540 m 6 X s
 [] 0 sd 1 lw 548 540 m20 [] 0 sd 1 lw [] 0 sd 1 lw 560 429 m 234 Y s [] 0 sd 1 lw 560 663 m 235 Y s [] 0 sd 1 lw 554
 663 m 6 X s [] 0 sd 1 lw 560 663 m 6 X s [] 0 sd 1 lw 560 663 m20 [] 0 sd 1 lw [] 0 sd 1 lw 572 431 m 237 Y s [] 0 sd 1
 lw 572 668 m 236 Y s [] 0 sd 1 lw 566 668 m 6 X s [] 0 sd 1 lw 572 668 m 6 X s [] 0 sd 1 lw 572 668 m20 [] 0 sd 1 lw
 [] 0 sd 1 lw 584 264 m 170 Y s [] 0 sd 1 lw 584 434 m 169 Y s [] 0 sd 1 lw 578 434 m 6 X s [] 0 sd 1 lw 584 434 m 6 X s
 [] 0 sd 1 lw 584 434 m20 [] 0 sd 1 lw [] 0 sd 1 lw 596 265 m 170 Y s [] 0 sd 1 lw 596 435 m 170 Y s [] 0 sd 1 lw 590
 435 m 6 X s [] 0 sd 1 lw 596 435 m 5 X s [] 0 sd 1 lw 596 435 m20 [] 0 sd 1 lw [] 0 sd 1 lw 607 437 m 243 Y s [] 0 sd 1
 lw 607 680 m 243 Y s [] 0 sd 1 lw 601 680 m 6 X s [] 0 sd 1 lw 607 680 m 6 X s [] 0 sd 1 lw 607 680 m20 [] 0 sd 1 lw
 [] 0 sd 1 lw 613 194 m 6 X s [] 0 sd 1 lw 619 194 m 6 X s [] 0 sd 1 lw 631 266 m 174 Y s [] 0 sd 1 lw 631 440 m 174 Y s
 [] 0 sd 1 lw 625 440 m 6 X s [] 0 sd 1 lw 631 440 m 6 X s [] 0 sd 1 lw 631 440 m20 [] 0 sd 1 lw [] 0 sd 1 lw 643 267 m
 176 Y s [] 0 sd 1 lw 643 443 m 176 Y s [] 0 sd 1 lw 637 443 m 6 X s [] 0 sd 1 lw 643 443 m 6 X s [] 0 sd 1 lw 643 443
 m20 [] 0 sd 1 lw [] 0 sd 1 lw 654 194 m 125 Y s [] 0 sd 1 lw 654 319 m 124 Y s [] 0 sd 1 lw 649 319 m 5 X s [] 0 sd 1
 lw 654 319 m 6 X s [] 0 sd 1 lw 654 319 m20 [] 0 sd 1 lw [] 0 sd 1 lw 666 543 m 282 Y s [] 0 sd 1 lw 666 825 m 281 Y s
 [] 0 sd 1 lw 660 825 m 6 X s [] 0 sd 1 lw 666 825 m 6 X s [] 0 sd 1 lw 666 825 m20 [] 0 sd 1 lw [] 0 sd 1 lw 672 194 m
 6 X s [] 0 sd 1 lw 678 194 m 6 X s [] 0 sd 1 lw 690 448 m 254 Y s [] 0 sd 1 lw 690 702 m 254 Y s [] 0 sd 1 lw 684 702 m
 6 X s [] 0 sd 1 lw 690 702 m 6 X s [] 0 sd 1 lw 690 702 m20 [] 0 sd 1 lw [] 0 sd 1 lw 702 194 m 130 Y s [] 0 sd 1 lw
 702 324 m 129 Y s [] 0 sd 1 lw 696 324 m 6 X s [] 0 sd 1 lw 702 324 m 6 X s [] 0 sd 1 lw 702 324 m20 [] 0 sd 1 lw
 [] 0 sd 1 lw 708 194 m 5 X s [] 0 sd 1 lw 713 194 m 6 X s [] 0 sd 1 lw 725 270 m 184 Y s [] 0 sd 1 lw 725 454 m 183 Y s
 [] 0 sd 1 lw 719 454 m 6 X s [] 0 sd 1 lw 725 454 m 6 X s [] 0 sd 1 lw 725 454 m20 [] 0 sd 1 lw [] 0 sd 1 lw 737 659 m
 320 Y s [] 0 sd 1 lw 737 979 m 320 Y s [] 0 sd 1 lw 731 979 m 6 X s [] 0 sd 1 lw 737 979 m 6 X s [] 0 sd 1 lw 737 979
 m20 [] 0 sd 1 lw [] 0 sd 1 lw 749 272 m 186 Y s [] 0 sd 1 lw 749 458 m 187 Y s [] 0 sd 1 lw 743 458 m 6 X s [] 0 sd 1
 lw 749 458 m 6 X s [] 0 sd 1 lw 749 458 m20 [] 0 sd 1 lw [] 0 sd 1 lw 761 363 m 231 Y s [] 0 sd 1 lw 761 594 m 230 Y s
 [] 0 sd 1 lw 755 594 m 6 X s [] 0 sd 1 lw 761 594 m 5 X s [] 0 sd 1 lw 761 594 m20 [] 0 sd 1 lw [] 0 sd 1 lw 772 194 m
 135 Y s [] 0 sd 1 lw 772 329 m 134 Y s [] 0 sd 1 lw 766 329 m 6 X s [] 0 sd 1 lw 772 329 m 6 X s [] 0 sd 1 lw 772 329
 m20 [] 0 sd 1 lw [] 0 sd 1 lw 784 273 m 191 Y s [] 0 sd 1 lw 784 464 m 191 Y s [] 0 sd 1 lw 778 464 m 6 X s [] 0 sd 1
 lw 784 464 m 6 X s [] 0 sd 1 lw 784 464 m20 [] 0 sd 1 lw [] 0 sd 1 lw 796 274 m 192 Y s [] 0 sd 1 lw 796 466 m 192 Y s
 [] 0 sd 1 lw 790 466 m 6 X s [] 0 sd 1 lw 796 466 m 6 X s [] 0 sd 1 lw 796 466 m20 [] 0 sd 1 lw [] 0 sd 1 lw 808 274 m
 193 Y s [] 0 sd 1 lw 808 467 m 193 Y s [] 0 sd 1 lw 802 467 m 6 X s [] 0 sd 1 lw 808 467 m 6 X s [] 0 sd 1 lw 808 467
 m20 [] 0 sd 1 lw [] 0 sd 1 lw 820 576 m 308 Y s [] 0 sd 1 lw 820 884 m 308 Y s [] 0 sd 1 lw 814 884 m 6 X s [] 0 sd 1
 lw 820 884 m 5 X s [] 0 sd 1 lw 820 884 m20 [] 0 sd 1 lw [] 0 sd 1 lw 825 194 m 6 X s [] 0 sd 1 lw 831 194 m 6 X s
 [] 0 sd 1 lw 843 276 m 197 Y s [] 0 sd 1 lw 843 473 m 197 Y s [] 0 sd 1 lw 837 473 m 6 X s [] 0 sd 1 lw 843 473 m 6 X s
 [] 0 sd 1 lw 843 473 m20 [] 0 sd 1 lw [] 0 sd 1 lw 855 276 m 199 Y s [] 0 sd 1 lw 855 475 m 198 Y s [] 0 sd 1 lw 849
 475 m 6 X s [] 0 sd 1 lw 855 475 m 6 X s [] 0 sd 1 lw 855 475 m20 [] 0 sd 1 lw [] 0 sd 1 lw 867 277 m 198 Y s [] 0 sd 1
 lw 867 475 m 199 Y s [] 0 sd 1 lw 861 475 m 6 X s [] 0 sd 1 lw 867 475 m 6 X s [] 0 sd 1 lw 867 475 m20 [] 0 sd 1 lw
 [] 0 sd 1 lw 879 194 m 142 Y s [] 0 sd 1 lw 879 336 m 141 Y s [] 0 sd 1 lw 873 336 m 6 X s [] 0 sd 1 lw 879 336 m 5 X s
 [] 0 sd 1 lw 879 336 m20 [] 0 sd 1 lw [] 0 sd 1 lw 890 587 m 318 Y s [] 0 sd 1 lw 890 905 m 318 Y s [] 0 sd 1 lw 884
 905 m 6 X s [] 0 sd 1 lw 890 905 m 6 X s [] 0 sd 1 lw 890 905 m20 [] 0 sd 1 lw [] 0 sd 1 lw 902 375 m 246 Y s [] 0 sd 1
 lw 902 621 m 246 Y s [] 0 sd 1 lw 896 621 m 6 X s [] 0 sd 1 lw 902 621 m 6 X s [] 0 sd 1 lw 902 621 m20 [] 0 sd 1 lw
 [] 0 sd 1 lw 914 377 m 249 Y s [] 0 sd 1 lw 914 626 m 249 Y s [] 0 sd 1 lw 908 626 m 6 X s [] 0 sd 1 lw 914 626 m 6 X s
 [] 0 sd 1 lw 914 626 m20 [] 0 sd 1 lw [] 0 sd 1 lw 926 709 m 355 Y s [] 0 sd 1 lw 926 1064 m 355 Y s [] 0 sd 1 lw 920
 1064 m 6 X s [] 0 sd 1 lw 926 1064 m 6 X s [] 0 sd 1 lw 926 1064 m20 [] 0 sd 1 lw [] 0 sd 1 lw 937 486 m 292 Y s
 [] 0 sd 1 lw 937 778 m 292 Y s [] 0 sd 1 lw 932 778 m 5 X s [] 0 sd 1 lw 937 778 m 6 X s [] 0 sd 1 lw 937 778 m20
 [] 0 sd 1 lw [] 0 sd 1 lw 949 380 m 253 Y s [] 0 sd 1 lw 949 633 m 253 Y s [] 0 sd 1 lw 943 633 m 6 X s [] 0 sd 1 lw
 949 633 m 6 X s [] 0 sd 1 lw 949 633 m20 [] 0 sd 1 lw [] 0 sd 1 lw 961 280 m 208 Y s [] 0 sd 1 lw 961 488 m 208 Y s
 [] 0 sd 1 lw 955 488 m 6 X s [] 0 sd 1 lw 961 488 m 6 X s [] 0 sd 1 lw 961 488 m20 [] 0 sd 1 lw [] 0 sd 1 lw 973 281 m
 210 Y s [] 0 sd 1 lw 973 491 m 210 Y s [] 0 sd 1 lw 967 491 m 6 X s [] 0 sd 1 lw 973 491 m 6 X s [] 0 sd 1 lw 973 491
 m20 [] 0 sd 1 lw [] 0 sd 1 lw 985 282 m 210 Y s [] 0 sd 1 lw 985 492 m 210 Y s [] 0 sd 1 lw 979 492 m 6 X s [] 0 sd 1
 lw 985 492 m 6 X s [] 0 sd 1 lw 985 492 m20 [] 0 sd 1 lw [] 0 sd 1 lw 996 282 m 211 Y s [] 0 sd 1 lw 996 493 m 212 Y s
 [] 0 sd 1 lw 991 493 m 5 X s [] 0 sd 1 lw 996 493 m 6 X s [] 0 sd 1 lw 996 493 m20 [] 0 sd 1 lw [] 0 sd 1 lw 1008 727 m
 368 Y s [] 0 sd 1 lw 1008 1095 m 368 Y s [] 0 sd 1 lw 1002 1095 m 6 X s [] 0 sd 1 lw 1008 1095 m 6 X s [] 0 sd 1 lw
 1008 1095 m20 [] 0 sd 1 lw [] 0 sd 1 lw 1020 283 m 214 Y s [] 0 sd 1 lw 1020 497 m 214 Y s [] 0 sd 1 lw 1014 497 m 6 X
 s [] 0 sd 1 lw 1020 497 m 6 X s [] 0 sd 1 lw 1020 497 m20 [] 0 sd 1 lw [] 0 sd 1 lw 1032 194 m 152 Y s [] 0 sd 1 lw
 1032 346 m 151 Y s [] 0 sd 1 lw 1026 346 m 6 X s [] 0 sd 1 lw 1032 346 m 6 X s [] 0 sd 1 lw 1032 346 m20 [] 0 sd 1 lw
 [] 0 sd 1 lw 1038 194 m 6 X s [] 0 sd 1 lw 1044 194 m 5 X s [] 0 sd 1 lw 1055 499 m 305 Y s [] 0 sd 1 lw 1055 804 m 305
 Y s [] 0 sd 1 lw 1049 804 m 6 X s [] 0 sd 1 lw 1055 804 m 6 X s [] 0 sd 1 lw 1055 804 m20 [] 0 sd 1 lw [] 0 sd 1 lw
 1067 738 m 375 Y s [] 0 sd 1 lw 1067 1113 m 375 Y s [] 0 sd 1 lw 1061 1113 m 6 X s [] 0 sd 1 lw 1067 1113 m 6 X s
 [] 0 sd 1 lw 1067 1113 m20 [] 0 sd 1 lw [] 0 sd 1 lw 1073 194 m 6 X s [] 0 sd 1 lw 1079 194 m 6 X s [] 0 sd 1 lw 1091
 194 m 156 Y s [] 0 sd 1 lw 1091 350 m 155 Y s [] 0 sd 1 lw 1085 350 m 6 X s [] 0 sd 1 lw 1091 350 m 6 X s [] 0 sd 1 lw
 1091 350 m20 [] 0 sd 1 lw [] 0 sd 1 lw 1103 503 m 309 Y s [] 0 sd 1 lw 1103 812 m 309 Y s [] 0 sd 1 lw 1097 812 m 6 X s
 [] 0 sd 1 lw 1103 812 m 5 X s [] 0 sd 1 lw 1103 812 m20 [] 0 sd 1 lw [] 0 sd 1 lw 1114 194 m 158 Y s [] 0 sd 1 lw 1114
 352 m 157 Y s [] 0 sd 1 lw 1108 352 m 6 X s [] 0 sd 1 lw 1114 352 m 6 X s [] 0 sd 1 lw 1114 352 m20 [] 0 sd 1 lw
 [] 0 sd 1 lw 1126 194 m 158 Y s [] 0 sd 1 lw 1126 352 m 157 Y s [] 0 sd 1 lw 1120 352 m 6 X s [] 0 sd 1 lw 1126 352 m 6
 X s [] 0 sd 1 lw 1126 352 m20 [] 0 sd 1 lw [] 0 sd 1 lw 1138 287 m 222 Y s [] 0 sd 1 lw 1138 509 m 222 Y s [] 0 sd 1 lw
 1132 509 m 6 X s [] 0 sd 1 lw 1138 509 m 6 X s [] 0 sd 1 lw 1138 509 m20 [] 0 sd 1 lw [] 0 sd 1 lw 1150 287 m 224 Y s
 [] 0 sd 1 lw 1150 511 m 224 Y s [] 0 sd 1 lw 1144 511 m 6 X s [] 0 sd 1 lw 1150 511 m 6 X s [] 0 sd 1 lw 1150 511 m20
 [] 0 sd 1 lw [] 0 sd 1 lw 1162 194 m 158 Y s [] 0 sd 1 lw 1162 352 m 158 Y s [] 0 sd 1 lw 1156 352 m 6 X s [] 0 sd 1 lw
 1162 352 m 5 X s [] 0 sd 1 lw 1162 352 m20 [] 0 sd 1 lw [] 0 sd 1 lw 1173 194 m 159 Y s [] 0 sd 1 lw 1173 353 m 159 Y s
 [] 0 sd 1 lw 1167 353 m 6 X s [] 0 sd 1 lw 1173 353 m 6 X s [] 0 sd 1 lw 1173 353 m20 [] 0 sd 1 lw [] 0 sd 1 lw 1185
 634 m 356 Y s [] 0 sd 1 lw 1185 990 m 356 Y s [] 0 sd 1 lw 1179 990 m 6 X s [] 0 sd 1 lw 1185 990 m 6 X s [] 0 sd 1 lw
 1185 990 m20 [] 0 sd 1 lw [] 0 sd 1 lw 1197 288 m 226 Y s [] 0 sd 1 lw 1197 514 m 226 Y s [] 0 sd 1 lw 1191 514 m 6 X s
 [] 0 sd 1 lw 1197 514 m 6 X s [] 0 sd 1 lw 1197 514 m20 [] 0 sd 1 lw [] 0 sd 1 lw 1203 194 m 6 X s [] 0 sd 1 lw 1209
 194 m 6 X s [] 0 sd 1 lw 1220 288 m 225 Y s [] 0 sd 1 lw 1220 513 m 225 Y s [] 0 sd 1 lw 1215 513 m 5 X s [] 0 sd 1 lw
 1220 513 m 6 X s [] 0 sd 1 lw 1220 513 m20 [] 0 sd 1 lw [] 0 sd 1 lw 1226 194 m 6 X s [] 0 sd 1 lw 1232 194 m 6 X s
 [] 0 sd 1 lw 1244 194 m 162 Y s [] 0 sd 1 lw 1244 356 m 162 Y s [] 0 sd 1 lw 1238 356 m 6 X s [] 0 sd 1 lw 1244 356 m 6
 X s [] 0 sd 1 lw 1244 356 m20 [] 0 sd 1 lw [] 0 sd 1 lw 1256 194 m 161 Y s [] 0 sd 1 lw 1256 355 m 160 Y s [] 0 sd 1 lw
 1250 355 m 6 X s [] 0 sd 1 lw 1256 355 m 6 X s [] 0 sd 1 lw 1256 355 m20 [] 0 sd 1 lw [] 0 sd 1 lw 1268 289 m 229 Y s
 [] 0 sd 1 lw 1268 518 m 229 Y s [] 0 sd 1 lw 1262 518 m 6 X s [] 0 sd 1 lw 1268 518 m 6 X s [] 0 sd 1 lw 1268 518 m20
 [] 0 sd 1 lw [] 0 sd 1 lw 1279 289 m 229 Y s [] 0 sd 1 lw 1279 518 m 229 Y s [] 0 sd 1 lw 1274 518 m 5 X s [] 0 sd 1 lw
 1279 518 m 6 X s [] 0 sd 1 lw 1279 518 m20 [] 0 sd 1 lw [] 0 sd 1 lw 1291 289 m 229 Y s [] 0 sd 1 lw 1291 518 m 229 Y s
 [] 0 sd 1 lw 1285 518 m 6 X s [] 0 sd 1 lw 1291 518 m 6 X s [] 0 sd 1 lw 1291 518 m20 [] 0 sd 1 lw [] 0 sd 1 lw 1303
 194 m 164 Y s [] 0 sd 1 lw 1303 358 m 164 Y s [] 0 sd 1 lw 1297 358 m 6 X s [] 0 sd 1 lw 1303 358 m 6 X s [] 0 sd 1 lw
 1303 358 m20 [] 0 sd 1 lw [] 0 sd 1 lw 1309 194 m 6 X s [] 0 sd 1 lw 1315 194 m 6 X s [] 0 sd 1 lw 1327 194 m 163 Y s
 [] 0 sd 1 lw 1327 357 m 162 Y s [] 0 sd 1 lw 1321 357 m 6 X s [] 0 sd 1 lw 1327 357 m 6 X s [] 0 sd 1 lw 1327 357 m20
 [] 0 sd 1 lw [] 0 sd 1 lw 1338 194 m 164 Y s [] 0 sd 1 lw 1338 358 m 164 Y s [] 0 sd 1 lw 1333 358 m 5 X s [] 0 sd 1 lw
 1338 358 m 6 X s [] 0 sd 1 lw 1338 358 m20 [] 0 sd 1 lw [] 0 sd 1 lw 1350 194 m 165 Y s [] 0 sd 1 lw 1350 359 m 164 Y s
 [] 0 sd 1 lw 1344 359 m 6 X s [] 0 sd 1 lw 1350 359 m 6 X s [] 0 sd 1 lw 1350 359 m20 [] 0 sd 1 lw [] 0 sd 1 lw 1362
 650 m 368 Y s [] 0 sd 1 lw 1362 1018 m 369 Y s [] 0 sd 1 lw 1356 1018 m 6 X s [] 0 sd 1 lw 1362 1018 m 6 X s [] 0 sd 1
 lw 1362 1018 m20 [] 0 sd 1 lw [] 0 sd 1 lw 1374 194 m 164 Y s [] 0 sd 1 lw 1374 358 m 164 Y s [] 0 sd 1 lw 1368 358 m 6
 X s [] 0 sd 1 lw 1374 358 m 6 X s [] 0 sd 1 lw 1374 358 m20 [] 0 sd 1 lw [] 0 sd 1 lw 1386 403 m 285 Y s [] 0 sd 1 lw
 1386 688 m 285 Y s [] 0 sd 1 lw 1380 688 m 6 X s [] 0 sd 1 lw 1386 688 m 5 X s [] 0 sd 1 lw 1386 688 m20 [] 0 sd 1 lw
 [] 0 sd 1 lw 1397 194 m 165 Y s [] 0 sd 1 lw 1397 359 m 165 Y s [] 0 sd 1 lw 1391 359 m 6 X s [] 0 sd 1 lw 1397 359 m 6
 X s [] 0 sd 1 lw 1397 359 m20 [] 0 sd 1 lw [] 0 sd 1 lw 1409 404 m 286 Y s [] 0 sd 1 lw 1409 690 m 286 Y s [] 0 sd 1 lw
 1403 690 m 6 X s [] 0 sd 1 lw 1409 690 m 6 X s [] 0 sd 1 lw 1409 690 m20 [] 0 sd 1 lw [] 0 sd 1 lw 1421 782 m 405 Y s
 [] 0 sd 1 lw 1421 1187 m 405 Y s [] 0 sd 1 lw 1415 1187 m 6 X s [] 0 sd 1 lw 1421 1187 m 6 X s [] 0 sd 1 lw 1421 1187
 m20 [] 0 sd 1 lw [] 0 sd 1 lw 1433 290 m 233 Y s [] 0 sd 1 lw 1433 523 m 232 Y s [] 0 sd 1 lw 1427 523 m 6 X s [] 0 sd
 1 lw 1433 523 m 6 X s [] 0 sd 1 lw 1433 523 m20 [] 0 sd 1 lw [] 0 sd 1 lw 1445 194 m 164 Y s [] 0 sd 1 lw 1445 358 m
 163 Y s [] 0 sd 1 lw 1439 358 m 6 X s [] 0 sd 1 lw 1445 358 m 5 X s [] 0 sd 1 lw 1445 358 m20 [] 0 sd 1 lw [] 0 sd 1 lw
 1456 404 m 286 Y s [] 0 sd 1 lw 1456 690 m 286 Y s [] 0 sd 1 lw 1450 690 m 6 X s [] 0 sd 1 lw 1456 690 m 6 X s [] 0 sd
 1 lw 1456 690 m20 [] 0 sd 1 lw [] 0 sd 1 lw 1468 403 m 284 Y s [] 0 sd 1 lw 1468 687 m 284 Y s [] 0 sd 1 lw 1462 687 m
 6 X s [] 0 sd 1 lw 1468 687 m 6 X s [] 0 sd 1 lw 1468 687 m20 [] 0 sd 1 lw [] 0 sd 1 lw 1480 524 m 329 Y s [] 0 sd 1 lw
 1480 853 m 330 Y s [] 0 sd 1 lw 1474 853 m 6 X s [] 0 sd 1 lw 1480 853 m 6 X s [] 0 sd 1 lw 1480 853 m20 [] 0 sd 1 lw
 [] 0 sd 1 lw 1492 194 m 166 Y s [] 0 sd 1 lw 1492 360 m 166 Y s [] 0 sd 1 lw 1486 360 m 6 X s [] 0 sd 1 lw 1492 360 m 6
 X s [] 0 sd 1 lw 1492 360 m20 [] 0 sd 1 lw [] 0 sd 1 lw 1503 291 m 232 Y s [] 0 sd 1 lw 1503 523 m 233 Y s [] 0 sd 1 lw
 1498 523 m 5 X s [] 0 sd 1 lw 1503 523 m 6 X s [] 0 sd 1 lw 1503 523 m20 [] 0 sd 1 lw [] 0 sd 1 lw 1515 524 m 330 Y s
 [] 0 sd 1 lw 1515 854 m 330 Y s [] 0 sd 1 lw 1509 854 m 6 X s [] 0 sd 1 lw 1515 854 m 6 X s [] 0 sd 1 lw 1515 854 m20
 [] 0 sd 1 lw [] 0 sd 1 lw 1527 524 m 329 Y s [] 0 sd 1 lw 1527 853 m 330 Y s [] 0 sd 1 lw 1521 853 m 6 X s [] 0 sd 1 lw
 1527 853 m 6 X s [] 0 sd 1 lw 1527 853 m20 [] 0 sd 1 lw [] 0 sd 1 lw 1539 525 m 331 Y s [] 0 sd 1 lw 1539 856 m 331 Y s
 [] 0 sd 1 lw 1533 856 m 6 X s [] 0 sd 1 lw 1539 856 m 6 X s [] 0 sd 1 lw 1539 856 m20 [] 0 sd 1 lw [] 0 sd 1 lw 1551
 524 m 329 Y s [] 0 sd 1 lw 1551 853 m 329 Y s [] 0 sd 1 lw 1545 853 m 6 X s [] 0 sd 1 lw 1551 853 m 6 X s [] 0 sd 1 lw
 1551 853 m20 [] 0 sd 1 lw [] 0 sd 1 lw 1562 194 m 165 Y s [] 0 sd 1 lw 1562 359 m 165 Y s [] 0 sd 1 lw 1557 359 m 5 X s
 [] 0 sd 1 lw 1562 359 m 6 X s [] 0 sd 1 lw 1562 359 m20 [] 0 sd 1 lw [] 0 sd 1 lw 1568 194 m 6 X s [] 0 sd 1 lw 1574
 194 m 6 X s [] 0 sd 1 lw 1586 402 m 285 Y s [] 0 sd 1 lw 1586 687 m 284 Y s [] 0 sd 1 lw 1580 687 m 6 X s [] 0 sd 1 lw
 1586 687 m 6 X s [] 0 sd 1 lw 1586 687 m20 [] 0 sd 1 lw [] 0 sd 1 lw 1592 194 m 6 X s [] 0 sd 1 lw 1598 194 m 6 X s
 [] 0 sd 1 lw 1610 522 m 328 Y s [] 0 sd 1 lw 1610 850 m 328 Y s [] 0 sd 1 lw 1604 850 m 6 X s [] 0 sd 1 lw 1610 850 m 6
 X s [] 0 sd 1 lw 1610 850 m20 [] 0 sd 1 lw [] 0 sd 1 lw 1621 402 m 284 Y s [] 0 sd 1 lw 1621 686 m 285 Y s [] 0 sd 1 lw
 1616 686 m 5 X s [] 0 sd 1 lw 1621 686 m 6 X s [] 0 sd 1 lw 1621 686 m20 [] 0 sd 1 lw [] 0 sd 1 lw 1627 194 m 6 X s
 [] 0 sd 1 lw 1633 194 m 6 X s [] 0 sd 1 lw 1645 290 m 231 Y s [] 0 sd 1 lw 1645 521 m 232 Y s [] 0 sd 1 lw 1639 521 m 6
 X s [] 0 sd 1 lw 1645 521 m 6 X s [] 0 sd 1 lw 1645 521 m20 [] 0 sd 1 lw [] 0 sd 1 lw 1657 194 m 162 Y s [] 0 sd 1 lw
 1657 356 m 163 Y s [] 0 sd 1 lw 1651 356 m 6 X s [] 0 sd 1 lw 1657 356 m 6 X s [] 0 sd 1 lw 1657 356 m20 [] 0 sd 1 lw
 [] 0 sd 1 lw 1669 194 m 162 Y s [] 0 sd 1 lw 1669 356 m 161 Y s [] 0 sd 1 lw 1663 356 m 6 X s [] 0 sd 1 lw 1669 356 m 5
 X s [] 0 sd 1 lw 1669 356 m20 [] 0 sd 1 lw [] 0 sd 1 lw 1680 194 m 161 Y s [] 0 sd 1 lw 1680 355 m 161 Y s [] 0 sd 1 lw
 1674 355 m 6 X s [] 0 sd 1 lw 1680 355 m 6 X s [] 0 sd 1 lw 1680 355 m20 [] 0 sd 1 lw [] 0 sd 1 lw 1692 289 m 230 Y s
 [] 0 sd 1 lw 1692 519 m 229 Y s [] 0 sd 1 lw 1686 519 m 6 X s [] 0 sd 1 lw 1692 519 m 6 X s [] 0 sd 1 lw 1692 519 m20
 [] 0 sd 1 lw [] 0 sd 1 lw 1704 194 m 160 Y s [] 0 sd 1 lw 1704 354 m 160 Y s [] 0 sd 1 lw 1698 354 m 6 X s [] 0 sd 1 lw
 1704 354 m 6 X s [] 0 sd 1 lw 1704 354 m20 [] 0 sd 1 lw [] 0 sd 1 lw 1716 194 m 161 Y s [] 0 sd 1 lw 1716 355 m 161 Y s
 [] 0 sd 1 lw 1710 355 m 6 X s [] 0 sd 1 lw 1716 355 m 6 X s [] 0 sd 1 lw 1716 355 m20 [] 0 sd 1 lw [] 0 sd 1 lw 1728
 399 m 279 Y s [] 0 sd 1 lw 1728 678 m 280 Y s [] 0 sd 1 lw 1722 678 m 6 X s [] 0 sd 1 lw 1728 678 m 5 X s [] 0 sd 1 lw
 1728 678 m20 [] 0 sd 1 lw [] 0 sd 1 lw 1739 638 m 359 Y s [] 0 sd 1 lw 1739 997 m 359 Y s [] 0 sd 1 lw 1733 997 m 6 X s
 [] 0 sd 1 lw 1739 997 m 6 X s [] 0 sd 1 lw 1739 997 m20 [] 0 sd 1 lw [] 0 sd 1 lw 1751 194 m 160 Y s [] 0 sd 1 lw 1751
 354 m 161 Y s [] 0 sd 1 lw 1745 354 m 6 X s [] 0 sd 1 lw 1751 354 m 6 X s [] 0 sd 1 lw 1751 354 m20 [] 0 sd 1 lw
 [] 0 sd 1 lw 1763 396 m 276 Y s [] 0 sd 1 lw 1763 672 m 275 Y s [] 0 sd 1 lw 1757 672 m 6 X s [] 0 sd 1 lw 1763 672 m 6
 X s [] 0 sd 1 lw 1763 672 m20 [] 0 sd 1 lw [] 0 sd 1 lw 1775 513 m 318 Y s [] 0 sd 1 lw 1775 831 m 318 Y s [] 0 sd 1 lw
 1769 831 m 6 X s [] 0 sd 1 lw 1775 831 m 6 X s [] 0 sd 1 lw 1775 831 m20 [] 0 sd 1 lw [] 0 sd 1 lw 1787 288 m 225 Y s
 [] 0 sd 1 lw 1787 513 m 226 Y s [] 0 sd 1 lw 1781 513 m 6 X s [] 0 sd 1 lw 1787 513 m 5 X s [] 0 sd 1 lw 1787 513 m20
 [] 0 sd 1 lw [] 0 sd 1 lw 1798 194 m 158 Y s [] 0 sd 1 lw 1798 352 m 158 Y s [] 0 sd 1 lw 1792 352 m 6 X s [] 0 sd 1 lw
 1798 352 m 6 X s [] 0 sd 1 lw 1798 352 m20 [] 0 sd 1 lw [] 0 sd 1 lw 1810 393 m 272 Y s [] 0 sd 1 lw 1810 665 m 272 Y s
 [] 0 sd 1 lw 1804 665 m 6 X s [] 0 sd 1 lw 1810 665 m 6 X s [] 0 sd 1 lw 1810 665 m20 [] 0 sd 1 lw [] 0 sd 1 lw 1816
 194 m 6 X s [] 0 sd 1 lw 1822 194 m 6 X s [] 0 sd 1 lw 1834 194 m 156 Y s [] 0 sd 1 lw 1834 350 m 155 Y s [] 0 sd 1 lw
 1828 350 m 6 X s [] 0 sd 1 lw 1834 350 m 6 X s [] 0 sd 1 lw 1834 350 m20 [] 0 sd 1 lw [] 0 sd 1 lw 1845 285 m 219 Y s
 [] 0 sd 1 lw 1845 504 m 219 Y s [] 0 sd 1 lw 1840 504 m 5 X s [] 0 sd 1 lw 1845 504 m 6 X s [] 0 sd 1 lw 1845 504 m20
 [] 0 sd 1 lw [] 0 sd 1 lw 1857 285 m 219 Y s [] 0 sd 1 lw 1857 504 m 220 Y s [] 0 sd 1 lw 1851 504 m 6 X s [] 0 sd 1 lw
 1857 504 m 6 X s [] 0 sd 1 lw 1857 504 m20 [] 0 sd 1 lw [] 0 sd 1 lw 1869 863 m 406 Y s [] 0 sd 1 lw 1869 1269 m 406 Y
 s [] 0 sd 1 lw 1863 1269 m 6 X s [] 0 sd 1 lw 1869 1269 m 6 X s [] 0 sd 1 lw 1869 1269 m20 [] 0 sd 1 lw [] 0 sd 1 lw
 1881 389 m 266 Y s [] 0 sd 1 lw 1881 655 m 266 Y s [] 0 sd 1 lw 1875 655 m 6 X s [] 0 sd 1 lw 1881 655 m 6 X s [] 0 sd
 1 lw 1881 655 m20 [] 0 sd 1 lw [] 0 sd 1 lw 1887 194 m 6 X s [] 0 sd 1 lw 1893 194 m 6 X s [] 0 sd 1 lw 1904 284 m 216
 Y s [] 0 sd 1 lw 1904 500 m 217 Y s [] 0 sd 1 lw 1899 500 m 5 X s [] 0 sd 1 lw 1904 500 m 6 X s [] 0 sd 1 lw 1904 500
 m20 [] 0 sd 1 lw [] 0 sd 1 lw 1916 385 m 261 Y s [] 0 sd 1 lw 1916 646 m 261 Y s [] 0 sd 1 lw 1910 646 m 6 X s [] 0 sd
 1 lw 1916 646 m 6 X s [] 0 sd 1 lw 1916 646 m20 [] 0 sd 1 lw [] 0 sd 1 lw 1928 283 m 213 Y s [] 0 sd 1 lw 1928 496 m
 213 Y s [] 0 sd 1 lw 1922 496 m 6 X s [] 0 sd 1 lw 1928 496 m 6 X s [] 0 sd 1 lw 1928 496 m20 [] 0 sd 1 lw [] 0 sd 1 lw
 1934 194 m 6 X s [] 0 sd 1 lw 1940 194 m 6 X s [] 0 sd 1 lw 1952 384 m 260 Y s [] 0 sd 1 lw 1952 644 m 259 Y s [] 0 sd
 1 lw 1946 644 m 6 X s [] 0 sd 1 lw 1952 644 m 5 X s [] 0 sd 1 lw 1952 644 m20 [] 0 sd 1 lw [] 0 sd 1 lw 1963 383 m 258
 Y s [] 0 sd 1 lw 1963 641 m 258 Y s [] 0 sd 1 lw 1957 641 m 6 X s [] 0 sd 1 lw 1963 641 m 6 X s [] 0 sd 1 lw 1963 641
 m20 [] 0 sd 1 lw [] 0 sd 1 lw 1975 194 m 147 Y s [] 0 sd 1 lw 1975 341 m 147 Y s [] 0 sd 1 lw 1969 341 m 6 X s [] 0 sd
 1 lw 1975 341 m 6 X s [] 0 sd 1 lw 1975 341 m20 [] 0 sd 1 lw [] 0 sd 1 lw 1987 280 m 208 Y s [] 0 sd 1 lw 1987 488 m
 207 Y s [] 0 sd 1 lw 1981 488 m 6 X s [] 0 sd 1 lw 1987 488 m 6 X s [] 0 sd 1 lw 1987 488 m20 [] 0 sd 1 lw [] 0 sd 1 lw
 1999 280 m 207 Y s [] 0 sd 1 lw 1999 487 m 206 Y s [] 0 sd 1 lw 1993 487 m 6 X s [] 0 sd 1 lw 1999 487 m 6 X s [] 0 sd
 1 lw 1999 487 m20 [] 0 sd 1 lw [] 0 sd 1 lw 2011 194 m 146 Y s [] 0 sd 1 lw 2011 340 m 146 Y s [] 0 sd 1 lw 2005 340 m
 6 X s [] 0 sd 1 lw 2011 340 m 5 X s [] 0 sd 1 lw 2011 340 m20 [] 0 sd 1 lw [] 0 sd 1 lw 2022 483 m 288 Y s [] 0 sd 1 lw
 2022 771 m 289 Y s [] 0 sd 1 lw 2016 771 m 6 X s [] 0 sd 1 lw 2022 771 m 6 X s [] 0 sd 1 lw 2022 771 m20 [] 0 sd 1 lw
 [] 0 sd 1 lw 2034 279 m 204 Y s [] 0 sd 1 lw 2034 483 m 204 Y s [] 0 sd 1 lw 2028 483 m 6 X s [] 0 sd 1 lw 2034 483 m 6
 X s [] 0 sd 1 lw 2034 483 m20 [] 0 sd 1 lw [] 0 sd 1 lw 2046 278 m 201 Y s [] 0 sd 1 lw 2046 479 m 201 Y s [] 0 sd 1 lw
 2040 479 m 6 X s [] 0 sd 1 lw 2046 479 m 6 X s [] 0 sd 1 lw 2046 479 m20 [] 0 sd 1 lw [] 0 sd 1 lw 2058 278 m 201 Y s
 [] 0 sd 1 lw 2058 479 m 201 Y s [] 0 sd 1 lw 2052 479 m 6 X s [] 0 sd 1 lw 2058 479 m 6 X s [] 0 sd 1 lw 2058 479 m20
 [] 0 sd 1 lw [] 0 sd 1 lw 2070 194 m 141 Y s [] 0 sd 1 lw 2070 335 m 141 Y s [] 0 sd 1 lw 2064 335 m 6 X s [] 0 sd 1 lw
 2070 335 m 5 X s [] 0 sd 1 lw 2070 335 m20 [] 0 sd 1 lw [] 0 sd 1 lw 2081 372 m 244 Y s [] 0 sd 1 lw 2081 616 m 243 Y s
 [] 0 sd 1 lw 2075 616 m 6 X s [] 0 sd 1 lw 2081 616 m 6 X s [] 0 sd 1 lw 2081 616 m20 [] 0 sd 1 lw [] 0 sd 1 lw 2093
 276 m 198 Y s [] 0 sd 1 lw 2093 474 m 197 Y s [] 0 sd 1 lw 2087 474 m 6 X s [] 0 sd 1 lw 2093 474 m 6 X s [] 0 sd 1 lw
 2093 474 m20 [] 0 sd 1 lw [] 0 sd 1 lw 2099 194 m 6 X s [] 0 sd 1 lw 2105 194 m 6 X s [] 0 sd 1 lw 2117 194 m 139 Y s
 [] 0 sd 1 lw 2117 333 m 139 Y s [] 0 sd 1 lw 2111 333 m 6 X s [] 0 sd 1 lw 2117 333 m 6 X s [] 0 sd 1 lw 2117 333 m20
 [] 0 sd 1 lw [] 0 sd 1 lw 2128 470 m 276 Y s [] 0 sd 1 lw 2128 746 m 276 Y s [] 0 sd 1 lw 2123 746 m 5 X s [] 0 sd 1 lw
 2128 746 m 6 X s [] 0 sd 1 lw 2128 746 m20 [] 0 sd 1 lw [] 0 sd 1 lw 2140 369 m 237 Y s [] 0 sd 1 lw 2140 606 m 238 Y s
 [] 0 sd 1 lw 2134 606 m 6 X s [] 0 sd 1 lw 2140 606 m 6 X s [] 0 sd 1 lw 2140 606 m20 [] 0 sd 1 lw [] 0 sd 1 lw 2146
 194 m 6 X s [] 0 sd 1 lw 2152 194 m 6 X s [] 0 sd 1 lw 2164 274 m 191 Y s [] 0 sd 1 lw 2164 465 m 192 Y s [] 0 sd 1 lw
 2158 465 m 6 X s [] 0 sd 1 lw 2164 465 m 6 X s [] 0 sd 1 lw 2164 465 m20 [] 0 sd 1 lw [] 0 sd 1 lw 2176 670 m 329 Y s
 [] 0 sd 1 lw 2176 999 m 328 Y s [] 0 sd 1 lw 2170 999 m 6 X s [] 0 sd 1 lw 2176 999 m 6 X s [] 0 sd 1 lw 2176 999 m20
 [] 0 sd 1 lw [] 0 sd 1 lw 2187 194 m 134 Y s [] 0 sd 1 lw 2187 328 m 134 Y s [] 0 sd 1 lw 2182 328 m 5 X s [] 0 sd 1 lw
 2187 328 m 6 X s [] 0 sd 1 lw 2187 328 m20 [] 0 sd 1 lw [] 0 sd 1 lw 2199 561 m 297 Y s [] 0 sd 1 lw 2199 858 m 297 Y s
 [] 0 sd 1 lw 2193 858 m 6 X s [] 0 sd 1 lw 2199 858 m 6 X s [] 0 sd 1 lw 2199 858 m20 [] 0 sd 1 lw [] 0 sd 1 lw 2211
 271 m 185 Y s [] 0 sd 1 lw 2211 456 m 185 Y s [] 0 sd 1 lw 2205 456 m 6 X s [] 0 sd 1 lw 2211 456 m 6 X s [] 0 sd 1 lw
 2211 456 m20 [] 0 sd 1 lw [] 0 sd 1 lw 2217 194 m 6 X s [] 0 sd 1 lw 2223 194 m 6 X s [] 0 sd 1 lw 2235 357 m 222 Y s
 [] 0 sd 1 lw 2235 579 m 222 Y s [] 0 sd 1 lw 2229 579 m 6 X s [] 0 sd 1 lw 2235 579 m 6 X s [] 0 sd 1 lw 2235 579 m20
 [] 0 sd 1 lw [] 0 sd 1 lw 2246 269 m 182 Y s [] 0 sd 1 lw 2246 451 m 181 Y s [] 0 sd 1 lw 2241 451 m 5 X s [] 0 sd 1 lw
 2246 451 m 6 X s [] 0 sd 1 lw 2246 451 m20 [] 0 sd 1 lw [] 0 sd 1 lw 2258 194 m 127 Y s [] 0 sd 1 lw 2258 321 m 127 Y s
 [] 0 sd 1 lw 2252 321 m 6 X s [] 0 sd 1 lw 2258 321 m 6 X s [] 0 sd 1 lw 2258 321 m20 [] 0 sd 1 lw [] 0 sd 1 lw 2270
 354 m 219 Y s [] 0 sd 1 lw 2270 573 m 219 Y s [] 0 sd 1 lw 2264 573 m 6 X s [] 0 sd 1 lw 2270 573 m 6 X s [] 0 sd 1 lw
 2270 573 m20 [] 0 sd 1 lw [] 0 sd 1 lw 2282 268 m 177 Y s [] 0 sd 1 lw 2282 445 m 177 Y s [] 0 sd 1 lw 2276 445 m 6 X s
 [] 0 sd 1 lw 2282 445 m 6 X s [] 0 sd 1 lw 2282 445 m20 [] 0 sd 1 lw [] 0 sd 1 lw 2288 194 m 6 X s [] 0 sd 1 lw 2294
 194 m 5 X s [] 0 sd 1 lw 2305 636 m 305 Y s [] 0 sd 1 lw 2305 941 m 304 Y s [] 0 sd 1 lw 2299 941 m 6 X s [] 0 sd 1 lw
 2305 941 m 6 X s [] 0 sd 1 lw 2305 941 m20 [] 0 sd 1 lw [] 0 sd 1 lw 2317 267 m 175 Y s [] 0 sd 1 lw 2317 442 m 176 Y s
 [] 0 sd 1 lw 2311 442 m 6 X s [] 0 sd 1 lw 2317 442 m 6 X s [] 0 sd 1 lw 2317 442 m20 [] 0 sd 1 lw [] 0 sd 1 lw 2329
 194 m 122 Y s [] 0 sd 1 lw 2329 316 m 121 Y s [] 0 sd 1 lw 2323 316 m 6 X s [] 0 sd 1 lw 2329 316 m 6 X s [] 0 sd 1 lw
 2329 316 m20 [] 0 sd 1 lw [] 0 sd 1 lw 2341 436 m 241 Y s [] 0 sd 1 lw 2341 677 m 242 Y s [] 0 sd 1 lw 2335 677 m 6 X s
 [] 0 sd 1 lw 2341 677 m 6 X s [] 0 sd 1 lw 2341 677 m20 [] 0 sd 1 lw [] 0 sd 1 lw 2353 526 m 269 Y s [] 0 sd 1 lw 2353
 795 m 268 Y s [] 0 sd 1 lw 2347 795 m 6 X s [] 0 sd 1 lw 2353 795 m 5 X s [] 0 sd 1 lw 2353 795 m20 [] 0 sd 1 lw
 [] 0 sd 1 lw 2364 525 m 268 Y s [] 0 sd 1 lw 2364 793 m 267 Y s [] 0 sd 1 lw 2358 793 m 6 X s [] 0 sd 1 lw 2364 793 m 6
 X s [] 0 sd 1 lw 2364 793 m20 [] 0 sd 1 lw [] 0 sd 1 lw 2370 194 m 6 X s [] 0 sd 1 lw 2376 194 m 6 X s [] 0 sd 1 lw
 2388 517 m 261 Y s [] 0 sd 1 lw 2388 778 m 261 Y s [] 0 sd 1 lw 2382 778 m 6 X s [] 0 sd 1 lw 2388 778 m 6 X s [] 0 sd
 1 lw 2388 778 m20 [] 0 sd 1 lw [] 0 sd 1 lw 2394 194 m 6 X s [] 0 sd 1 lw 2400 194 m 6 X s [] 0 sd 1 lw 2411 262 m 162
 Y s [] 0 sd 1 lw 2411 424 m 162 Y s [] 0 sd 1 lw 2406 424 m 5 X s [] 0 sd 1 lw 2411 424 m 6 X s [] 0 sd 1 lw 2411 424
 m20 [] 0 sd 1 lw [] 0 sd 1 lw 2423 194 m 114 Y s [] 0 sd 1 lw 2423 308 m 114 Y s [] 0 sd 1 lw 2417 308 m 6 X s [] 0 sd
 1 lw 2423 308 m 6 X s [] 0 sd 1 lw 2423 308 m20 [] 0 sd 1 lw [] 0 sd 1 lw 2435 421 m 228 Y s [] 0 sd 1 lw 2435 649 m
 227 Y s [] 0 sd 1 lw 2429 649 m 6 X s [] 0 sd 1 lw 2435 649 m 6 X s [] 0 sd 1 lw 2435 649 m20 [] 0 sd 1 lw [] 0 sd 1 lw
 2447 261 m 159 Y s [] 0 sd 1 lw 2447 420 m 160 Y s [] 0 sd 1 lw 2441 420 m 6 X s [] 0 sd 1 lw 2447 420 m 6 X s [] 0 sd
 1 lw 2447 420 m20 [] 0 sd 1 lw [] 0 sd 1 lw 2459 194 m 113 Y s [] 0 sd 1 lw 2459 307 m 112 Y s [] 0 sd 1 lw 2453 307 m
 6 X s [] 0 sd 1 lw 2459 307 m 6 X s [] 0 sd 1 lw 2459 307 m20 [] 0 sd 1 lw [] 0 sd 1 lw 2470 335 m 192 Y s [] 0 sd 1 lw
 2470 527 m 192 Y s [] 0 sd 1 lw 2465 527 m 5 X s [] 0 sd 1 lw 2470 527 m 6 X s [] 0 sd 1 lw 2470 527 m20 [] 0 sd 1 lw
 [] 0 sd 1 lw 2482 415 m 220 Y s [] 0 sd 1 lw 2482 635 m 221 Y s [] 0 sd 1 lw 2476 635 m 6 X s [] 0 sd 1 lw 2482 635 m 6
 X s [] 0 sd 1 lw 2482 635 m20 [] 0 sd 1 lw [] 0 sd 1 lw 2494 194 m 109 Y s [] 0 sd 1 lw 2494 303 m 109 Y s [] 0 sd 1 lw
 2488 303 m 6 X s [] 0 sd 1 lw 2494 303 m 6 X s [] 0 sd 1 lw 2494 303 m20 [] 0 sd 1 lw [] 0 sd 1 lw 2500 194 m 6 X s
 [] 0 sd 1 lw 2506 194 m 6 X s [] 0 sd 1 lw 2512 194 m 6 X s [] 0 sd 1 lw 2518 194 m 6 X s [] 0 sd 1 lw 2524 194 m 5 X s
 [] 0 sd 1 lw 2529 194 m 6 X s [] 0 sd 1 lw 2535 194 m 6 X s [] 0 sd 1 lw 2541 194 m 6 X s [] 0 sd 1 lw 2547 194 m 6 X s
 [] 0 sd 1 lw 2553 194 m 6 X s [] 0 sd 1 lw 2559 194 m 6 X s [] 0 sd 1 lw 2565 194 m 6 X s [] 0 sd 1 lw 2571 194 m 6 X s
 [] 0 sd 1 lw 2577 194 m 5 X s [] 0 sd 1 lw 2582 194 m 6 X s [] 0 sd 1 lw 2588 194 m 6 X s [] 0 sd 1 lw 2594 194 m 6 X s
 [] 0 sd 1 lw 2600 194 m 6 X s [] 0 sd 1 lw 2606 194 m 6 X s [] 0 sd 1 lw 2612 194 m 6 X s [] 0 sd 1 lw 2618 194 m 6 X s
 [] 0 sd 1 lw 2624 194 m 6 X s [] 0 sd 1 lw 2630 194 m 6 X s [] 0 sd 1 lw 2636 194 m 5 X s [] 0 sd 1 lw 2641 194 m 6 X s
 [] 0 sd 1 lw 2647 194 m 6 X s [] 0 sd 1 lw [] 0 sd 1 lw 295 194 m 2358 X s s
 /xs 0 def (Pseudorapidity) /Helvetica-Bold 72 stwn  gsave  2653 49
 t 0 r  xs neg 0 t 0 0 m /Helvetica-Bold findfont 72 sf 0 0 m (Pseudorapidity) show  gr  [] 0 sd 1 lw [] 0 sd 1 lw 431
 241 m -47 Y s s [] 0 sd 1 lw [] 0 sd 1 lw 535 218 m -24 Y s s [] 0 sd 1 lw [] 0 sd 1 lw 640 218 m -24 Y s s [] 0 sd 1
 lw [] 0 sd 1 lw 744 218 m -24 Y s s [] 0 sd 1 lw [] 0 sd 1 lw 848 218 m -24 Y s s [] 0 sd 1 lw [] 0 sd 1 lw 953 241 m
 -47 Y s s [] 0 sd 1 lw [] 0 sd 1 lw 1057 218 m -24 Y s s [] 0 sd 1 lw [] 0 sd 1 lw 1161 218 m -24 Y s s [] 0 sd 1 lw
 [] 0 sd 1 lw 1265 218 m -24 Y s s [] 0 sd 1 lw [] 0 sd 1 lw 1370 218 m -24 Y s s [] 0 sd 1 lw [] 0 sd 1 lw 1474 241 m
 -47 Y s s [] 0 sd 1 lw [] 0 sd 1 lw 1578 218 m -24 Y s s [] 0 sd 1 lw [] 0 sd 1 lw 1683 218 m -24 Y s s [] 0 sd 1 lw
 [] 0 sd 1 lw 1787 218 m -24 Y s s [] 0 sd 1 lw [] 0 sd 1 lw 1891 218 m -24 Y s s [] 0 sd 1 lw [] 0 sd 1 lw 1995 241 m
 -47 Y s s [] 0 sd 1 lw [] 0 sd 1 lw 2100 218 m -24 Y s s [] 0 sd 1 lw [] 0 sd 1 lw 2204 218 m -24 Y s s [] 0 sd 1 lw
 [] 0 sd 1 lw 2308 218 m -24 Y s s [] 0 sd 1 lw [] 0 sd 1 lw 2413 218 m -24 Y s s [] 0 sd 1 lw [] 0 sd 1 lw 2517 241 m
 -47 Y s s [] 0 sd 1 lw [] 0 sd 1 lw 431 241 m -47 Y s s [] 0 sd 1 lw [] 0 sd 1 lw 327 218 m -24 Y s s [] 0 sd 1 lw
 [] 0 sd 1 lw 2517 241 m -47 Y s s [] 0 sd 1 lw [] 0 sd 1 lw 2621 218 m -24 Y s s
 /xs 0 def (-1) /Helvetica-Bold 72 stwn  gsave  431 107
 t 0 r xs 2 div neg 0 t 0 0 m /Helvetica-Bold findfont 72 sf 0 0 m (-1) show  gr 
 /xs 0 def (-0.5) /Helvetica-Bold 72 stwn  gsave  953 107
 t 0 r xs 2 div neg 0 t 0 0 m /Helvetica-Bold findfont 72 sf 0 0 m (-0.5) show  gr 
 /xs 0 def (0) /Helvetica-Bold 72 stwn  gsave  1474 107
 t 0 r xs 2 div neg 0 t 0 0 m /Helvetica-Bold findfont 72 sf 0 0 m (0) show  gr 
 /xs 0 def (0.5) /Helvetica-Bold 72 stwn  gsave  1995 107
 t 0 r xs 2 div neg 0 t 0 0 m /Helvetica-Bold findfont 72 sf 0 0 m (0.5) show  gr 
 /xs 0 def (1) /Helvetica-Bold 72 stwn  gsave  2517 107
 t 0 r xs 2 div neg 0 t 0 0 m /Helvetica-Bold findfont 72 sf 0 0 m (1) show  gr  [] 0 sd 1 lw [] 0 sd 1 lw 295 194 m
 1556 Y s s
 /xs 0 def (Number of Hits \(cm) /Helvetica-Bold 72 stwn (-2\)) /Helvetica-Bold 50 stwn  gsave  136 1750
 t 90 r  xs neg 0 t 0 0 m /Helvetica-Bold findfont 72 sf 0 0 m (Number of Hits \(cm) show  currentpoint pop 0 t 
 /Helvetica-Bold findfont 50 sf 0 36 m (-2\)) show  gr  [] 0 sd 1 lw [] 0 sd 1 lw 366 194 m -71 X s s [] 0 sd 1 lw
 [] 0 sd 1 lw 330 268 m -35 X s s [] 0 sd 1 lw [] 0 sd 1 lw 330 342 m -35 X s s [] 0 sd 1 lw [] 0 sd 1 lw 330 416 m -35
 X s s [] 0 sd 1 lw [] 0 sd 1 lw 366 490 m -71 X s s [] 0 sd 1 lw [] 0 sd 1 lw 330 564 m -35 X s s [] 0 sd 1 lw [] 0 sd
 1 lw 330 638 m -35 X s s [] 0 sd 1 lw [] 0 sd 1 lw 330 712 m -35 X s s [] 0 sd 1 lw [] 0 sd 1 lw 366 786 m -71 X s s
 [] 0 sd 1 lw [] 0 sd 1 lw 330 860 m -35 X s s [] 0 sd 1 lw [] 0 sd 1 lw 330 934 m -35 X s s [] 0 sd 1 lw [] 0 sd 1 lw
 330 1008 m -35 X s s [] 0 sd 1 lw [] 0 sd 1 lw 366 1082 m -71 X s s [] 0 sd 1 lw [] 0 sd 1 lw 330 1156 m -35 X s s
 [] 0 sd 1 lw [] 0 sd 1 lw 330 1230 m -35 X s s [] 0 sd 1 lw [] 0 sd 1 lw 330 1304 m -35 X s s [] 0 sd 1 lw [] 0 sd 1 lw
 366 1378 m -71 X s s [] 0 sd 1 lw [] 0 sd 1 lw 330 1452 m -35 X s s [] 0 sd 1 lw [] 0 sd 1 lw 330 1526 m -35 X s s
 [] 0 sd 1 lw [] 0 sd 1 lw 330 1600 m -35 X s s [] 0 sd 1 lw [] 0 sd 1 lw 366 1674 m -71 X s s [] 0 sd 1 lw [] 0 sd 1 lw
 366 1674 m -71 X s s [] 0 sd 1 lw [] 0 sd 1 lw 330 1748 m -35 X s s
 /xs 0 def (0) /Helvetica-Bold 72 stwn  gsave  280 174
 t 0 r  xs neg 0 t 0 0 m /Helvetica-Bold findfont 72 sf 0 0 m (0) show  gr 
 /xs 0 def (0.2) /Helvetica-Bold 72 stwn  gsave  280 470
 t 0 r  xs neg 0 t 0 0 m /Helvetica-Bold findfont 72 sf 0 0 m (0.2) show  gr 
 /xs 0 def (0.4) /Helvetica-Bold 72 stwn  gsave  280 766
 t 0 r  xs neg 0 t 0 0 m /Helvetica-Bold findfont 72 sf 0 0 m (0.4) show  gr 
 /xs 0 def (0.6) /Helvetica-Bold 72 stwn  gsave  280 1062
 t 0 r  xs neg 0 t 0 0 m /Helvetica-Bold findfont 72 sf 0 0 m (0.6) show  gr 
 /xs 0 def (0.8) /Helvetica-Bold 72 stwn  gsave  280 1358
 t 0 r  xs neg 0 t 0 0 m /Helvetica-Bold findfont 72 sf 0 0 m (0.8) show  gr 
 /xs 0 def (1) /Helvetica-Bold 72 stwn  gsave  280 1654
 t 0 r  xs neg 0 t 0 0 m /Helvetica-Bold findfont 72 sf 0 0 m (1) show  gr  [] 0 sd 1 lw 0.95 0.95 0.95 c 1165 97 29
 1837 bf black [] 0 sd 1 lw 49 1837 m -13 Y 1158 X 91 Y -13 X -78 Y f [] 0 sd 1 lw 29 1837 m 97 Y s [] 0 sd 1 lw 29 1934
 m 1165 X s [] 0 sd 1 lw 1194 1934 m -97 Y s [] 0 sd 1 lw 1194 1837 m -1165 X s
 /xs 0 def (Hits for Layer 5 by Eta) /Helvetica-Bold 76 stwn  gsave  612 1864
 t 0 r xs 2 div neg 0 t 0 0 m /Helvetica-Bold findfont 76 sf 0 0 m (Hits for Layer 5 by Eta) show  gr  [] 0 sd 1 lw 0.95
 0.95 0.95 c 590 311 2299 1594 bf black [] 0 sd 1 lw 2319 1594 m -13 Y 583 X 305 Y -13 X -292 Y f [] 0 sd 1 lw 2299 1594
 m 311 Y s [] 0 sd 1 lw 2299 1905 m 590 X s [] 0 sd 1 lw 2889 1905 m -311 Y s [] 0 sd 1 lw 2889 1594 m -590 X s
 gsave  2329 1849
 t 0 r 0 0 m /Helvetica-Bold findfont 64 sf 0 0 m (hEtaEtapden_Eta5) show  gr 
 gsave  2329 1771
 t 0 r 0 0 m /Helvetica-Bold findfont 64 sf 0 0 m (Nent = 37    \040) show  gr 
 gsave  2329 1693
 t 0 r 0 0 m /Helvetica-Bold findfont 64 sf 0 0 m (Mean  = 0.00242) show  gr 
 gsave  2329 1615
 t 0 r 0 0 m /Helvetica-Bold findfont 64 sf 0 0 m (RMS   = 0.5445) show  gr  1 1 0 c gr 
showpage gr
 gr 
%%Trailer
%%Pages:  1
%%EOF
