%!PS-Adobe-2.0
%%Title: ITShitDensityWeight_2_Eta.ps (Landscape A 4)
%%Pages: (atend)
%%Creator: ROOT Version 2.22/09
%%CreationDate:Sat Sep 18 07:10:22 1999
%%EndComments
%%BeginProlog
/s {stroke} def /l {lineto} def /m {moveto} def /t {translate} def
/sw {stringwidth} def /r {rotate} def /rl {roll}  def /R {repeat} def
/d {rlineto} def /rm {rmoveto} def /gr {grestore} def /f {eofill} def
/c {setrgbcolor} def /lw {setlinewidth} def /sd {setdash} def
/cl {closepath} def /sf {scalefont setfont} def /black {0 setgray} def
/box {m dup 0 exch d exch 0 d 0 exch neg d cl} def
/NC{systemdict begin initclip end}def/C{NC box clip newpath}def
/bl {box s} def /bf {box f} def /Y { 0 exch d} def /X { 0 d} def 
/mp {newpath /y exch def /x exch def} def
/side {[w .77 mul w .23 mul] .385 w mul sd w 0 l currentpoint t -144 r} def
/mr {mp x y w2 0 360 arc} def /m24 {mr s} def /m20 {mr f} def
/mb {mp x y w2 add m w2 neg 0 d 0 w neg d w 0 d 0 w d cl} def
/mt {mp x y w2 add m w2 neg w neg d w 0 d cl} def
/m21 {mb f} def /m25 {mb s} def /m22 {mt f} def /m26{mt s} def
/m23 {mp x y w2 sub m w2 w d w neg 0 d cl f} def
/m27 {mp x y w2 add m w3 neg w2 neg d w3 w2 neg d w3 w2 d cl s} def
/m28 {mp x w2 sub y w2 sub w3 add m w3 0 d  0 w3 neg d w3 0 d 0 w3 d w3 0 d  0 w3 d w3 neg 0 d 0 w3 d w3 neg 0 d
 0 w3 neg d w3 neg 0 d cl s } def
/m29 {mp gsave x w2 sub y w2 add w3 sub m currentpoint t
 4 {side} repeat cl fill gr} def
/m30 {mp gsave x w2 sub y w2 add w3 sub m currentpoint t
 5 {side} repeat s gr} def
/m31 {mp x y w2 sub m 0 w d x w2 sub y m w 0 d x w2 sub y w2 add m w w neg d x w2 sub y w2
 sub m w w d s} def
/m2 {mp x y w2 sub m 0 w d x w2 sub y m w 0 d s} def
/m5 {mp x w2 sub y w2 sub m w w d x w2 sub y w2 add m w w neg d s} def
/DP {/PT exch def gsave 47.2 47.2 scale PT 1  eq { 16 16 1 [ 16 0 0 16 neg 0 16
] { < AA AA 55 55 AA AA 55 55 AA AA 55 55 AA AA 55 55 AA AA 55 55 AA AA 55 55
AA AA 55 55 AA AA 55 55 > } image } if PT 2 eq { 16 16 1 [ 16 0 0 16 neg 0 16
] { < BB BB EE EE BB BB EE EE BB BB EE EE BB BB EE EE BB BB EE EE BB BB EE EE
BB BB EE EE BB BB EE EE > } image } if PT 3 eq { 16 16 1 [ 16 0 0 16 neg 0 16
] { < FF FF BB BB FF FF EE EE FF FF BB BB FF FF EE EE FF FF BB BB FF FF EE EE
FF FF BB BB FF FF EE EE > } image } if PT 4 eq { 16 16 1 [ 16 0 0 16 neg 0 16
] { < DF DF BF BF 7F 7F FE FE FD FD FB FB F7 F7 EF EF DF DF BF BF 7F 7F FE FE
FD FD FB FB F7 F7 EF EF > } image } if PT 5 eq { 16 16 1 [ 16 0 0 16 neg 0 16
] { < 7F 7F BF B F DF DF EF EF F7 F7 FB FB FD FD FE FE 7F 7F BF BF DF DF EF
EF F7 F7 FB FB FD FD FE FE > } image } if PT 6 eq { 16 16 1 [ 16 0 0 16 neg 0
16 ] { < BB BB BB BB BB BB BB BB BB BB BB BB BB BB BB BB BB BB BB BB BB BB BB
BB BB BB BB BB BB BB BB BB > } image } if PT 7 eq { 16 16 1 [ 16 0 0 16 neg 0
16 ] { < FF FF FF FF FF FF 00 00 FF FF FF FF FF FF 00 00 FF FF FF FF FF FF 00
00 FF FF FF FF FF FF 00 00 > } image } if PT 8 eq { 16 16 1 [ 16 0 0 16 neg 0
16 ] { < EE EE 47 47 83 83 C5 C5 EE EE 5C 5C 38 38 74 74 EE EE 47 47 83 83 C5
C5 EE EE 5C 5C 38 38 74 74 > } image } if PT 9 eq { 16 16 1 [ 16 0 0 16 neg 0
16 ] { < EF EF EF EF D7 D7 38 38 FE FE FE FE 7D 7D 83 83 EF EF EF EF D7 D7 38
38  FE FE FE FE 7D 7D 83 83 > } image } if PT 10 eq { 16 16 1 [ 16 0 0 16 neg
0 16 ] { <  EF EF EF EF EF EF 00 00 FE FE FE FE FE FE 00 00 EF EF EF EF EF EF
00 00 FE FE FE FE FE FE 00 00 > } image } if PT 11 eq { 16 16 1 [ 16 0 0 16
neg 0 16 ] { < F7 F7 B6 B6 D5 D5 E3 E3 D5 D5 B6 B6 F7 F7 FF FF 7F 7F 6B 6B 5D
5D 3E 3E 5D 5D 6B 6B 7F 7F FF FF > } image } if PT 12 eq { 16 16 1 [ 16 0 0
16 neg 0 16 ] { < E3 E3 DD DD BE BE BE BE BE BE DD DD E3 E3 FF FF 3E 3E DD DD
EB EB EB EB EB EB DD DD 3E 3E FF FF > } image } if PT 13 eq { 16 16 1 [ 16 0
0 16 neg 0 16 ] { <  FE FE 7D 7D BB BB D7 D7 EF EF D7 D7 BB BB 7D 7D FE FE 7D
7D BB BB D7 D7 EF EF D7 D7 BB BB 7D 7D > } image } if PT 14 eq { 16 16 1 [ 16
0 0 16 neg 0 16 ] { < 00 00 EE EF EE EF EE EF 0E E0 EE EE EE EE EE EE 00 EE
FE EE FE EE FE EE 00 00 FE EF FE EF FE EF > } image } if PT 15 eq { 16 16 1 [
16 0 0 16 neg 0 16 ] { < DD DD AA AA DD DD FF FF 77 77 AA AA 77 77 FF FF DD
DD AA AA DD DD FF FF 77 77 AA AA 77 77 FF FF > } image } if PT 16 eq { 16 16
1 [ 16 0 0 16 neg 0 16 ] { <  F1 F1 EE EE 1F 1F FF FF F1 F1 EE EE 1F 1F FF FF
F1 F1 EE EE 1F 1F FF FF F1 F1 EE EE 1F 1F FF FF > } image } if PT 17 eq { 16
16 1 [ 16 0 0 16 neg 0 16 ] { <  EE EE DD DD BB BB FF FF EE EE DD DD BB BB FF
 FF EE EE DD DD BB BB FF FF EE EE DD DD BB BB FF FF > } image } if PT 18 eq {
16 16 1 [ 16 0 0 16 neg 0 16 ] { <  BB BB DD DD EE EE FF FF BB BB DD DD EE EE
FF FF BB BB DD DD EE EE FF FF BB BB DD DD EE EE FF FF > } image } if PT 19 eq
{ 16 16 1 [ 16 0 0 16 neg 0 16 ] { < 1F FC 67 F3 7B EF BD DE BD DE DE BD E6
B3 F8 0F E6 B3 DE BD BD DE BD DE 7B EF 67 F3 1F FC 7F FF > } image } if PT
20 eq { 16 16 1 [ 16 0 0 16 neg 0 16 ] { < DD DD EE EE EE EE EE EE DD DD BB
BB BB BB BB BB DD DD EE EE EE EE EE EE DD DD BB BB BB BB BB BB > } image }
if PT 21 eq { 16 16 1 [ 16 0 0 16 neg 0 16 ] { < 0E 0E EF EF EF EF EF EF E0
E0 FE FE FE FE FE FE 0E 0E EF EF EF EF EF EF E0 E0 FE FE FE FE FE FE > }
image }  if PT 22 eq { 16 16 1 [ 16 0 0 16 neg 0 16 ] { < 70 70 F7 F7 F7 F7 F7
F7 07 07 7F 7F 7F 7F 7F 7F 70 70 F7 F7 F7 F7 F7 F7 07 07 7F 7F 7F 7F 7F 7F >
} image } if PT 23 eq  { 16 16 1 [ 16 0 0 16 neg 0 16 ] { < AA AA 55 55 A9 A9
D1 D1 E1 E1 D1 D1 A9 A9 55 55 AA AA 55 55 A9 A9 D1 D1 E1 E1 D1 D1 A9 A9 55 55
> } image } if PT 24 eq { 16 16 1 [ 16 0 0 16 neg 0 16 ] { < FF FE FF FC EA
A8 D5 54 EA A8 D5 54 E8 28 D4 54 E8 E8 D4 D4 E8 EA 54 D5 A8 EA 54 D5 00 C0 00
80 > } image } if PT 25 eq {  16 16 1 [ 16 0 0 16 neg 0 16 ] { < FF FE FF FC
FF F8 FF F0 F0 00 F0 00 F0 20 F0 60 F0 E0 F1 E0 F3 E0 F0 00 E0 00 C0 00 80 00
00 00 > } image } if gr } def /FA { /PT exch def gsave clip 0 0 translate 1 1
74 { 1 sub 47.2 mul /Xcurr exch def 1 1 74 { 1 sub 47.2 mul /Ycurr exch def
gsave Xcurr Ycurr translate PT DP gr } for } for gr newpath } def
/reencdict 24 dict def /ReEncode {reencdict begin /nco&na exch def
/nfnam exch def /basefontname exch def /basefontdict basefontname findfont def
/newfont basefontdict maxlength dict def basefontdict {exch dup /FID ne
{dup /Encoding eq {exch dup length array copy newfont 3 1 roll put} {exch 
newfont 3 1 roll put} ifelse} {pop pop} ifelse } forall newfont
/FontName nfnam put nco&na aload pop nco&na length 2 idiv {newfont
/Encoding get 3 1 roll put} repeat nfnam newfont definefont pop end } def
/accvec [ 176 /agrave 181 /Agrave 190 /acircumflex 192 /Acircumflex
201 /adieresis 204 /Adieresis 209 /ccedilla 210 /Ccedilla 211 /eacute
212 /Eacute 213 /egrave 214 /Egrave 215 /ecircumflex 216 /Ecircumflex
217 /edieresis 218 /Edieresis 219 /icircumflex 220 /Icircumflex
221 /idieresis 222 /Idieresis 223 /ntilde 224 /Ntilde 226 /ocircumflex
228 /Ocircumflex 229 /odieresis 230 /Odieresis 231 /ucircumflex 236 /Ucircumflex
237 /udieresis 238 /Udieresis 239 /aring 242 /Aring 243 /ydieresis
244 /Ydieresis 246 /aacute 247 /Aacute 252 /ugrave 253 /Ugrave] def
/Times-Roman /Times-Roman accvec ReEncode
/Times-Italic /Times-Italic accvec ReEncode
/Times-Bold /Times-Bold accvec ReEncode
/Times-BoldItalic /Times-BoldItalic accvec ReEncode
/Helvetica /Helvetica accvec ReEncode
/Helvetica-Oblique /Helvetica-Oblique accvec ReEncode
/Helvetica-Bold /Helvetica-Bold accvec ReEncode
/Helvetica-BoldOblique /Helvetica-BoldOblique  accvec ReEncode
/Courier /Courier accvec ReEncode
/Courier-Oblique /Courier-Oblique accvec ReEncode
/Courier-Bold /Courier-Bold accvec ReEncode
/Courier-BoldOblique /Courier-BoldOblique accvec ReEncode
/oshow {gsave [] 0 sd true charpath stroke gr} def
/stwn { /fs exch def /fn exch def /text exch def fn findfont fs sf
 text sw pop xs add /xs exch def} def
/stwb { /fs exch def /fn exch def /nbas exch def /textf exch def
textf length /tlen exch def nbas tlen gt {/nbas tlendef} if
fn findfont fs sf textf dup length nbas sub nbas getinterval sw
pop neg xs add /xs exch def} def
/accspe [ 65 /plusminus  66 /bar  67 /existential  68 /universal 
69 /exclam  70 /numbersign 71 /greater  72 /question  73 /integral 
74 /colon  75 /semicolon  76 /less  77 /bracketleft  78 /bracketright
79 /greaterequal 80 /braceleft 81 /braceright 82 /radical
83 /spade 84 /heart 85 /diamond 86 /club 87 /lessequal
88 /multiply 89 /percent 90 /infinity 48 /circlemultiply 49 /circleplus
50 /emptyset  51 /lozenge 52 /bullet 53 /arrowright 54 /arrowup
55 /arrowleft 56 /arrowdown 57 /arrowboth 48 /degree 44 /comma 43 /plus 45 /angle 42 /angleleft 47 /divide 61 /notequal
 40 /equivalence 41 /second 97 /approxequal 98 /congruent 99 /perpendicular 100 /partialdiff 101 /florin
 102 /intersection 103 /union 104 /propersuperset 105 /reflexsuperset 106 /notsubset 107 /propersubset 108 /reflexsubset
 109 /element 110 /notelement 111 /gradient 112 /logicaland 113 /logicalor 114 /arrowdblboth 115 /arrowdblleft
 116 /arrowdblup 117 /arrowdblright 118 /arrowdbldown 119 /ampersand 120 /omega1 121 /similar 122 /aleph ] def
/Symbol /Special accspe ReEncode
/Zone {/iy exch def /ix exch def  ix 1 sub  3144 mul  1 iy sub  2224
 mul t} def
%%EndProlog
 gsave  90 r 0 -594 t  28 20 t .25 .25 scale  gsave 
%%Page: number 1
 black [] 0 sd 1 lw 0.95 0.95 0.95 c 2948 1944 0 0 bf 0.8 0.8 0.8 c 0 0 m 2 2 d 1940 Y 2944 X 2 2 d -2948 X -1944 Y f
 0.3 0.3 0.3 c 0 0 m 2 2 d 2944 X 1940 Y 2 2 d -1944 Y -2948 X f black [] 0 sd 1 lw 0.95 0.95 0.95 c 2358 1556 295 194
 bf 0.8 0.8 0.8 c 295 194 m 1 1 d 1554 Y 2356 X 1 1 d -2358 X -1556 Y f 0.3 0.3 0.3 c 295 194 m 1 1 d 2356 X 1554 Y 1 1
 d -1556 Y -2358 X f [] 0 sd 1 lw black 295 194 m 2358 X s [] 0 sd 1 lw 2653 194 m 1556 Y s [] 0 sd 1 lw 2653 1750 m
 -2358 X s [] 0 sd 1 lw 295 1750 m -1556 Y s [] 0 sd 1 lw 1 1 1 c black [] 0 sd 1 lw 295 685 m 6 X s [] 0 sd 1 lw 301
 685 m 6 X s [] 0 sd 1 lw 307 694 m 5 X s [] 0 sd 1 lw 312 694 m 6 X s [] 0 sd 1 lw 318 702 m 6 X s [] 0 sd 1 lw 324 702
 m 6 X s [] 0 sd 1 lw 330 711 m 6 X s [] 0 sd 1 lw 336 711 m 6 X s [] 0 sd 1 lw 342 719 m 6 X s [] 0 sd 1 lw 348 719 m 6
 X s [] 0 sd 1 lw 354 728 m 6 X s [] 0 sd 1 lw 360 728 m 6 X s [] 0 sd 1 lw 366 737 m 5 X s [] 0 sd 1 lw 371 737 m 6 X s
 [] 0 sd 1 lw 377 746 m 6 X s [] 0 sd 1 lw 383 746 m 6 X s [] 0 sd 1 lw 389 755 m 6 X s [] 0 sd 1 lw 395 755 m 6 X s
 [] 0 sd 1 lw 401 764 m 6 X s [] 0 sd 1 lw 407 764 m 6 X s [] 0 sd 1 lw 413 774 m 6 X s [] 0 sd 1 lw 419 774 m 6 X s
 [] 0 sd 1 lw 425 783 m 5 X s [] 0 sd 1 lw 430 783 m 6 X s [] 0 sd 1 lw 436 793 m 6 X s [] 0 sd 1 lw 442 793 m 6 X s
 [] 0 sd 1 lw 448 803 m 6 X s [] 0 sd 1 lw 454 803 m 6 X s [] 0 sd 1 lw 460 813 m 6 X s [] 0 sd 1 lw 466 813 m 6 X s
 [] 0 sd 1 lw 472 823 m 6 X s [] 0 sd 1 lw 478 823 m 5 X s [] 0 sd 1 lw 483 833 m 6 X s [] 0 sd 1 lw 489 833 m 6 X s
 [] 0 sd 1 lw 495 843 m 6 X s [] 0 sd 1 lw 501 843 m 6 X s [] 0 sd 1 lw 507 854 m 6 X s [] 0 sd 1 lw 513 854 m 6 X s
 [] 0 sd 1 lw 519 864 m 6 X s [] 0 sd 1 lw 525 864 m 6 X s [] 0 sd 1 lw 531 875 m 6 X s [] 0 sd 1 lw 537 875 m 5 X s
 [] 0 sd 1 lw 542 886 m 6 X s [] 0 sd 1 lw 548 886 m 6 X s [] 0 sd 1 lw 554 897 m 6 X s [] 0 sd 1 lw 560 897 m 6 X s
 [] 0 sd 1 lw 566 908 m 6 X s [] 0 sd 1 lw 572 908 m 6 X s [] 0 sd 1 lw 578 919 m 6 X s [] 0 sd 1 lw 584 919 m 6 X s
 [] 0 sd 1 lw 590 930 m 6 X s [] 0 sd 1 lw 596 930 m 5 X s [] 0 sd 1 lw 601 942 m 6 X s [] 0 sd 1 lw 607 942 m 6 X s
 [] 0 sd 1 lw 613 953 m 6 X s [] 0 sd 1 lw 619 953 m 6 X s [] 0 sd 1 lw 625 965 m 6 X s [] 0 sd 1 lw 631 965 m 6 X s
 [] 0 sd 1 lw 637 977 m 6 X s [] 0 sd 1 lw 643 977 m 6 X s [] 0 sd 1 lw 649 988 m 5 X s [] 0 sd 1 lw 654 988 m 6 X s
 [] 0 sd 1 lw 660 1000 m 6 X s [] 0 sd 1 lw 666 1000 m 6 X s [] 0 sd 1 lw 672 1012 m 6 X s [] 0 sd 1 lw 678 1012 m 6 X s
 [] 0 sd 1 lw 684 1025 m 6 X s [] 0 sd 1 lw 690 1025 m 6 X s [] 0 sd 1 lw 696 1037 m 6 X s [] 0 sd 1 lw 702 1037 m 6 X s
 [] 0 sd 1 lw 708 1049 m 5 X s [] 0 sd 1 lw 713 1049 m 6 X s [] 0 sd 1 lw 719 1062 m 6 X s [] 0 sd 1 lw 725 1062 m 6 X s
 [] 0 sd 1 lw 731 1074 m 6 X s [] 0 sd 1 lw 737 1074 m 6 X s [] 0 sd 1 lw 743 1087 m 6 X s [] 0 sd 1 lw 749 1087 m 6 X s
 [] 0 sd 1 lw 755 1100 m 6 X s [] 0 sd 1 lw 761 1100 m 5 X s [] 0 sd 1 lw 766 1112 m 6 X s [] 0 sd 1 lw 772 1112 m 6 X s
 [] 0 sd 1 lw 778 1125 m 6 X s [] 0 sd 1 lw 784 1125 m 6 X s [] 0 sd 1 lw 790 1138 m 6 X s [] 0 sd 1 lw 796 1138 m 6 X s
 [] 0 sd 1 lw 802 1151 m 6 X s [] 0 sd 1 lw 808 1151 m 6 X s [] 0 sd 1 lw 814 1164 m 6 X s [] 0 sd 1 lw 820 1164 m 5 X s
 [] 0 sd 1 lw 825 1177 m 6 X s [] 0 sd 1 lw 831 1177 m 6 X s [] 0 sd 1 lw 837 1190 m 6 X s [] 0 sd 1 lw 843 1190 m 6 X s
 [] 0 sd 1 lw 849 1203 m 6 X s [] 0 sd 1 lw 855 1203 m 6 X s [] 0 sd 1 lw 861 1216 m 6 X s [] 0 sd 1 lw 867 1216 m 6 X s
 [] 0 sd 1 lw 873 1230 m 6 X s [] 0 sd 1 lw 879 1230 m 5 X s [] 0 sd 1 lw 884 1243 m 6 X s [] 0 sd 1 lw 890 1243 m 6 X s
 [] 0 sd 1 lw 896 1256 m 6 X s [] 0 sd 1 lw 902 1256 m 6 X s [] 0 sd 1 lw 908 1269 m 6 X s [] 0 sd 1 lw 914 1269 m 6 X s
 [] 0 sd 1 lw 920 1282 m 6 X s [] 0 sd 1 lw 926 1282 m 6 X s [] 0 sd 1 lw 932 1295 m 5 X s [] 0 sd 1 lw 937 1295 m 6 X s
 [] 0 sd 1 lw 943 1308 m 6 X s [] 0 sd 1 lw 949 1308 m 6 X s [] 0 sd 1 lw 955 1321 m 6 X s [] 0 sd 1 lw 961 1321 m 6 X s
 [] 0 sd 1 lw 967 1334 m 6 X s [] 0 sd 1 lw 973 1334 m 6 X s [] 0 sd 1 lw 979 1347 m 6 X s [] 0 sd 1 lw 985 1347 m 6 X s
 [] 0 sd 1 lw 991 1360 m 5 X s [] 0 sd 1 lw 996 1360 m 6 X s [] 0 sd 1 lw 1002 1373 m 6 X s [] 0 sd 1 lw 1008 1373 m 6 X
 s [] 0 sd 1 lw 1014 1386 m 6 X s [] 0 sd 1 lw 1020 1386 m 6 X s [] 0 sd 1 lw 1026 1398 m 6 X s [] 0 sd 1 lw 1032 1398 m
 6 X s [] 0 sd 1 lw 1038 1410 m 6 X s [] 0 sd 1 lw 1044 1410 m 6 X s [] 0 sd 1 lw 1050 1423 m 5 X s [] 0 sd 1 lw 1055
 1423 m 6 X s [] 0 sd 1 lw 1061 1435 m 6 X s [] 0 sd 1 lw 1067 1435 m 6 X s [] 0 sd 1 lw 1073 1447 m 6 X s [] 0 sd 1 lw
 1079 1447 m 6 X s [] 0 sd 1 lw 1085 1459 m 6 X s [] 0 sd 1 lw 1091 1459 m 6 X s [] 0 sd 1 lw 1097 1470 m 6 X s [] 0 sd
 1 lw 1103 1470 m 5 X s [] 0 sd 1 lw 1108 1482 m 6 X s [] 0 sd 1 lw 1114 1482 m 6 X s [] 0 sd 1 lw 1120 1493 m 6 X s
 [] 0 sd 1 lw 1126 1493 m 6 X s [] 0 sd 1 lw 1132 1504 m 6 X s [] 0 sd 1 lw 1138 1504 m 6 X s [] 0 sd 1 lw 1144 1515 m 6
 X s [] 0 sd 1 lw 1150 1515 m 6 X s [] 0 sd 1 lw 1156 1525 m 6 X s [] 0 sd 1 lw 1162 1525 m 5 X s [] 0 sd 1 lw 1167 1535
 m 6 X s [] 0 sd 1 lw 1173 1535 m 6 X s [] 0 sd 1 lw 1179 1545 m 6 X s [] 0 sd 1 lw 1185 1545 m 6 X s [] 0 sd 1 lw 1191
 1555 m 6 X s [] 0 sd 1 lw 1197 1555 m 6 X s [] 0 sd 1 lw 1203 1564 m 6 X s [] 0 sd 1 lw 1209 1564 m 6 X s [] 0 sd 1 lw
 1215 1574 m 5 X s [] 0 sd 1 lw 1220 1574 m 6 X s [] 0 sd 1 lw 1226 1582 m 6 X s [] 0 sd 1 lw 1232 1582 m 6 X s [] 0 sd
 1 lw 1238 1591 m 6 X s [] 0 sd 1 lw 1244 1591 m 6 X s [] 0 sd 1 lw 1250 1599 m 6 X s [] 0 sd 1 lw 1256 1599 m 6 X s
 [] 0 sd 1 lw 1262 1607 m 6 X s [] 0 sd 1 lw 1268 1607 m 6 X s [] 0 sd 1 lw 1274 1614 m 5 X s [] 0 sd 1 lw 1279 1614 m 6
 X s [] 0 sd 1 lw 1285 1621 m 6 X s [] 0 sd 1 lw 1291 1621 m 6 X s [] 0 sd 1 lw 1297 1628 m 6 X s [] 0 sd 1 lw 1303 1628
 m 6 X s [] 0 sd 1 lw 1309 1634 m 6 X s [] 0 sd 1 lw 1315 1634 m 6 X s [] 0 sd 1 lw 1321 1640 m 6 X s [] 0 sd 1 lw 1327
 1640 m 6 X s [] 0 sd 1 lw 1333 1645 m 5 X s [] 0 sd 1 lw 1338 1645 m 6 X s [] 0 sd 1 lw 1344 1650 m 6 X s [] 0 sd 1 lw
 1350 1650 m 6 X s [] 0 sd 1 lw 1356 1655 m 6 X s [] 0 sd 1 lw 1362 1655 m 6 X s [] 0 sd 1 lw 1368 1659 m 6 X s [] 0 sd
 1 lw 1374 1659 m 6 X s [] 0 sd 1 lw 1380 1662 m 6 X s [] 0 sd 1 lw 1386 1662 m 5 X s [] 0 sd 1 lw 1391 1666 m 6 X s
 [] 0 sd 1 lw 1397 1666 m 6 X s [] 0 sd 1 lw 1403 1668 m 6 X s [] 0 sd 1 lw 1409 1668 m 6 X s [] 0 sd 1 lw 1415 1671 m 6
 X s [] 0 sd 1 lw 1421 1671 m 6 X s [] 0 sd 1 lw 1427 1673 m 6 X s [] 0 sd 1 lw 1433 1673 m 6 X s [] 0 sd 1 lw 1439 1674
 m 6 X s [] 0 sd 1 lw 1445 1674 m 5 X s [] 0 sd 1 lw 1450 1675 m 6 X s [] 0 sd 1 lw 1456 1675 m 6 X s [] 0 sd 1 lw 1462
 1675 m 6 X s [] 0 sd 1 lw 1468 1675 m 6 X s [] 0 sd 1 lw 1474 1675 m 6 X s [] 0 sd 1 lw 1480 1675 m 6 X s [] 0 sd 1 lw
 1486 1675 m 6 X s [] 0 sd 1 lw 1492 1675 m 6 X s [] 0 sd 1 lw 1498 1674 m 5 X s [] 0 sd 1 lw 1503 1674 m 6 X s [] 0 sd
 1 lw 1509 1673 m 6 X s [] 0 sd 1 lw 1515 1673 m 6 X s [] 0 sd 1 lw 1521 1671 m 6 X s [] 0 sd 1 lw 1527 1671 m 6 X s
 [] 0 sd 1 lw 1533 1668 m 6 X s [] 0 sd 1 lw 1539 1668 m 6 X s [] 0 sd 1 lw 1545 1666 m 6 X s [] 0 sd 1 lw 1551 1666 m 6
 X s [] 0 sd 1 lw 1557 1662 m 5 X s [] 0 sd 1 lw 1562 1662 m 6 X s [] 0 sd 1 lw 1568 1659 m 6 X s [] 0 sd 1 lw 1574 1659
 m 6 X s [] 0 sd 1 lw 1580 1655 m 6 X s [] 0 sd 1 lw 1586 1655 m 6 X s [] 0 sd 1 lw 1592 1650 m 6 X s [] 0 sd 1 lw 1598
 1650 m 6 X s [] 0 sd 1 lw 1604 1645 m 6 X s [] 0 sd 1 lw 1610 1645 m 6 X s [] 0 sd 1 lw 1616 1640 m 5 X s [] 0 sd 1 lw
 1621 1640 m 6 X s [] 0 sd 1 lw 1627 1634 m 6 X s [] 0 sd 1 lw 1633 1634 m 6 X s [] 0 sd 1 lw 1639 1628 m 6 X s [] 0 sd
 1 lw 1645 1628 m 6 X s [] 0 sd 1 lw 1651 1621 m 6 X s [] 0 sd 1 lw 1657 1621 m 6 X s [] 0 sd 1 lw 1663 1614 m 6 X s
 [] 0 sd 1 lw 1669 1614 m 5 X s [] 0 sd 1 lw 1674 1607 m 6 X s [] 0 sd 1 lw 1680 1607 m 6 X s [] 0 sd 1 lw 1686 1599 m 6
 X s [] 0 sd 1 lw 1692 1599 m 6 X s [] 0 sd 1 lw 1698 1591 m 6 X s [] 0 sd 1 lw 1704 1591 m 6 X s [] 0 sd 1 lw 1710 1582
 m 6 X s [] 0 sd 1 lw 1716 1582 m 6 X s [] 0 sd 1 lw 1722 1574 m 6 X s [] 0 sd 1 lw 1728 1574 m 5 X s [] 0 sd 1 lw 1733
 1564 m 6 X s [] 0 sd 1 lw 1739 1564 m 6 X s [] 0 sd 1 lw 1745 1555 m 6 X s [] 0 sd 1 lw 1751 1555 m 6 X s [] 0 sd 1 lw
 1757 1545 m 6 X s [] 0 sd 1 lw 1763 1545 m 6 X s [] 0 sd 1 lw 1769 1535 m 6 X s [] 0 sd 1 lw 1775 1535 m 6 X s [] 0 sd
 1 lw 1781 1525 m 6 X s [] 0 sd 1 lw 1787 1525 m 5 X s [] 0 sd 1 lw 1792 1515 m 6 X s [] 0 sd 1 lw 1798 1515 m 6 X s
 [] 0 sd 1 lw 1804 1504 m 6 X s [] 0 sd 1 lw 1810 1504 m 6 X s [] 0 sd 1 lw 1816 1493 m 6 X s [] 0 sd 1 lw 1822 1493 m 6
 X s [] 0 sd 1 lw 1828 1482 m 6 X s [] 0 sd 1 lw 1834 1482 m 6 X s [] 0 sd 1 lw 1840 1470 m 5 X s [] 0 sd 1 lw 1845 1470
 m 6 X s [] 0 sd 1 lw 1851 1459 m 6 X s [] 0 sd 1 lw 1857 1459 m 6 X s [] 0 sd 1 lw 1863 1447 m 6 X s [] 0 sd 1 lw 1869
 1447 m 6 X s [] 0 sd 1 lw 1875 1435 m 6 X s [] 0 sd 1 lw 1881 1435 m 6 X s [] 0 sd 1 lw 1887 1423 m 6 X s [] 0 sd 1 lw
 1893 1423 m 6 X s [] 0 sd 1 lw 1899 1410 m 5 X s [] 0 sd 1 lw 1904 1410 m 6 X s [] 0 sd 1 lw 1910 1398 m 6 X s [] 0 sd
 1 lw 1916 1398 m 6 X s [] 0 sd 1 lw 1922 1386 m 6 X s [] 0 sd 1 lw 1928 1386 m 6 X s [] 0 sd 1 lw 1934 1373 m 6 X s
 [] 0 sd 1 lw 1940 1373 m 6 X s [] 0 sd 1 lw 1946 1360 m 6 X s [] 0 sd 1 lw 1952 1360 m 5 X s [] 0 sd 1 lw 1957 1347 m 6
 X s [] 0 sd 1 lw 1963 1347 m 6 X s [] 0 sd 1 lw 1969 1334 m 6 X s [] 0 sd 1 lw 1975 1334 m 6 X s [] 0 sd 1 lw 1981 1321
 m 6 X s [] 0 sd 1 lw 1987 1321 m 6 X s [] 0 sd 1 lw 1993 1308 m 6 X s [] 0 sd 1 lw 1999 1308 m 6 X s [] 0 sd 1 lw 2005
 1295 m 6 X s [] 0 sd 1 lw 2011 1295 m 5 X s [] 0 sd 1 lw 2016 1282 m 6 X s [] 0 sd 1 lw 2022 1282 m 6 X s [] 0 sd 1 lw
 2028 1269 m 6 X s [] 0 sd 1 lw 2034 1269 m 6 X s [] 0 sd 1 lw 2040 1256 m 6 X s [] 0 sd 1 lw 2046 1256 m 6 X s [] 0 sd
 1 lw 2052 1243 m 6 X s [] 0 sd 1 lw 2058 1243 m 6 X s [] 0 sd 1 lw 2064 1230 m 6 X s [] 0 sd 1 lw 2070 1230 m 5 X s
 [] 0 sd 1 lw 2075 1216 m 6 X s [] 0 sd 1 lw 2081 1216 m 6 X s [] 0 sd 1 lw 2087 1203 m 6 X s [] 0 sd 1 lw 2093 1203 m 6
 X s [] 0 sd 1 lw 2099 1190 m 6 X s [] 0 sd 1 lw 2105 1190 m 6 X s [] 0 sd 1 lw 2111 1177 m 6 X s [] 0 sd 1 lw 2117 1177
 m 6 X s [] 0 sd 1 lw 2123 1164 m 5 X s [] 0 sd 1 lw 2128 1164 m 6 X s [] 0 sd 1 lw 2134 1151 m 6 X s [] 0 sd 1 lw 2140
 1151 m 6 X s [] 0 sd 1 lw 2146 1138 m 6 X s [] 0 sd 1 lw 2152 1138 m 6 X s [] 0 sd 1 lw 2158 1125 m 6 X s [] 0 sd 1 lw
 2164 1125 m 6 X s [] 0 sd 1 lw 2170 1112 m 6 X s [] 0 sd 1 lw 2176 1112 m 6 X s [] 0 sd 1 lw 2182 1100 m 5 X s [] 0 sd
 1 lw 2187 1100 m 6 X s [] 0 sd 1 lw 2193 1087 m 6 X s [] 0 sd 1 lw 2199 1087 m 6 X s [] 0 sd 1 lw 2205 1074 m 6 X s
 [] 0 sd 1 lw 2211 1074 m 6 X s [] 0 sd 1 lw 2217 1062 m 6 X s [] 0 sd 1 lw 2223 1062 m 6 X s [] 0 sd 1 lw 2229 1049 m 6
 X s [] 0 sd 1 lw 2235 1049 m 6 X s [] 0 sd 1 lw 2241 1037 m 5 X s [] 0 sd 1 lw 2246 1037 m 6 X s [] 0 sd 1 lw 2252 1025
 m 6 X s [] 0 sd 1 lw 2258 1025 m 6 X s [] 0 sd 1 lw 2264 1012 m 6 X s [] 0 sd 1 lw 2270 1012 m 6 X s [] 0 sd 1 lw 2276
 1000 m 6 X s [] 0 sd 1 lw 2282 1000 m 6 X s [] 0 sd 1 lw 2288 988 m 6 X s [] 0 sd 1 lw 2294 988 m 5 X s [] 0 sd 1 lw
 2299 977 m 6 X s [] 0 sd 1 lw 2305 977 m 6 X s [] 0 sd 1 lw 2311 965 m 6 X s [] 0 sd 1 lw 2317 965 m 6 X s [] 0 sd 1 lw
 2323 953 m 6 X s [] 0 sd 1 lw 2329 953 m 6 X s [] 0 sd 1 lw 2335 942 m 6 X s [] 0 sd 1 lw 2341 942 m 6 X s [] 0 sd 1 lw
 2347 930 m 6 X s [] 0 sd 1 lw 2353 930 m 5 X s [] 0 sd 1 lw 2358 919 m 6 X s [] 0 sd 1 lw 2364 919 m 6 X s [] 0 sd 1 lw
 2370 908 m 6 X s [] 0 sd 1 lw 2376 908 m 6 X s [] 0 sd 1 lw 2382 897 m 6 X s [] 0 sd 1 lw 2388 897 m 6 X s [] 0 sd 1 lw
 2394 886 m 6 X s [] 0 sd 1 lw 2400 886 m 6 X s [] 0 sd 1 lw 2406 875 m 5 X s [] 0 sd 1 lw 2411 875 m 6 X s [] 0 sd 1 lw
 2417 864 m 6 X s [] 0 sd 1 lw 2423 864 m 6 X s [] 0 sd 1 lw 2429 854 m 6 X s [] 0 sd 1 lw 2435 854 m 6 X s [] 0 sd 1 lw
 2441 843 m 6 X s [] 0 sd 1 lw 2447 843 m 6 X s [] 0 sd 1 lw 2453 833 m 6 X s [] 0 sd 1 lw 2459 833 m 6 X s [] 0 sd 1 lw
 2465 823 m 5 X s [] 0 sd 1 lw 2470 823 m 6 X s [] 0 sd 1 lw 2476 813 m 6 X s [] 0 sd 1 lw 2482 813 m 6 X s [] 0 sd 1 lw
 2488 803 m 6 X s [] 0 sd 1 lw 2494 803 m 6 X s [] 0 sd 1 lw 2500 793 m 6 X s [] 0 sd 1 lw 2506 793 m 6 X s [] 0 sd 1 lw
 2512 783 m 6 X s [] 0 sd 1 lw 2518 783 m 6 X s [] 0 sd 1 lw 2524 774 m 5 X s [] 0 sd 1 lw 2529 774 m 6 X s [] 0 sd 1 lw
 2535 764 m 6 X s [] 0 sd 1 lw 2541 764 m 6 X s [] 0 sd 1 lw 2547 755 m 6 X s [] 0 sd 1 lw 2553 755 m 6 X s [] 0 sd 1 lw
 2559 746 m 6 X s [] 0 sd 1 lw 2565 746 m 6 X s [] 0 sd 1 lw 2571 737 m 6 X s [] 0 sd 1 lw 2577 737 m 5 X s [] 0 sd 1 lw
 2582 728 m 6 X s [] 0 sd 1 lw 2588 728 m 6 X s [] 0 sd 1 lw 2594 719 m 6 X s [] 0 sd 1 lw 2600 719 m 6 X s [] 0 sd 1 lw
 2606 711 m 6 X s [] 0 sd 1 lw 2612 711 m 6 X s [] 0 sd 1 lw 2618 702 m 6 X s [] 0 sd 1 lw 2624 702 m 6 X s [] 0 sd 1 lw
 2630 694 m 6 X s [] 0 sd 1 lw 2636 694 m 5 X s [] 0 sd 1 lw 2641 685 m 6 X s [] 0 sd 1 lw 2647 685 m 6 X s [] 0 sd 1 lw
 [] 0 sd 1 lw 295 194 m 2358 X s s
 /xs 0 def (Pseudorapidity) /Helvetica-Bold 72 stwn  gsave  2653 49
 t 0 r  xs neg 0 t 0 0 m /Helvetica-Bold findfont 72 sf 0 0 m (Pseudorapidity) show  gr  [] 0 sd 1 lw [] 0 sd 1 lw 479
 241 m -47 Y s s [] 0 sd 1 lw [] 0 sd 1 lw 545 218 m -24 Y s s [] 0 sd 1 lw [] 0 sd 1 lw 612 218 m -24 Y s s [] 0 sd 1
 lw [] 0 sd 1 lw 678 218 m -24 Y s s [] 0 sd 1 lw [] 0 sd 1 lw 744 218 m -24 Y s s [] 0 sd 1 lw [] 0 sd 1 lw 811 241 m
 -47 Y s s [] 0 sd 1 lw [] 0 sd 1 lw 877 218 m -24 Y s s [] 0 sd 1 lw [] 0 sd 1 lw 943 218 m -24 Y s s [] 0 sd 1 lw
 [] 0 sd 1 lw 1010 218 m -24 Y s s [] 0 sd 1 lw [] 0 sd 1 lw 1076 218 m -24 Y s s [] 0 sd 1 lw [] 0 sd 1 lw 1142 241 m
 -47 Y s s [] 0 sd 1 lw [] 0 sd 1 lw 1209 218 m -24 Y s s [] 0 sd 1 lw [] 0 sd 1 lw 1275 218 m -24 Y s s [] 0 sd 1 lw
 [] 0 sd 1 lw 1341 218 m -24 Y s s [] 0 sd 1 lw [] 0 sd 1 lw 1408 218 m -24 Y s s [] 0 sd 1 lw [] 0 sd 1 lw 1474 241 m
 -47 Y s s [] 0 sd 1 lw [] 0 sd 1 lw 1540 218 m -24 Y s s [] 0 sd 1 lw [] 0 sd 1 lw 1607 218 m -24 Y s s [] 0 sd 1 lw
 [] 0 sd 1 lw 1673 218 m -24 Y s s [] 0 sd 1 lw [] 0 sd 1 lw 1739 218 m -24 Y s s [] 0 sd 1 lw [] 0 sd 1 lw 1806 241 m
 -47 Y s s [] 0 sd 1 lw [] 0 sd 1 lw 1872 218 m -24 Y s s [] 0 sd 1 lw [] 0 sd 1 lw 1938 218 m -24 Y s s [] 0 sd 1 lw
 [] 0 sd 1 lw 2005 218 m -24 Y s s [] 0 sd 1 lw [] 0 sd 1 lw 2071 218 m -24 Y s s [] 0 sd 1 lw [] 0 sd 1 lw 2137 241 m
 -47 Y s s [] 0 sd 1 lw [] 0 sd 1 lw 2204 218 m -24 Y s s [] 0 sd 1 lw [] 0 sd 1 lw 2270 218 m -24 Y s s [] 0 sd 1 lw
 [] 0 sd 1 lw 2336 218 m -24 Y s s [] 0 sd 1 lw [] 0 sd 1 lw 2403 218 m -24 Y s s [] 0 sd 1 lw [] 0 sd 1 lw 2469 241 m
 -47 Y s s [] 0 sd 1 lw [] 0 sd 1 lw 479 241 m -47 Y s s [] 0 sd 1 lw [] 0 sd 1 lw 413 218 m -24 Y s s [] 0 sd 1 lw
 [] 0 sd 1 lw 346 218 m -24 Y s s [] 0 sd 1 lw [] 0 sd 1 lw 2469 241 m -47 Y s s [] 0 sd 1 lw [] 0 sd 1 lw 2535 218 m
 -24 Y s s [] 0 sd 1 lw [] 0 sd 1 lw 2602 218 m -24 Y s s
 /xs 0 def (-1.5) /Helvetica-Bold 72 stwn  gsave  479 107
 t 0 r xs 2 div neg 0 t 0 0 m /Helvetica-Bold findfont 72 sf 0 0 m (-1.5) show  gr 
 /xs 0 def (-1) /Helvetica-Bold 72 stwn  gsave  811 107
 t 0 r xs 2 div neg 0 t 0 0 m /Helvetica-Bold findfont 72 sf 0 0 m (-1) show  gr 
 /xs 0 def (-0.5) /Helvetica-Bold 72 stwn  gsave  1142 107
 t 0 r xs 2 div neg 0 t 0 0 m /Helvetica-Bold findfont 72 sf 0 0 m (-0.5) show  gr 
 /xs 0 def (0) /Helvetica-Bold 72 stwn  gsave  1474 107
 t 0 r xs 2 div neg 0 t 0 0 m /Helvetica-Bold findfont 72 sf 0 0 m (0) show  gr 
 /xs 0 def (0.5) /Helvetica-Bold 72 stwn  gsave  1806 107
 t 0 r xs 2 div neg 0 t 0 0 m /Helvetica-Bold findfont 72 sf 0 0 m (0.5) show  gr 
 /xs 0 def (1) /Helvetica-Bold 72 stwn  gsave  2137 107
 t 0 r xs 2 div neg 0 t 0 0 m /Helvetica-Bold findfont 72 sf 0 0 m (1) show  gr 
 /xs 0 def (1.5) /Helvetica-Bold 72 stwn  gsave  2469 107
 t 0 r xs 2 div neg 0 t 0 0 m /Helvetica-Bold findfont 72 sf 0 0 m (1.5) show  gr  [] 0 sd 1 lw [] 0 sd 1 lw 295 194 m
 1556 Y s s
 /xs 0 def (Weight \(cm) /Helvetica-Bold 72 stwn (-2\)) /Helvetica-Bold 50 stwn  gsave  136 1750
 t 90 r  xs neg 0 t 0 0 m /Helvetica-Bold findfont 72 sf 0 0 m (Weight \(cm) show  currentpoint pop 0 t 
 /Helvetica-Bold findfont 50 sf 0 36 m (-2\)) show  gr  [] 0 sd 1 lw [] 0 sd 1 lw 366 194 m -71 X s s [] 0 sd 1 lw
 [] 0 sd 1 lw 330 228 m -35 X s s [] 0 sd 1 lw [] 0 sd 1 lw 330 261 m -35 X s s [] 0 sd 1 lw [] 0 sd 1 lw 330 294 m -35
 X s s [] 0 sd 1 lw [] 0 sd 1 lw 330 327 m -35 X s s [] 0 sd 1 lw [] 0 sd 1 lw 366 361 m -71 X s s [] 0 sd 1 lw [] 0 sd
 1 lw 330 394 m -35 X s s [] 0 sd 1 lw [] 0 sd 1 lw 330 427 m -35 X s s [] 0 sd 1 lw [] 0 sd 1 lw 330 461 m -35 X s s
 [] 0 sd 1 lw [] 0 sd 1 lw 330 494 m -35 X s s [] 0 sd 1 lw [] 0 sd 1 lw 366 527 m -71 X s s [] 0 sd 1 lw [] 0 sd 1 lw
 330 560 m -35 X s s [] 0 sd 1 lw [] 0 sd 1 lw 330 594 m -35 X s s [] 0 sd 1 lw [] 0 sd 1 lw 330 627 m -35 X s s [] 0 sd
 1 lw [] 0 sd 1 lw 330 660 m -35 X s s [] 0 sd 1 lw [] 0 sd 1 lw 366 693 m -71 X s s [] 0 sd 1 lw [] 0 sd 1 lw 330 727 m
 -35 X s s [] 0 sd 1 lw [] 0 sd 1 lw 330 760 m -35 X s s [] 0 sd 1 lw [] 0 sd 1 lw 330 793 m -35 X s s [] 0 sd 1 lw
 [] 0 sd 1 lw 330 827 m -35 X s s [] 0 sd 1 lw [] 0 sd 1 lw 366 860 m -71 X s s [] 0 sd 1 lw [] 0 sd 1 lw 330 893 m -35
 X s s [] 0 sd 1 lw [] 0 sd 1 lw 330 926 m -35 X s s [] 0 sd 1 lw [] 0 sd 1 lw 330 960 m -35 X s s [] 0 sd 1 lw [] 0 sd
 1 lw 330 993 m -35 X s s [] 0 sd 1 lw [] 0 sd 1 lw 366 1026 m -71 X s s [] 0 sd 1 lw [] 0 sd 1 lw 330 1059 m -35 X s s
 [] 0 sd 1 lw [] 0 sd 1 lw 330 1093 m -35 X s s [] 0 sd 1 lw [] 0 sd 1 lw 330 1126 m -35 X s s [] 0 sd 1 lw [] 0 sd 1 lw
 330 1159 m -35 X s s [] 0 sd 1 lw [] 0 sd 1 lw 366 1193 m -71 X s s [] 0 sd 1 lw [] 0 sd 1 lw 330 1226 m -35 X s s
 [] 0 sd 1 lw [] 0 sd 1 lw 330 1259 m -35 X s s [] 0 sd 1 lw [] 0 sd 1 lw 330 1292 m -35 X s s [] 0 sd 1 lw [] 0 sd 1 lw
 330 1326 m -35 X s s [] 0 sd 1 lw [] 0 sd 1 lw 366 1359 m -71 X s s [] 0 sd 1 lw [] 0 sd 1 lw 330 1392 m -35 X s s
 [] 0 sd 1 lw [] 0 sd 1 lw 330 1425 m -35 X s s [] 0 sd 1 lw [] 0 sd 1 lw 330 1459 m -35 X s s [] 0 sd 1 lw [] 0 sd 1 lw
 330 1492 m -35 X s s [] 0 sd 1 lw [] 0 sd 1 lw 366 1525 m -71 X s s [] 0 sd 1 lw [] 0 sd 1 lw 330 1559 m -35 X s s
 [] 0 sd 1 lw [] 0 sd 1 lw 330 1592 m -35 X s s [] 0 sd 1 lw [] 0 sd 1 lw 330 1625 m -35 X s s [] 0 sd 1 lw [] 0 sd 1 lw
 330 1658 m -35 X s s [] 0 sd 1 lw [] 0 sd 1 lw 366 1692 m -71 X s s [] 0 sd 1 lw [] 0 sd 1 lw 366 1692 m -71 X s s
 [] 0 sd 1 lw [] 0 sd 1 lw 330 1725 m -35 X s s
 /xs 0 def (0) /Helvetica-Bold 72 stwn  gsave  280 174
 t 0 r  xs neg 0 t 0 0 m /Helvetica-Bold findfont 72 sf 0 0 m (0) show  gr 
 /xs 0 def (5) /Helvetica-Bold 72 stwn  gsave  280 340
 t 0 r  xs neg 0 t 0 0 m /Helvetica-Bold findfont 72 sf 0 0 m (5) show  gr 
 /xs 0 def (10) /Helvetica-Bold 72 stwn  gsave  280 506
 t 0 r  xs neg 0 t 0 0 m /Helvetica-Bold findfont 72 sf 0 0 m (10) show  gr 
 /xs 0 def (15) /Helvetica-Bold 72 stwn  gsave  280 673
 t 0 r  xs neg 0 t 0 0 m /Helvetica-Bold findfont 72 sf 0 0 m (15) show  gr 
 /xs 0 def (20) /Helvetica-Bold 72 stwn  gsave  280 839
 t 0 r  xs neg 0 t 0 0 m /Helvetica-Bold findfont 72 sf 0 0 m (20) show  gr 
 /xs 0 def (25) /Helvetica-Bold 72 stwn  gsave  280 1005
 t 0 r  xs neg 0 t 0 0 m /Helvetica-Bold findfont 72 sf 0 0 m (25) show  gr 
 /xs 0 def (30) /Helvetica-Bold 72 stwn  gsave  280 1172
 t 0 r  xs neg 0 t 0 0 m /Helvetica-Bold findfont 72 sf 0 0 m (30) show  gr 
 /xs 0 def (35) /Helvetica-Bold 72 stwn  gsave  280 1338
 t 0 r  xs neg 0 t 0 0 m /Helvetica-Bold findfont 72 sf 0 0 m (35) show  gr 
 /xs 0 def (40) /Helvetica-Bold 72 stwn  gsave  280 1505
 t 0 r  xs neg 0 t 0 0 m /Helvetica-Bold findfont 72 sf 0 0 m (40) show  gr 
 /xs 0 def (45) /Helvetica-Bold 72 stwn  gsave  280 1671
 t 0 r  xs neg 0 t 0 0 m /Helvetica-Bold findfont 72 sf 0 0 m (45) show  gr  [] 0 sd 1 lw 0.95 0.95 0.95 c 1253 97 29
 1837 bf black [] 0 sd 1 lw 49 1837 m -13 Y 1246 X 91 Y -13 X -78 Y f [] 0 sd 1 lw 29 1837 m 97 Y s [] 0 sd 1 lw 29 1934
 m 1253 X s [] 0 sd 1 lw 1282 1934 m -97 Y s [] 0 sd 1 lw 1282 1837 m -1253 X s
 /xs 0 def (Weight for Layer 2 by Eta) /Helvetica-Bold 76 stwn  gsave  656 1864
 t 0 r xs 2 div neg 0 t 0 0 m /Helvetica-Bold findfont 76 sf 0 0 m (Weight for Layer 2 by Eta) show  gr  [] 0 sd 1 lw
 0.95 0.95 0.95 c 590 311 2299 1594 bf black [] 0 sd 1 lw 2319 1594 m -13 Y 583 X 305 Y -13 X -292 Y f [] 0 sd 1 lw 2299
 1594 m 311 Y s [] 0 sd 1 lw 2299 1905 m 590 X s [] 0 sd 1 lw 2889 1905 m -311 Y s [] 0 sd 1 lw 2889 1594 m -590 X s
 gsave  2329 1853
 t 0 r 0 0 m /Helvetica-Bold findfont 48 sf 0 0 m (hEtaEtapdenWeight_Eta2) show  gr 
 gsave  2329 1775
 t 0 r 0 0 m /Helvetica-Bold findfont 48 sf 0 0 m (Nent = 6190  \040) show  gr 
 gsave  2329 1697
 t 0 r 0 0 m /Helvetica-Bold findfont 48 sf 0 0 m (Mean  = -2.755e-17) show  gr 
 gsave  2329 1619
 t 0 r 0 0 m /Helvetica-Bold findfont 48 sf 0 0 m (RMS   = 0.8739) show  gr  1 1 0 c gr 
showpage gr
 gr 
%%Trailer
%%Pages:  1
%%EOF
