%!PS-Adobe-2.0
%%Title: ITShitDensity_1_Eta_Etap.ps (Landscape A 4)
%%Pages: (atend)
%%Creator: ROOT Version 2.22/09
%%CreationDate:Sat Sep 18 07:10:18 1999
%%EndComments
%%BeginProlog
/s {stroke} def /l {lineto} def /m {moveto} def /t {translate} def
/sw {stringwidth} def /r {rotate} def /rl {roll}  def /R {repeat} def
/d {rlineto} def /rm {rmoveto} def /gr {grestore} def /f {eofill} def
/c {setrgbcolor} def /lw {setlinewidth} def /sd {setdash} def
/cl {closepath} def /sf {scalefont setfont} def /black {0 setgray} def
/box {m dup 0 exch d exch 0 d 0 exch neg d cl} def
/NC{systemdict begin initclip end}def/C{NC box clip newpath}def
/bl {box s} def /bf {box f} def /Y { 0 exch d} def /X { 0 d} def 
/mp {newpath /y exch def /x exch def} def
/side {[w .77 mul w .23 mul] .385 w mul sd w 0 l currentpoint t -144 r} def
/mr {mp x y w2 0 360 arc} def /m24 {mr s} def /m20 {mr f} def
/mb {mp x y w2 add m w2 neg 0 d 0 w neg d w 0 d 0 w d cl} def
/mt {mp x y w2 add m w2 neg w neg d w 0 d cl} def
/m21 {mb f} def /m25 {mb s} def /m22 {mt f} def /m26{mt s} def
/m23 {mp x y w2 sub m w2 w d w neg 0 d cl f} def
/m27 {mp x y w2 add m w3 neg w2 neg d w3 w2 neg d w3 w2 d cl s} def
/m28 {mp x w2 sub y w2 sub w3 add m w3 0 d  0 w3 neg d w3 0 d 0 w3 d w3 0 d  0 w3 d w3 neg 0 d 0 w3 d w3 neg 0 d
 0 w3 neg d w3 neg 0 d cl s } def
/m29 {mp gsave x w2 sub y w2 add w3 sub m currentpoint t
 4 {side} repeat cl fill gr} def
/m30 {mp gsave x w2 sub y w2 add w3 sub m currentpoint t
 5 {side} repeat s gr} def
/m31 {mp x y w2 sub m 0 w d x w2 sub y m w 0 d x w2 sub y w2 add m w w neg d x w2 sub y w2
 sub m w w d s} def
/m2 {mp x y w2 sub m 0 w d x w2 sub y m w 0 d s} def
/m5 {mp x w2 sub y w2 sub m w w d x w2 sub y w2 add m w w neg d s} def
/DP {/PT exch def gsave 47.2 47.2 scale PT 1  eq { 16 16 1 [ 16 0 0 16 neg 0 16
] { < AA AA 55 55 AA AA 55 55 AA AA 55 55 AA AA 55 55 AA AA 55 55 AA AA 55 55
AA AA 55 55 AA AA 55 55 > } image } if PT 2 eq { 16 16 1 [ 16 0 0 16 neg 0 16
] { < BB BB EE EE BB BB EE EE BB BB EE EE BB BB EE EE BB BB EE EE BB BB EE EE
BB BB EE EE BB BB EE EE > } image } if PT 3 eq { 16 16 1 [ 16 0 0 16 neg 0 16
] { < FF FF BB BB FF FF EE EE FF FF BB BB FF FF EE EE FF FF BB BB FF FF EE EE
FF FF BB BB FF FF EE EE > } image } if PT 4 eq { 16 16 1 [ 16 0 0 16 neg 0 16
] { < DF DF BF BF 7F 7F FE FE FD FD FB FB F7 F7 EF EF DF DF BF BF 7F 7F FE FE
FD FD FB FB F7 F7 EF EF > } image } if PT 5 eq { 16 16 1 [ 16 0 0 16 neg 0 16
] { < 7F 7F BF B F DF DF EF EF F7 F7 FB FB FD FD FE FE 7F 7F BF BF DF DF EF
EF F7 F7 FB FB FD FD FE FE > } image } if PT 6 eq { 16 16 1 [ 16 0 0 16 neg 0
16 ] { < BB BB BB BB BB BB BB BB BB BB BB BB BB BB BB BB BB BB BB BB BB BB BB
BB BB BB BB BB BB BB BB BB > } image } if PT 7 eq { 16 16 1 [ 16 0 0 16 neg 0
16 ] { < FF FF FF FF FF FF 00 00 FF FF FF FF FF FF 00 00 FF FF FF FF FF FF 00
00 FF FF FF FF FF FF 00 00 > } image } if PT 8 eq { 16 16 1 [ 16 0 0 16 neg 0
16 ] { < EE EE 47 47 83 83 C5 C5 EE EE 5C 5C 38 38 74 74 EE EE 47 47 83 83 C5
C5 EE EE 5C 5C 38 38 74 74 > } image } if PT 9 eq { 16 16 1 [ 16 0 0 16 neg 0
16 ] { < EF EF EF EF D7 D7 38 38 FE FE FE FE 7D 7D 83 83 EF EF EF EF D7 D7 38
38  FE FE FE FE 7D 7D 83 83 > } image } if PT 10 eq { 16 16 1 [ 16 0 0 16 neg
0 16 ] { <  EF EF EF EF EF EF 00 00 FE FE FE FE FE FE 00 00 EF EF EF EF EF EF
00 00 FE FE FE FE FE FE 00 00 > } image } if PT 11 eq { 16 16 1 [ 16 0 0 16
neg 0 16 ] { < F7 F7 B6 B6 D5 D5 E3 E3 D5 D5 B6 B6 F7 F7 FF FF 7F 7F 6B 6B 5D
5D 3E 3E 5D 5D 6B 6B 7F 7F FF FF > } image } if PT 12 eq { 16 16 1 [ 16 0 0
16 neg 0 16 ] { < E3 E3 DD DD BE BE BE BE BE BE DD DD E3 E3 FF FF 3E 3E DD DD
EB EB EB EB EB EB DD DD 3E 3E FF FF > } image } if PT 13 eq { 16 16 1 [ 16 0
0 16 neg 0 16 ] { <  FE FE 7D 7D BB BB D7 D7 EF EF D7 D7 BB BB 7D 7D FE FE 7D
7D BB BB D7 D7 EF EF D7 D7 BB BB 7D 7D > } image } if PT 14 eq { 16 16 1 [ 16
0 0 16 neg 0 16 ] { < 00 00 EE EF EE EF EE EF 0E E0 EE EE EE EE EE EE 00 EE
FE EE FE EE FE EE 00 00 FE EF FE EF FE EF > } image } if PT 15 eq { 16 16 1 [
16 0 0 16 neg 0 16 ] { < DD DD AA AA DD DD FF FF 77 77 AA AA 77 77 FF FF DD
DD AA AA DD DD FF FF 77 77 AA AA 77 77 FF FF > } image } if PT 16 eq { 16 16
1 [ 16 0 0 16 neg 0 16 ] { <  F1 F1 EE EE 1F 1F FF FF F1 F1 EE EE 1F 1F FF FF
F1 F1 EE EE 1F 1F FF FF F1 F1 EE EE 1F 1F FF FF > } image } if PT 17 eq { 16
16 1 [ 16 0 0 16 neg 0 16 ] { <  EE EE DD DD BB BB FF FF EE EE DD DD BB BB FF
 FF EE EE DD DD BB BB FF FF EE EE DD DD BB BB FF FF > } image } if PT 18 eq {
16 16 1 [ 16 0 0 16 neg 0 16 ] { <  BB BB DD DD EE EE FF FF BB BB DD DD EE EE
FF FF BB BB DD DD EE EE FF FF BB BB DD DD EE EE FF FF > } image } if PT 19 eq
{ 16 16 1 [ 16 0 0 16 neg 0 16 ] { < 1F FC 67 F3 7B EF BD DE BD DE DE BD E6
B3 F8 0F E6 B3 DE BD BD DE BD DE 7B EF 67 F3 1F FC 7F FF > } image } if PT
20 eq { 16 16 1 [ 16 0 0 16 neg 0 16 ] { < DD DD EE EE EE EE EE EE DD DD BB
BB BB BB BB BB DD DD EE EE EE EE EE EE DD DD BB BB BB BB BB BB > } image }
if PT 21 eq { 16 16 1 [ 16 0 0 16 neg 0 16 ] { < 0E 0E EF EF EF EF EF EF E0
E0 FE FE FE FE FE FE 0E 0E EF EF EF EF EF EF E0 E0 FE FE FE FE FE FE > }
image }  if PT 22 eq { 16 16 1 [ 16 0 0 16 neg 0 16 ] { < 70 70 F7 F7 F7 F7 F7
F7 07 07 7F 7F 7F 7F 7F 7F 70 70 F7 F7 F7 F7 F7 F7 07 07 7F 7F 7F 7F 7F 7F >
} image } if PT 23 eq  { 16 16 1 [ 16 0 0 16 neg 0 16 ] { < AA AA 55 55 A9 A9
D1 D1 E1 E1 D1 D1 A9 A9 55 55 AA AA 55 55 A9 A9 D1 D1 E1 E1 D1 D1 A9 A9 55 55
> } image } if PT 24 eq { 16 16 1 [ 16 0 0 16 neg 0 16 ] { < FF FE FF FC EA
A8 D5 54 EA A8 D5 54 E8 28 D4 54 E8 E8 D4 D4 E8 EA 54 D5 A8 EA 54 D5 00 C0 00
80 > } image } if PT 25 eq {  16 16 1 [ 16 0 0 16 neg 0 16 ] { < FF FE FF FC
FF F8 FF F0 F0 00 F0 00 F0 20 F0 60 F0 E0 F1 E0 F3 E0 F0 00 E0 00 C0 00 80 00
00 00 > } image } if gr } def /FA { /PT exch def gsave clip 0 0 translate 1 1
74 { 1 sub 47.2 mul /Xcurr exch def 1 1 74 { 1 sub 47.2 mul /Ycurr exch def
gsave Xcurr Ycurr translate PT DP gr } for } for gr newpath } def
/reencdict 24 dict def /ReEncode {reencdict begin /nco&na exch def
/nfnam exch def /basefontname exch def /basefontdict basefontname findfont def
/newfont basefontdict maxlength dict def basefontdict {exch dup /FID ne
{dup /Encoding eq {exch dup length array copy newfont 3 1 roll put} {exch 
newfont 3 1 roll put} ifelse} {pop pop} ifelse } forall newfont
/FontName nfnam put nco&na aload pop nco&na length 2 idiv {newfont
/Encoding get 3 1 roll put} repeat nfnam newfont definefont pop end } def
/accvec [ 176 /agrave 181 /Agrave 190 /acircumflex 192 /Acircumflex
201 /adieresis 204 /Adieresis 209 /ccedilla 210 /Ccedilla 211 /eacute
212 /Eacute 213 /egrave 214 /Egrave 215 /ecircumflex 216 /Ecircumflex
217 /edieresis 218 /Edieresis 219 /icircumflex 220 /Icircumflex
221 /idieresis 222 /Idieresis 223 /ntilde 224 /Ntilde 226 /ocircumflex
228 /Ocircumflex 229 /odieresis 230 /Odieresis 231 /ucircumflex 236 /Ucircumflex
237 /udieresis 238 /Udieresis 239 /aring 242 /Aring 243 /ydieresis
244 /Ydieresis 246 /aacute 247 /Aacute 252 /ugrave 253 /Ugrave] def
/Times-Roman /Times-Roman accvec ReEncode
/Times-Italic /Times-Italic accvec ReEncode
/Times-Bold /Times-Bold accvec ReEncode
/Times-BoldItalic /Times-BoldItalic accvec ReEncode
/Helvetica /Helvetica accvec ReEncode
/Helvetica-Oblique /Helvetica-Oblique accvec ReEncode
/Helvetica-Bold /Helvetica-Bold accvec ReEncode
/Helvetica-BoldOblique /Helvetica-BoldOblique  accvec ReEncode
/Courier /Courier accvec ReEncode
/Courier-Oblique /Courier-Oblique accvec ReEncode
/Courier-Bold /Courier-Bold accvec ReEncode
/Courier-BoldOblique /Courier-BoldOblique accvec ReEncode
/oshow {gsave [] 0 sd true charpath stroke gr} def
/stwn { /fs exch def /fn exch def /text exch def fn findfont fs sf
 text sw pop xs add /xs exch def} def
/stwb { /fs exch def /fn exch def /nbas exch def /textf exch def
textf length /tlen exch def nbas tlen gt {/nbas tlendef} if
fn findfont fs sf textf dup length nbas sub nbas getinterval sw
pop neg xs add /xs exch def} def
/accspe [ 65 /plusminus  66 /bar  67 /existential  68 /universal 
69 /exclam  70 /numbersign 71 /greater  72 /question  73 /integral 
74 /colon  75 /semicolon  76 /less  77 /bracketleft  78 /bracketright
79 /greaterequal 80 /braceleft 81 /braceright 82 /radical
83 /spade 84 /heart 85 /diamond 86 /club 87 /lessequal
88 /multiply 89 /percent 90 /infinity 48 /circlemultiply 49 /circleplus
50 /emptyset  51 /lozenge 52 /bullet 53 /arrowright 54 /arrowup
55 /arrowleft 56 /arrowdown 57 /arrowboth 48 /degree 44 /comma 43 /plus 45 /angle 42 /angleleft 47 /divide 61 /notequal
 40 /equivalence 41 /second 97 /approxequal 98 /congruent 99 /perpendicular 100 /partialdiff 101 /florin
 102 /intersection 103 /union 104 /propersuperset 105 /reflexsuperset 106 /notsubset 107 /propersubset 108 /reflexsubset
 109 /element 110 /notelement 111 /gradient 112 /logicaland 113 /logicalor 114 /arrowdblboth 115 /arrowdblleft
 116 /arrowdblup 117 /arrowdblright 118 /arrowdbldown 119 /ampersand 120 /omega1 121 /similar 122 /aleph ] def
/Symbol /Special accspe ReEncode
/Zone {/iy exch def /ix exch def  ix 1 sub  3144 mul  1 iy sub  2224
 mul t} def
%%EndProlog
 gsave  90 r 0 -594 t  28 20 t .25 .25 scale  gsave 
%%Page: number 1
 black [] 0 sd 1 lw 0.95 0.95 0.95 c 2948 1944 0 0 bf 0.8 0.8 0.8 c 0 0 m 2 2 d 1940 Y 2944 X 2 2 d -2948 X -1944 Y f
 0.3 0.3 0.3 c 0 0 m 2 2 d 2944 X 1940 Y 2 2 d -1944 Y -2948 X f black [] 0 sd 1 lw 0.95 0.95 0.95 c 2358 1556 295 194
 bf 0.8 0.8 0.8 c 295 194 m 1 1 d 1554 Y 2356 X 1 1 d -2358 X -1556 Y f 0.3 0.3 0.3 c 295 194 m 1 1 d 2356 X 1554 Y 1 1
 d -1556 Y -2358 X f [] 0 sd 1 lw black 295 194 m 2358 X s [] 0 sd 1 lw 2653 194 m 1556 Y s [] 0 sd 1 lw 2653 1750 m
 -2358 X s [] 0 sd 1 lw 295 1750 m -1556 Y s 1 1 1 c 0.6 0.6 0.6 c 12 77 672 428 bf 0.3 0.3 0.3 c 12 77 1108 428 bf 12
 77 1167 428 bf 0.8 0.78 0.67 c 12 77 1427 428 bf 12 77 1450 428 bf 0.754 0.715 0.676 c 12 77 1533 428 bf 0.8 0.8 0.8 c
 11 78 425 505 bf 12 78 495 505 bf 0.7 0.7 0.7 c 12 78 507 505 bf 12 78 613 505 bf 0.754 0.715 0.676 c 12 78 743 505 bf
 0.6 0.6 0.6 c 12 78 766 505 bf 0.4 0.4 0.4 c 12 78 920 505 bf 0.5 0.5 0.5 c 11 78 932 505 bf 12 78 955 505 bf 12 78 967
 505 bf 0.7 0.65 0.59 c 12 78 1061 505 bf 0.3 0.3 0.3 c 12 78 1108 505 bf 12 78 1132 505 bf 0.754 0.715 0.676 c 12 78
 1285 505 bf 0.8 0.78 0.67 c 12 78 1344 505 bf 0.69 0.81 0.78 c 12 78 1368 505 bf 0.8 0.78 0.67 c 12 78 1545 505 bf 12
 78 1604 505 bf 11 78 1663 505 bf 12 78 1686 505 bf 11 78 1722 505 bf 0.754 0.715 0.676 c 12 78 1733 505 bf 0.3 0.3 0.3
 c 11 78 1840 505 bf 12 78 1887 505 bf 12 78 1922 505 bf 0.5 0.5 0.5 c 11 78 2064 505 bf 12 78 2087 505 bf 0.6 0.6 0.6 c
 12 78 2099 505 bf 0.8 0.78 0.67 c 12 78 2146 505 bf 0.7 0.7 0.7 c 12 78 2205 505 bf 0.6 0.6 0.6 c 12 78 2217 505 bf 0.7
 0.7 0.7 c 11 78 2288 505 bf 0.8 0.8 0.8 c 11 78 2571 505 bf 12 78 401 583 bf 11 78 531 583 bf 0.7 0.7 0.7 c 12 78 613
 583 bf 12 78 672 583 bf 12 78 684 583 bf 0.6 0.6 0.6 c 11 78 708 583 bf 12 78 731 583 bf 12 78 766 583 bf 0.8 0.78 0.67
 c 12 78 849 583 bf 0.5 0.5 0.5 c 12 78 943 583 bf 0.3 0.3 0.3 c 12 78 1061 583 bf 0.754 0.715 0.676 c 12 78 1144 583 bf
 0.3 0.3 0.3 c 11 78 1156 583 bf 0.8 0.78 0.67 c 12 78 1191 583 bf 0.53 0.4 0.34 c 11 78 1274 583 bf 0.754 0.715 0.676 c
 11 78 1333 583 bf 0.35 0.83 0.33 c 11 78 1380 583 bf 0.8 0.78 0.67 c 12 78 1486 583 bf 12 78 1521 583 bf 0.754 0.715
 0.676 c 12 78 1651 583 bf 0.53 0.4 0.34 c 11 78 1663 583 bf 0.8 0.78 0.67 c 12 78 1686 583 bf 0.754 0.715 0.676 c 11 78
 1722 583 bf 12 78 1769 583 bf 12 78 1816 583 bf 12 78 1828 583 bf 0.4 0.4 0.4 c 12 78 1993 583 bf 0.5 0.5 0.5 c 11 78
 2123 583 bf 12 78 2134 583 bf 0.6 0.6 0.6 c 11 78 2241 583 bf 0.754 0.715 0.676 c 12 78 2252 583 bf 0.7 0.7 0.7 c 11 78
 2347 583 bf 12 78 2370 583 bf 12 78 2382 583 bf 0.6 0.6 0.6 c 12 78 2512 583 bf 12 78 2547 583 bf 0.8 0.8 0.8 c 12 78
 389 661 bf 0.5 0.5 0.5 c 11 78 472 661 bf 0.7 0.7 0.7 c 12 78 613 661 bf 12 78 660 661 bf 12 78 684 661 bf 0.6 0.6 0.6
 c 12 78 731 661 bf 11 78 755 661 bf 12 78 802 661 bf 0.5 0.5 0.5 c 12 78 825 661 bf 12 78 920 661 bf 0.4 0.4 0.4 c 12
 78 943 661 bf 0.73 0.71 0.64 c 12 78 1014 661 bf 0.68 0.6 0.55 c 12 78 1073 661 bf 12 78 1085 661 bf 0.61 0.56 0.51 c
 12 78 1144 661 bf 0.3 0.3 0.3 c 12 78 1167 661 bf 0.754 0.715 0.676 c 12 78 1203 661 bf 0.8 0.78 0.67 c 12 78 1403 661
 bf 12 78 1427 661 bf 12 78 1486 661 bf 12 78 1533 661 bf 0.754 0.715 0.676 c 12 78 1639 661 bf 0.8 0.78 0.67 c 12 78
 1674 661 bf 12 78 1733 661 bf 0.754 0.715 0.676 c 12 78 1745 661 bf 0.3 0.3 0.3 c 12 78 1757 661 bf 12 78 1769 661 bf
 0.754 0.715 0.676 c 11 78 1781 661 bf 12 78 1851 661 bf 0.51 0.62 0.55 c 12 78 1875 661 bf 0.35 0.83 0.33 c 11 78 1899
 661 bf 0.3 0.3 0.3 c 11 78 1946 661 bf 12 78 1957 661 bf 0.4 0.4 0.4 c 12 78 1993 661 bf 0.6 0.6 0.6 c 12 78 2075 661
 bf 0.5 0.5 0.5 c 12 78 2087 661 bf 0.6 0.6 0.6 c 11 78 2182 661 bf 12 78 2193 661 bf 12 78 2217 661 bf 0.7 0.7 0.7 c 12
 78 2299 661 bf 12 78 2323 661 bf 12 78 2429 661 bf 0.8 0.8 0.8 c 12 78 2535 661 bf 12 78 2559 661 bf 12 77 483 739 bf
 0.7 0.7 0.7 c 12 77 495 739 bf 0.5 0.5 0.5 c 12 77 554 739 bf 0.7 0.7 0.7 c 12 77 566 739 bf 0.4 0.4 0.4 c 12 77 578
 739 bf 11 77 590 739 bf 12 77 613 739 bf 0.6 0.6 0.6 c 12 77 719 739 bf 12 77 778 739 bf 0.5 0.5 0.5 c 12 77 802 739 bf
 12 77 825 739 bf 0.8 0.78 0.67 c 12 77 837 739 bf 0.5 0.5 0.5 c 12 77 849 739 bf 0.4 0.4 0.4 c 12 77 884 739 bf 11 77
 932 739 bf 12 77 967 739 bf 12 77 1014 739 bf 12 77 1026 739 bf 0.3 0.3 0.3 c 11 77 1038 739 bf 12 77 1061 739 bf 12 77
 1085 739 bf 11 77 1156 739 bf 12 77 1179 739 bf 0.61 0.56 0.51 c 12 77 1191 739 bf 0.53 0.4 0.34 c 12 77 1203 739 bf 11
 77 1215 739 bf 0.8 0.78 0.67 c 12 77 1262 739 bf 12 77 1285 739 bf 0.754 0.715 0.676 c 12 77 1297 739 bf 0.8 0.78 0.67
 c 12 77 1321 739 bf 0.53 0.4 0.34 c 11 77 1333 739 bf 0.8 0.78 0.67 c 12 77 1391 739 bf 12 77 1403 739 bf 11 77 1439
 739 bf 0.52 0.76 0.64 c 12 77 1486 739 bf 0.8 0.78 0.67 c 12 77 1580 739 bf 12 77 1651 739 bf 12 77 1686 739 bf 0.61
 0.56 0.51 c 12 77 1769 739 bf 0.3 0.3 0.3 c 12 77 1792 739 bf 12 77 1863 739 bf 0.4 0.4 0.4 c 12 77 1910 739 bf 0.3 0.3
 0.3 c 12 77 1934 739 bf 0.5 0.5 0.5 c 12 77 2075 739 bf 0.6 0.6 0.6 c 12 77 2205 739 bf 11 77 2288 739 bf 0.7 0.7 0.7 c
 12 77 2323 739 bf 0.4 0.4 0.4 c 12 77 2370 739 bf 0.7 0.7 0.7 c 12 77 2382 739 bf 11 77 2406 739 bf 0.8 0.8 0.8 c 12 77
 2441 739 bf 12 77 2500 739 bf 0.5 0.5 0.5 c 11 78 472 816 bf 12 78 495 816 bf 0.8 0.8 0.8 c 12 78 507 816 bf 0.4 0.4
 0.4 c 12 78 542 816 bf 0.7 0.7 0.7 c 12 78 554 816 bf 12 78 566 816 bf 12 78 578 816 bf 11 78 590 816 bf 12 78 637 816
 bf 0.6 0.6 0.6 c 11 78 649 816 bf 0.3 0.3 0.3 c 12 78 672 816 bf 0.7 0.7 0.7 c 11 78 708 816 bf 0.5 0.5 0.5 c 12 78 825
 816 bf 0.6 0.6 0.6 c 12 78 861 816 bf 0.5 0.5 0.5 c 11 78 873 816 bf 12 78 920 816 bf 0.52 0.76 0.64 c 12 78 943 816 bf
 0.4 0.4 0.4 c 12 78 967 816 bf 0.7 0.65 0.59 c 12 78 1014 816 bf 0.3 0.3 0.3 c 12 78 1049 816 bf 0.72 0.64 0.61 c 12 78
 1073 816 bf 0.754 0.715 0.676 c 12 78 1132 816 bf 0.43 0.48 0.52 c 12 78 1203 816 bf 0.8 0.78 0.67 c 11 78 1215 816 bf
 12 78 1250 816 bf 0.52 0.76 0.64 c 12 78 1262 816 bf 0.754 0.715 0.676 c 12 78 1285 816 bf 0.8 0.78 0.67 c 12 78 1368
 816 bf 12 78 1415 816 bf 12 78 1427 816 bf 11 78 1498 816 bf 12 78 1521 816 bf 0.35 0.83 0.33 c 12 78 1533 816 bf 0.754
 0.715 0.676 c 12 78 1568 816 bf 12 78 1592 816 bf 0.67 0.65 0.75 c 11 78 1616 816 bf 0.8 0.78 0.67 c 12 78 1639 816 bf
 0.52 0.76 0.64 c 11 78 1663 816 bf 0.41 0.51 0.59 c 12 78 1710 816 bf 0.72 0.64 0.61 c 11 78 1840 816 bf 0.4 0.4 0.4 c
 12 78 1851 816 bf 0.72 0.64 0.61 c 12 78 1875 816 bf 0.3 0.3 0.3 c 12 78 1887 816 bf 0.4 0.4 0.4 c 11 78 1899 816 bf 11
 78 1946 816 bf 12 78 1957 816 bf 0.76 0.75 0.66 c 12 78 2028 816 bf 0.5 0.5 0.5 c 12 78 2075 816 bf 0.8 0.78 0.67 c 12
 78 2099 816 bf 0.5 0.5 0.5 c 12 78 2146 816 bf 0.6 0.6 0.6 c 12 78 2170 816 bf 12 78 2205 816 bf 0.3 0.3 0.3 c 12 78
 2217 816 bf 0.8 0.8 0.8 c 12 78 2417 816 bf 12 78 2500 816 bf 12 78 389 894 bf 12 78 436 894 bf 12 78 448 894 bf 12 78
 460 894 bf 0.7 0.7 0.7 c 12 78 554 894 bf 12 78 566 894 bf 0.4 0.4 0.4 c 12 78 578 894 bf 0.3 0.3 0.3 c 12 78 601 894
 bf 0.7 0.7 0.7 c 12 78 637 894 bf 11 78 649 894 bf 0.754 0.715 0.676 c 12 78 672 894 bf 0.7 0.7 0.7 c 12 78 696 894 bf
 0.6 0.6 0.6 c 12 78 731 894 bf 11 78 755 894 bf 12 78 790 894 bf 0.5 0.5 0.5 c 12 78 837 894 bf 11 78 873 894 bf 12 78
 884 894 bf 12 78 908 894 bf 0.3 0.3 0.3 c 11 78 991 894 bf 0.4 0.4 0.4 c 11 78 1038 894 bf 0.754 0.715 0.676 c 12 78
 1120 894 bf 0.48 0.56 0.6 c 12 78 1132 894 bf 0.61 0.56 0.51 c 12 78 1144 894 bf 0.754 0.715 0.676 c 12 78 1179 894 bf
 12 78 1191 894 bf 11 78 1274 894 bf 0.8 0.78 0.67 c 12 78 1285 894 bf 0.52 0.76 0.64 c 11 78 1380 894 bf 12 78 1415 894
 bf 0.754 0.715 0.676 c 12 78 1450 894 bf 0.8 0.78 0.67 c 12 78 1474 894 bf 12 78 1509 894 bf 12 78 1545 894 bf 0.754
 0.715 0.676 c 12 78 1592 894 bf 0.8 0.78 0.67 c 12 78 1651 894 bf 12 78 1686 894 bf 0.754 0.715 0.676 c 12 78 1733 894
 bf 0.53 0.4 0.34 c 12 78 1757 894 bf 0.754 0.715 0.676 c 12 78 1851 894 bf 0.3 0.3 0.3 c 12 78 1887 894 bf 0.4 0.4 0.4
 c 12 78 1957 894 bf 0.5 0.5 0.5 c 11 78 2064 894 bf 0.8 0.78 0.67 c 12 78 2111 894 bf 0.7 0.7 0.7 c 12 78 2394 894 bf
 0.8 0.8 0.8 c 12 78 2500 894 bf 11 78 2571 894 bf 11 78 425 972 bf 12 78 448 972 bf 12 78 507 972 bf 0.7 0.7 0.7 c 12
 78 542 972 bf 12 78 554 972 bf 12 78 578 972 bf 12 78 637 972 bf 0.6 0.6 0.6 c 12 78 660 972 bf 12 78 684 972 bf 12 78
 731 972 bf 0.754 0.715 0.676 c 12 78 743 972 bf 0.8 0.78 0.67 c 12 78 825 972 bf 0.5 0.5 0.5 c 12 78 849 972 bf 0.8
 0.78 0.67 c 12 78 861 972 bf 0.5 0.5 0.5 c 11 78 873 972 bf 0.4 0.4 0.4 c 11 78 932 972 bf 0.68 0.6 0.55 c 12 78 1108
 972 bf 0.754 0.715 0.676 c 12 78 1120 972 bf 0.61 0.56 0.51 c 12 78 1144 972 bf 0.53 0.4 0.34 c 12 78 1238 972 bf 0.754
 0.715 0.676 c 12 78 1262 972 bf 0.52 0.76 0.64 c 11 78 1274 972 bf 0.754 0.715 0.676 c 12 78 1285 972 bf 0.8 0.78 0.67
 c 11 78 1333 972 bf 12 78 1344 972 bf 11 78 1439 972 bf 12 78 1462 972 bf 12 78 1486 972 bf 12 78 1533 972 bf 12 78
 1604 972 bf 12 78 1639 972 bf 0.61 0.56 0.51 c 12 78 1710 972 bf 0.754 0.715 0.676 c 11 78 1722 972 bf 0.3 0.3 0.3 c 12
 78 1828 972 bf 0.4 0.4 0.4 c 12 78 1875 972 bf 11 78 1899 972 bf 12 78 1969 972 bf 0.5 0.5 0.5 c 11 78 2005 972 bf 12
 78 2040 972 bf 12 78 2075 972 bf 12 78 2111 972 bf 0.6 0.6 0.6 c 11 78 2123 972 bf 0.8 0.78 0.67 c 12 78 2146 972 bf
 0.6 0.6 0.6 c 12 78 2276 972 bf 0.7 0.7 0.7 c 11 78 2347 972 bf 12 78 2441 972 bf 0.8 0.8 0.8 c 12 78 2512 972 bf 0.3
 0.3 0.3 c 11 77 425 1050 bf 0.8 0.8 0.8 c 12 77 483 1050 bf 0.7 0.7 0.7 c 12 77 578 1050 bf 12 77 613 1050 bf 11 77 649
 1050 bf 0.6 0.6 0.6 c 12 77 660 1050 bf 0.7 0.7 0.7 c 12 77 672 1050 bf 12 77 684 1050 bf 0.6 0.6 0.6 c 12 77 696 1050
 bf 0.72 0.64 0.61 c 12 77 731 1050 bf 0.6 0.6 0.6 c 11 77 755 1050 bf 0.4 0.4 0.4 c 12 77 908 1050 bf 12 77 920 1050 bf
 0.5 0.5 0.5 c 11 77 932 1050 bf 0.4 0.4 0.4 c 12 77 943 1050 bf 0.7 0.65 0.59 c 12 77 1014 1050 bf 0.3 0.3 0.3 c 12 77
 1085 1050 bf 0.61 0.56 0.51 c 12 77 1120 1050 bf 0.754 0.715 0.676 c 11 77 1156 1050 bf 0.3 0.3 0.3 c 12 77 1167 1050
 bf 0.8 0.78 0.67 c 12 77 1203 1050 bf 12 77 1238 1050 bf 0.754 0.715 0.676 c 12 77 1297 1050 bf 0.8 0.78 0.67 c 12 77
 1309 1050 bf 11 77 1333 1050 bf 12 77 1356 1050 bf 12 77 1391 1050 bf 0.754 0.715 0.676 c 12 77 1415 1050 bf 0.8 0.78
 0.67 c 11 77 1498 1050 bf 12 77 1509 1050 bf 12 77 1568 1050 bf 0.754 0.715 0.676 c 12 77 1580 1050 bf 12 77 1592 1050
 bf 12 77 1651 1050 bf 0.8 0.78 0.67 c 11 77 1663 1050 bf 0.3 0.3 0.3 c 12 77 1792 1050 bf 12 77 1804 1050 bf 12 77 1816
 1050 bf 12 77 1828 1050 bf 12 77 1863 1050 bf 12 77 1875 1050 bf 0.4 0.4 0.4 c 12 77 1887 1050 bf 0.3 0.3 0.3 c 12 77
 1910 1050 bf 0.7 0.65 0.59 c 12 77 1934 1050 bf 0.4 0.4 0.4 c 12 77 1993 1050 bf 0.5 0.5 0.5 c 12 77 2016 1050 bf 0.4
 0.4 0.4 c 12 77 2028 1050 bf 0.5 0.5 0.5 c 12 77 2075 1050 bf 0.6 0.6 0.6 c 11 77 2123 1050 bf 12 77 2158 1050 bf 0.754
 0.715 0.676 c 12 77 2193 1050 bf 0.7 0.7 0.7 c 12 77 2229 1050 bf 0.6 0.6 0.6 c 12 77 2264 1050 bf 0.7 0.7 0.7 c 12 77
 2335 1050 bf 12 77 2370 1050 bf 0.8 0.8 0.8 c 12 77 2512 1050 bf 11 78 425 1127 bf 12 78 507 1127 bf 0.754 0.715 0.676
 c 12 78 660 1127 bf 0.4 0.4 0.4 c 12 78 908 1127 bf 0.5 0.5 0.5 c 12 78 967 1127 bf 0.4 0.4 0.4 c 12 78 1002 1127 bf
 0.3 0.3 0.3 c 12 78 1026 1127 bf 12 78 1085 1127 bf 0.754 0.715 0.676 c 12 78 1108 1127 bf 11 78 1156 1127 bf 12 78
 1191 1127 bf 0.3 0.3 0.3 c 12 78 1226 1127 bf 0.61 0.56 0.51 c 12 78 1238 1127 bf 0.754 0.715 0.676 c 11 78 1274 1127
 bf 0.8 0.78 0.67 c 12 78 1427 1127 bf 0.69 0.81 0.78 c 12 78 1450 1127 bf 0.8 0.78 0.67 c 12 78 1462 1127 bf 12 78 1486
 1127 bf 12 78 1533 1127 bf 0.35 0.83 0.33 c 12 78 1592 1127 bf 0.8 0.78 0.67 c 12 78 1651 1127 bf 11 78 1663 1127 bf 12
 78 1674 1127 bf 0.754 0.715 0.676 c 12 78 1745 1127 bf 0.3 0.3 0.3 c 12 78 1828 1127 bf 12 78 1863 1127 bf 0.4 0.4 0.4
 c 12 78 1875 1127 bf 12 78 1887 1127 bf 12 78 1969 1127 bf 12 78 2028 1127 bf 0.5 0.5 0.5 c 12 78 2075 1127 bf 12 78
 2134 1127 bf 0.6 0.6 0.6 c 12 78 2146 1127 bf 0.754 0.715 0.676 c 11 78 2182 1127 bf 0.6 0.6 0.6 c 12 78 2193 1127 bf
 12 78 2205 1127 bf 12 78 2217 1127 bf 0.7 0.7 0.7 c 12 78 2276 1127 bf 11 78 2288 1127 bf 12 78 2335 1127 bf 11 78 2347
 1127 bf 12 78 2382 1127 bf 0.8 0.8 0.8 c 11 78 2465 1127 bf 12 78 2500 1127 bf 12 78 389 1205 bf 12 78 436 1205 bf 0.7
 0.7 0.7 c 12 78 507 1205 bf 12 78 578 1205 bf 12 78 601 1205 bf 0.72 0.64 0.61 c 12 78 837 1205 bf 0.4 0.4 0.4 c 12 78
 908 1205 bf 12 78 1002 1205 bf 0.3 0.3 0.3 c 12 78 1014 1205 bf 0.4 0.4 0.4 c 11 78 1038 1205 bf 0.3 0.3 0.3 c 12 78
 1073 1205 bf 0.754 0.715 0.676 c 12 78 1108 1205 bf 0.68 0.6 0.55 c 12 78 1120 1205 bf 0.3 0.3 0.3 c 12 78 1167 1205 bf
 0.8 0.78 0.67 c 12 78 1191 1205 bf 12 78 1285 1205 bf 12 78 1309 1205 bf 12 78 1356 1205 bf 12 78 1415 1205 bf 0.69
 0.81 0.78 c 12 78 1427 1205 bf 0.754 0.715 0.676 c 11 78 1498 1205 bf 0.35 0.83 0.33 c 12 78 1568 1205 bf 0.754 0.715
 0.676 c 12 78 1604 1205 bf 11 78 1663 1205 bf 12 78 1698 1205 bf 0.53 0.4 0.34 c 12 78 1710 1205 bf 0.3 0.3 0.3 c 11 78
 1722 1205 bf 0.754 0.715 0.676 c 12 78 1733 1205 bf 0.3 0.3 0.3 c 12 78 1792 1205 bf 11 78 1840 1205 bf 12 78 1851 1205
 bf 11 78 1899 1205 bf 12 78 1910 1205 bf 12 78 1934 1205 bf 11 78 1946 1205 bf 0.5 0.5 0.5 c 12 78 1969 1205 bf 0.76
 0.75 0.66 c 11 78 2064 1205 bf 0.5 0.5 0.5 c 12 78 2075 1205 bf 12 78 2099 1205 bf 0.6 0.6 0.6 c 12 78 2111 1205 bf 11
 78 2123 1205 bf 12 78 2134 1205 bf 0.7 0.7 0.7 c 11 78 2288 1205 bf 12 78 2299 1205 bf 12 78 2394 1205 bf 12 78 2441
 1205 bf 0.8 0.8 0.8 c 12 78 2512 1205 bf 12 78 436 1283 bf 0.4 0.4 0.4 c 12 78 566 1283 bf 0.8 0.78 0.67 c 12 78 825
 1283 bf 0.5 0.5 0.5 c 12 78 861 1283 bf 0.76 0.75 0.66 c 12 78 955 1283 bf 0.4 0.4 0.4 c 11 78 991 1283 bf 0.3 0.3 0.3
 c 12 78 1002 1283 bf 0.4 0.4 0.4 c 12 78 1014 1283 bf 0.3 0.3 0.3 c 12 78 1026 1283 bf 0.72 0.64 0.61 c 11 78 1038 1283
 bf 0.68 0.6 0.55 c 12 78 1108 1283 bf 0.754 0.715 0.676 c 12 78 1191 1283 bf 12 78 1238 1283 bf 0.8 0.78 0.67 c 12 78
 1262 1283 bf 12 78 1297 1283 bf 12 78 1391 1283 bf 11 78 1439 1283 bf 12 78 1592 1283 bf 0.754 0.715 0.676 c 11 78 1616
 1283 bf 0.8 0.78 0.67 c 12 78 1627 1283 bf 0.3 0.3 0.3 c 12 78 1792 1283 bf 0.4 0.4 0.4 c 11 78 1899 1283 bf 0.7 0.65
 0.59 c 12 78 1922 1283 bf 0.3 0.3 0.3 c 11 78 1946 1283 bf 0.4 0.4 0.4 c 12 78 1957 1283 bf 11 78 2005 1283 bf 0.76
 0.75 0.66 c 12 78 2040 1283 bf 0.7 0.7 0.7 c 12 78 2299 1283 bf 0.8 0.8 0.8 c 12 78 2382 1283 bf 12 78 2476 1283 bf 12
 77 401 1361 bf 12 77 448 1361 bf 11 77 472 1361 bf 12 77 519 1361 bf 12 77 542 1361 bf 0.754 0.715 0.676 c 12 77 719
 1361 bf 0.6 0.6 0.6 c 12 77 849 1361 bf 0.5 0.5 0.5 c 12 77 861 1361 bf 0.4 0.4 0.4 c 12 77 896 1361 bf 12 77 979 1361
 bf 12 77 1049 1361 bf 0.754 0.715 0.676 c 12 77 1144 1361 bf 0.3 0.3 0.3 c 12 77 1167 1361 bf 0.69 0.81 0.78 c 12 77
 1203 1361 bf 0.53 0.4 0.34 c 12 77 1238 1361 bf 0.754 0.715 0.676 c 12 77 1250 1361 bf 0.8 0.78 0.67 c 11 77 1333 1361
 bf 0.53 0.4 0.34 c 12 77 1368 1361 bf 0.754 0.715 0.676 c 12 77 1403 1361 bf 0.8 0.78 0.67 c 11 77 1439 1361 bf 12 77
 1509 1361 bf 0.754 0.715 0.676 c 12 77 1627 1361 bf 0.8 0.78 0.67 c 12 77 1698 1361 bf 12 77 1733 1361 bf 0.3 0.3 0.3 c
 12 77 1851 1361 bf 12 77 1922 1361 bf 0.5 0.5 0.5 c 12 77 1969 1361 bf 0.6 0.6 0.6 c 12 77 2099 1361 bf 11 77 2123 1361
 bf 11 77 2182 1361 bf 12 77 2205 1361 bf 11 77 2241 1361 bf 0.7 0.7 0.7 c 12 77 2252 1361 bf 0.3 0.3 0.3 c 12 77 2276
 1361 bf 0.7 0.7 0.7 c 12 77 2358 1361 bf 0.5 0.5 0.5 c 11 77 2406 1361 bf 0.8 0.8 0.8 c 11 77 2571 1361 bf 0.95 0.95
 0.95 c 147 31 2668 194 bf 0.9 0.9 0.9 c 147 32 2668 225 bf 0.8 0.8 0.8 c 147 31 2668 257 bf 0.7 0.7 0.7 c 147 31 2668
 288 bf 0.6 0.6 0.6 c 147 31 2668 319 bf 0.5 0.5 0.5 c 147 31 2668 350 bf 0.4 0.4 0.4 c 147 31 2668 381 bf 0.3 0.3 0.3 c
 147 31 2668 412 bf 0.754 0.715 0.676 c 147 31 2668 443 bf 0.8 0.78 0.67 c 147 31 2668 474 bf 147 32 2668 505 bf 0.76
 0.75 0.66 c 147 31 2668 537 bf 0.73 0.71 0.64 c 147 31 2668 568 bf 0.7 0.65 0.59 c 147 31 2668 599 bf 0.72 0.64 0.61 c
 147 31 2668 630 bf 0.68 0.6 0.55 c 147 31 2668 661 bf 0.61 0.56 0.51 c 147 31 2668 692 bf 0.53 0.4 0.34 c 147 31 2668
 723 bf 0.69 0.81 0.78 c 147 31 2668 754 bf 0.52 0.76 0.64 c 147 31 2668 785 bf 0.35 0.83 0.33 c 147 32 2668 816 bf 0.54
 0.66 0.63 c 147 31 2668 848 bf 0.51 0.62 0.55 c 147 31 2668 879 bf 0.68 0.74 0.78 c 147 31 2668 910 bf 0.48 0.56 0.6 c
 147 31 2668 941 bf 0.46 0.54 0.57 c 147 31 2668 972 bf 0.41 0.51 0.59 c 147 31 2668 1003 bf 0.43 0.48 0.52 c 147 31
 2668 1034 bf 0.49 0.6 0.82 c 147 31 2668 1065 bf 0.5 0.5 0.61 c 147 31 2668 1096 bf 0.67 0.65 0.75 c 147 32 2668 1127
 bf 0.35 0.33 0.85 c 147 31 2668 1159 bf 0.83 0.81 0.53 c 147 31 2668 1190 bf 0.87 0.73 0.53 c 147 31 2668 1221 bf 0.74
 0.62 0.51 c 147 31 2668 1252 bf 0.78 0.6 0.49 c 147 31 2668 1283 bf 0.75 0.51 0.47 c 147 31 2668 1314 bf 0.67 0.56 0.58
 c 147 31 2668 1345 bf 0.65 0.47 0.48 c 147 31 2668 1376 bf 0.58 0.41 0.44 c 147 31 2668 1407 bf 0.81 0.37 0.38 c 147 32
 2668 1438 bf 0.83 0.35 0.33 c 147 31 2668 1470 bf 1 0 0 c 147 31 2668 1501 bf 0 1 1 c 147 31 2668 1532 bf 1 0 1 c 147
 31 2668 1563 bf 1 1 0 c 147 31 2668 1594 bf 0 0 1 c 147 31 2668 1625 bf 0 1 0 c 147 31 2668 1656 bf 0.3 0.3 0.3 c 147
 31 2668 1687 bf black 147 32 2668 1718 bf [] 0 sd 1 lw [] 0 sd 1 lw 2815 194 m 1556 Y s s [] 0 sd 1 lw [] 0 sd 1 lw
 2745 194 m 70 X s s [] 0 sd 1 lw [] 0 sd 1 lw 2745 484 m 70 X s s [] 0 sd 1 lw [] 0 sd 1 lw 2745 773 m 70 X s s [] 0 sd
 1 lw [] 0 sd 1 lw 2745 1062 m 70 X s s [] 0 sd 1 lw [] 0 sd 1 lw 2745 1351 m 70 X s s [] 0 sd 1 lw [] 0 sd 1 lw 2745
 1640 m 70 X s s [] 0 sd 1 lw [] 0 sd 1 lw 2745 1640 m 70 X s s
 gsave  2830 174
 t 0 r 0 0 m /Helvetica-Bold findfont 72 sf 0 0 m (0) show  gr 
 gsave  2830 463
 t 0 r 0 0 m /Helvetica-Bold findfont 72 sf 0 0 m (5) show  gr 
 gsave  2830 752
 t 0 r 0 0 m /Helvetica-Bold findfont 72 sf 0 0 m (10) show  gr 
 gsave  2830 1041
 t 0 r 0 0 m /Helvetica-Bold findfont 72 sf 0 0 m (15) show  gr 
 gsave  2830 1331
 t 0 r 0 0 m /Helvetica-Bold findfont 72 sf 0 0 m (20) show  gr 
 gsave  2830 1620
 t 0 r 0 0 m /Helvetica-Bold findfont 72 sf 0 0 m (25) show  gr  1 1 1 c black [] 0 sd 1 lw [] 0 sd 1 lw 295 194 m 2358
 X s s
 /xs 0 def (Track Pseudorapidity) /Helvetica-Bold 72 stwn  gsave  2653 49
 t 0 r  xs neg 0 t 0 0 m /Helvetica-Bold findfont 72 sf 0 0 m (Track Pseudorapidity) show  gr  [] 0 sd 1 lw [] 0 sd 1 lw
 457 241 m -47 Y s s [] 0 sd 1 lw [] 0 sd 1 lw 507 218 m -24 Y s s [] 0 sd 1 lw [] 0 sd 1 lw 558 218 m -24 Y s s [] 0 sd
 1 lw [] 0 sd 1 lw 609 218 m -24 Y s s [] 0 sd 1 lw [] 0 sd 1 lw 660 218 m -24 Y s s [] 0 sd 1 lw [] 0 sd 1 lw 711 241 m
 -47 Y s s [] 0 sd 1 lw [] 0 sd 1 lw 762 218 m -24 Y s s [] 0 sd 1 lw [] 0 sd 1 lw 813 218 m -24 Y s s [] 0 sd 1 lw
 [] 0 sd 1 lw 864 218 m -24 Y s s [] 0 sd 1 lw [] 0 sd 1 lw 914 218 m -24 Y s s [] 0 sd 1 lw [] 0 sd 1 lw 965 241 m -47
 Y s s [] 0 sd 1 lw [] 0 sd 1 lw 1016 218 m -24 Y s s [] 0 sd 1 lw [] 0 sd 1 lw 1067 218 m -24 Y s s [] 0 sd 1 lw
 [] 0 sd 1 lw 1118 218 m -24 Y s s [] 0 sd 1 lw [] 0 sd 1 lw 1169 218 m -24 Y s s [] 0 sd 1 lw [] 0 sd 1 lw 1220 241 m
 -47 Y s s [] 0 sd 1 lw [] 0 sd 1 lw 1271 218 m -24 Y s s [] 0 sd 1 lw [] 0 sd 1 lw 1321 218 m -24 Y s s [] 0 sd 1 lw
 [] 0 sd 1 lw 1372 218 m -24 Y s s [] 0 sd 1 lw [] 0 sd 1 lw 1423 218 m -24 Y s s [] 0 sd 1 lw [] 0 sd 1 lw 1474 241 m
 -47 Y s s [] 0 sd 1 lw [] 0 sd 1 lw 1525 218 m -24 Y s s [] 0 sd 1 lw [] 0 sd 1 lw 1576 218 m -24 Y s s [] 0 sd 1 lw
 [] 0 sd 1 lw 1627 218 m -24 Y s s [] 0 sd 1 lw [] 0 sd 1 lw 1678 218 m -24 Y s s [] 0 sd 1 lw [] 0 sd 1 lw 1728 241 m
 -47 Y s s [] 0 sd 1 lw [] 0 sd 1 lw 1779 218 m -24 Y s s [] 0 sd 1 lw [] 0 sd 1 lw 1830 218 m -24 Y s s [] 0 sd 1 lw
 [] 0 sd 1 lw 1881 218 m -24 Y s s [] 0 sd 1 lw [] 0 sd 1 lw 1932 218 m -24 Y s s [] 0 sd 1 lw [] 0 sd 1 lw 1983 241 m
 -47 Y s s [] 0 sd 1 lw [] 0 sd 1 lw 2034 218 m -24 Y s s [] 0 sd 1 lw [] 0 sd 1 lw 2085 218 m -24 Y s s [] 0 sd 1 lw
 [] 0 sd 1 lw 2135 218 m -24 Y s s [] 0 sd 1 lw [] 0 sd 1 lw 2186 218 m -24 Y s s [] 0 sd 1 lw [] 0 sd 1 lw 2237 241 m
 -47 Y s s [] 0 sd 1 lw [] 0 sd 1 lw 2288 218 m -24 Y s s [] 0 sd 1 lw [] 0 sd 1 lw 2339 218 m -24 Y s s [] 0 sd 1 lw
 [] 0 sd 1 lw 2390 218 m -24 Y s s [] 0 sd 1 lw [] 0 sd 1 lw 2441 218 m -24 Y s s [] 0 sd 1 lw [] 0 sd 1 lw 2491 241 m
 -47 Y s s [] 0 sd 1 lw [] 0 sd 1 lw 457 241 m -47 Y s s [] 0 sd 1 lw [] 0 sd 1 lw 406 218 m -24 Y s s [] 0 sd 1 lw
 [] 0 sd 1 lw 355 218 m -24 Y s s [] 0 sd 1 lw [] 0 sd 1 lw 304 218 m -24 Y s s [] 0 sd 1 lw [] 0 sd 1 lw 2491 241 m -47
 Y s s [] 0 sd 1 lw [] 0 sd 1 lw 2542 218 m -24 Y s s [] 0 sd 1 lw [] 0 sd 1 lw 2593 218 m -24 Y s s [] 0 sd 1 lw
 [] 0 sd 1 lw 2644 218 m -24 Y s s
 /xs 0 def (-2) /Helvetica-Bold 72 stwn  gsave  457 107
 t 0 r xs 2 div neg 0 t 0 0 m /Helvetica-Bold findfont 72 sf 0 0 m (-2) show  gr 
 /xs 0 def (-1.5) /Helvetica-Bold 72 stwn  gsave  711 107
 t 0 r xs 2 div neg 0 t 0 0 m /Helvetica-Bold findfont 72 sf 0 0 m (-1.5) show  gr 
 /xs 0 def (-1) /Helvetica-Bold 72 stwn  gsave  965 107
 t 0 r xs 2 div neg 0 t 0 0 m /Helvetica-Bold findfont 72 sf 0 0 m (-1) show  gr 
 /xs 0 def (-0.5) /Helvetica-Bold 72 stwn  gsave  1220 107
 t 0 r xs 2 div neg 0 t 0 0 m /Helvetica-Bold findfont 72 sf 0 0 m (-0.5) show  gr 
 /xs 0 def (0) /Helvetica-Bold 72 stwn  gsave  1474 107
 t 0 r xs 2 div neg 0 t 0 0 m /Helvetica-Bold findfont 72 sf 0 0 m (0) show  gr 
 /xs 0 def (0.5) /Helvetica-Bold 72 stwn  gsave  1728 107
 t 0 r xs 2 div neg 0 t 0 0 m /Helvetica-Bold findfont 72 sf 0 0 m (0.5) show  gr 
 /xs 0 def (1) /Helvetica-Bold 72 stwn  gsave  1983 107
 t 0 r xs 2 div neg 0 t 0 0 m /Helvetica-Bold findfont 72 sf 0 0 m (1) show  gr 
 /xs 0 def (1.5) /Helvetica-Bold 72 stwn  gsave  2237 107
 t 0 r xs 2 div neg 0 t 0 0 m /Helvetica-Bold findfont 72 sf 0 0 m (1.5) show  gr 
 /xs 0 def (2) /Helvetica-Bold 72 stwn  gsave  2491 107
 t 0 r xs 2 div neg 0 t 0 0 m /Helvetica-Bold findfont 72 sf 0 0 m (2) show  gr  [] 0 sd 1 lw [] 0 sd 1 lw 295 194 m
 1556 Y s s
 /xs 0 def (Beam particle pseudorapidity) /Helvetica-Bold 72 stwn  gsave  136 1750
 t 90 r  xs neg 0 t 0 0 m /Helvetica-Bold findfont 72 sf 0 0 m (Beam particle pseudorapidity) show  gr  [] 0 sd 1 lw
 [] 0 sd 1 lw 366 194 m -71 X s s [] 0 sd 1 lw [] 0 sd 1 lw 330 233 m -35 X s s [] 0 sd 1 lw [] 0 sd 1 lw 330 272 m -35
 X s s [] 0 sd 1 lw [] 0 sd 1 lw 330 311 m -35 X s s [] 0 sd 1 lw [] 0 sd 1 lw 330 350 m -35 X s s [] 0 sd 1 lw [] 0 sd
 1 lw 366 389 m -71 X s s [] 0 sd 1 lw [] 0 sd 1 lw 330 428 m -35 X s s [] 0 sd 1 lw [] 0 sd 1 lw 330 467 m -35 X s s
 [] 0 sd 1 lw [] 0 sd 1 lw 330 505 m -35 X s s [] 0 sd 1 lw [] 0 sd 1 lw 330 544 m -35 X s s [] 0 sd 1 lw [] 0 sd 1 lw
 366 583 m -71 X s s [] 0 sd 1 lw [] 0 sd 1 lw 330 622 m -35 X s s [] 0 sd 1 lw [] 0 sd 1 lw 330 661 m -35 X s s [] 0 sd
 1 lw [] 0 sd 1 lw 330 700 m -35 X s s [] 0 sd 1 lw [] 0 sd 1 lw 330 739 m -35 X s s [] 0 sd 1 lw [] 0 sd 1 lw 366 778 m
 -71 X s s [] 0 sd 1 lw [] 0 sd 1 lw 330 816 m -35 X s s [] 0 sd 1 lw [] 0 sd 1 lw 330 855 m -35 X s s [] 0 sd 1 lw
 [] 0 sd 1 lw 330 894 m -35 X s s [] 0 sd 1 lw [] 0 sd 1 lw 330 933 m -35 X s s [] 0 sd 1 lw [] 0 sd 1 lw 366 972 m -71
 X s s [] 0 sd 1 lw [] 0 sd 1 lw 330 1011 m -35 X s s [] 0 sd 1 lw [] 0 sd 1 lw 330 1050 m -35 X s s [] 0 sd 1 lw
 [] 0 sd 1 lw 330 1089 m -35 X s s [] 0 sd 1 lw [] 0 sd 1 lw 330 1127 m -35 X s s [] 0 sd 1 lw [] 0 sd 1 lw 366 1166 m
 -71 X s s [] 0 sd 1 lw [] 0 sd 1 lw 330 1205 m -35 X s s [] 0 sd 1 lw [] 0 sd 1 lw 330 1244 m -35 X s s [] 0 sd 1 lw
 [] 0 sd 1 lw 330 1283 m -35 X s s [] 0 sd 1 lw [] 0 sd 1 lw 330 1322 m -35 X s s [] 0 sd 1 lw [] 0 sd 1 lw 366 1361 m
 -71 X s s [] 0 sd 1 lw [] 0 sd 1 lw 330 1400 m -35 X s s [] 0 sd 1 lw [] 0 sd 1 lw 330 1438 m -35 X s s [] 0 sd 1 lw
 [] 0 sd 1 lw 330 1477 m -35 X s s [] 0 sd 1 lw [] 0 sd 1 lw 330 1516 m -35 X s s [] 0 sd 1 lw [] 0 sd 1 lw 366 1555 m
 -71 X s s [] 0 sd 1 lw [] 0 sd 1 lw 330 1594 m -35 X s s [] 0 sd 1 lw [] 0 sd 1 lw 330 1633 m -35 X s s [] 0 sd 1 lw
 [] 0 sd 1 lw 330 1672 m -35 X s s [] 0 sd 1 lw [] 0 sd 1 lw 330 1711 m -35 X s s [] 0 sd 1 lw [] 0 sd 1 lw 366 1750 m
 -71 X s s
 /xs 0 def (-4) /Helvetica-Bold 72 stwn  gsave  280 174
 t 0 r  xs neg 0 t 0 0 m /Helvetica-Bold findfont 72 sf 0 0 m (-4) show  gr 
 /xs 0 def (-3) /Helvetica-Bold 72 stwn  gsave  280 368
 t 0 r  xs neg 0 t 0 0 m /Helvetica-Bold findfont 72 sf 0 0 m (-3) show  gr 
 /xs 0 def (-2) /Helvetica-Bold 72 stwn  gsave  280 562
 t 0 r  xs neg 0 t 0 0 m /Helvetica-Bold findfont 72 sf 0 0 m (-2) show  gr 
 /xs 0 def (-1) /Helvetica-Bold 72 stwn  gsave  280 757
 t 0 r  xs neg 0 t 0 0 m /Helvetica-Bold findfont 72 sf 0 0 m (-1) show  gr 
 /xs 0 def (0) /Helvetica-Bold 72 stwn  gsave  280 951
 t 0 r  xs neg 0 t 0 0 m /Helvetica-Bold findfont 72 sf 0 0 m (0) show  gr 
 /xs 0 def (1) /Helvetica-Bold 72 stwn  gsave  280 1146
 t 0 r  xs neg 0 t 0 0 m /Helvetica-Bold findfont 72 sf 0 0 m (1) show  gr 
 /xs 0 def (2) /Helvetica-Bold 72 stwn  gsave  280 1340
 t 0 r  xs neg 0 t 0 0 m /Helvetica-Bold findfont 72 sf 0 0 m (2) show  gr 
 /xs 0 def (3) /Helvetica-Bold 72 stwn  gsave  280 1534
 t 0 r  xs neg 0 t 0 0 m /Helvetica-Bold findfont 72 sf 0 0 m (3) show  gr 
 /xs 0 def (4) /Helvetica-Bold 72 stwn  gsave  280 1729
 t 0 r  xs neg 0 t 0 0 m /Helvetica-Bold findfont 72 sf 0 0 m (4) show  gr  [] 0 sd 1 lw 0.95 0.95 0.95 c 1165 97 29
 1837 bf black [] 0 sd 1 lw 49 1837 m -13 Y 1158 X 91 Y -13 X -78 Y f [] 0 sd 1 lw 29 1837 m 97 Y s [] 0 sd 1 lw 29 1934
 m 1165 X s [] 0 sd 1 lw 1194 1934 m -97 Y s [] 0 sd 1 lw 1194 1837 m -1165 X s
 /xs 0 def (Hits for Layer 1 by Eta) /Helvetica-Bold 76 stwn  gsave  612 1864
 t 0 r xs 2 div neg 0 t 0 0 m /Helvetica-Bold findfont 76 sf 0 0 m (Hits for Layer 1 by Eta) show  gr  [] 0 sd 1 lw 0.95
 0.95 0.95 c 590 467 2299 1438 bf black [] 0 sd 1 lw 2319 1438 m -12 Y 583 X 460 Y -13 X -448 Y f [] 0 sd 1 lw 2299 1438
 m 467 Y s [] 0 sd 1 lw 2299 1905 m 590 X s [] 0 sd 1 lw 2889 1905 m -467 Y s [] 0 sd 1 lw 2889 1438 m -590 X s
 gsave  2329 1849
 t 0 r 0 0 m /Helvetica-Bold findfont 60 sf 0 0 m (hEtaEtapden1) show  gr 
 gsave  2329 1771
 t 0 r 0 0 m /Helvetica-Bold findfont 60 sf 0 0 m (Nent = 641   \040) show  gr 
 gsave  2329 1693
 t 0 r 0 0 m /Helvetica-Bold findfont 60 sf 0 0 m (Mean x = -0.0702) show  gr 
 gsave  2329 1615
 t 0 r 0 0 m /Helvetica-Bold findfont 60 sf 0 0 m (Mean y = -0.04811) show  gr 
 gsave  2329 1538
 t 0 r 0 0 m /Helvetica-Bold findfont 60 sf 0 0 m (RMS x  = 0.9362) show  gr 
 gsave  2329 1460
 t 0 r 0 0 m /Helvetica-Bold findfont 60 sf 0 0 m (RMS y  =  1.288) show  gr  1 1 0 c gr 
showpage gr
 gr 
%%Trailer
%%Pages:  1
%%EOF
