%!PS-Adobe-2.0
%%Title: ITSHitDen_6_z.ps (Landscape A 4)
%%Pages: (atend)
%%Creator: ROOT Version 2.22/09
%%CreationDate:Sat Sep 18 07:10:31 1999
%%EndComments
%%BeginProlog
/s {stroke} def /l {lineto} def /m {moveto} def /t {translate} def
/sw {stringwidth} def /r {rotate} def /rl {roll}  def /R {repeat} def
/d {rlineto} def /rm {rmoveto} def /gr {grestore} def /f {eofill} def
/c {setrgbcolor} def /lw {setlinewidth} def /sd {setdash} def
/cl {closepath} def /sf {scalefont setfont} def /black {0 setgray} def
/box {m dup 0 exch d exch 0 d 0 exch neg d cl} def
/NC{systemdict begin initclip end}def/C{NC box clip newpath}def
/bl {box s} def /bf {box f} def /Y { 0 exch d} def /X { 0 d} def 
/mp {newpath /y exch def /x exch def} def
/side {[w .77 mul w .23 mul] .385 w mul sd w 0 l currentpoint t -144 r} def
/mr {mp x y w2 0 360 arc} def /m24 {mr s} def /m20 {mr f} def
/mb {mp x y w2 add m w2 neg 0 d 0 w neg d w 0 d 0 w d cl} def
/mt {mp x y w2 add m w2 neg w neg d w 0 d cl} def
/m21 {mb f} def /m25 {mb s} def /m22 {mt f} def /m26{mt s} def
/m23 {mp x y w2 sub m w2 w d w neg 0 d cl f} def
/m27 {mp x y w2 add m w3 neg w2 neg d w3 w2 neg d w3 w2 d cl s} def
/m28 {mp x w2 sub y w2 sub w3 add m w3 0 d  0 w3 neg d w3 0 d 0 w3 d w3 0 d  0 w3 d w3 neg 0 d 0 w3 d w3 neg 0 d
 0 w3 neg d w3 neg 0 d cl s } def
/m29 {mp gsave x w2 sub y w2 add w3 sub m currentpoint t
 4 {side} repeat cl fill gr} def
/m30 {mp gsave x w2 sub y w2 add w3 sub m currentpoint t
 5 {side} repeat s gr} def
/m31 {mp x y w2 sub m 0 w d x w2 sub y m w 0 d x w2 sub y w2 add m w w neg d x w2 sub y w2
 sub m w w d s} def
/m2 {mp x y w2 sub m 0 w d x w2 sub y m w 0 d s} def
/m5 {mp x w2 sub y w2 sub m w w d x w2 sub y w2 add m w w neg d s} def
/DP {/PT exch def gsave 47.2 47.2 scale PT 1  eq { 16 16 1 [ 16 0 0 16 neg 0 16
] { < AA AA 55 55 AA AA 55 55 AA AA 55 55 AA AA 55 55 AA AA 55 55 AA AA 55 55
AA AA 55 55 AA AA 55 55 > } image } if PT 2 eq { 16 16 1 [ 16 0 0 16 neg 0 16
] { < BB BB EE EE BB BB EE EE BB BB EE EE BB BB EE EE BB BB EE EE BB BB EE EE
BB BB EE EE BB BB EE EE > } image } if PT 3 eq { 16 16 1 [ 16 0 0 16 neg 0 16
] { < FF FF BB BB FF FF EE EE FF FF BB BB FF FF EE EE FF FF BB BB FF FF EE EE
FF FF BB BB FF FF EE EE > } image } if PT 4 eq { 16 16 1 [ 16 0 0 16 neg 0 16
] { < DF DF BF BF 7F 7F FE FE FD FD FB FB F7 F7 EF EF DF DF BF BF 7F 7F FE FE
FD FD FB FB F7 F7 EF EF > } image } if PT 5 eq { 16 16 1 [ 16 0 0 16 neg 0 16
] { < 7F 7F BF B F DF DF EF EF F7 F7 FB FB FD FD FE FE 7F 7F BF BF DF DF EF
EF F7 F7 FB FB FD FD FE FE > } image } if PT 6 eq { 16 16 1 [ 16 0 0 16 neg 0
16 ] { < BB BB BB BB BB BB BB BB BB BB BB BB BB BB BB BB BB BB BB BB BB BB BB
BB BB BB BB BB BB BB BB BB > } image } if PT 7 eq { 16 16 1 [ 16 0 0 16 neg 0
16 ] { < FF FF FF FF FF FF 00 00 FF FF FF FF FF FF 00 00 FF FF FF FF FF FF 00
00 FF FF FF FF FF FF 00 00 > } image } if PT 8 eq { 16 16 1 [ 16 0 0 16 neg 0
16 ] { < EE EE 47 47 83 83 C5 C5 EE EE 5C 5C 38 38 74 74 EE EE 47 47 83 83 C5
C5 EE EE 5C 5C 38 38 74 74 > } image } if PT 9 eq { 16 16 1 [ 16 0 0 16 neg 0
16 ] { < EF EF EF EF D7 D7 38 38 FE FE FE FE 7D 7D 83 83 EF EF EF EF D7 D7 38
38  FE FE FE FE 7D 7D 83 83 > } image } if PT 10 eq { 16 16 1 [ 16 0 0 16 neg
0 16 ] { <  EF EF EF EF EF EF 00 00 FE FE FE FE FE FE 00 00 EF EF EF EF EF EF
00 00 FE FE FE FE FE FE 00 00 > } image } if PT 11 eq { 16 16 1 [ 16 0 0 16
neg 0 16 ] { < F7 F7 B6 B6 D5 D5 E3 E3 D5 D5 B6 B6 F7 F7 FF FF 7F 7F 6B 6B 5D
5D 3E 3E 5D 5D 6B 6B 7F 7F FF FF > } image } if PT 12 eq { 16 16 1 [ 16 0 0
16 neg 0 16 ] { < E3 E3 DD DD BE BE BE BE BE BE DD DD E3 E3 FF FF 3E 3E DD DD
EB EB EB EB EB EB DD DD 3E 3E FF FF > } image } if PT 13 eq { 16 16 1 [ 16 0
0 16 neg 0 16 ] { <  FE FE 7D 7D BB BB D7 D7 EF EF D7 D7 BB BB 7D 7D FE FE 7D
7D BB BB D7 D7 EF EF D7 D7 BB BB 7D 7D > } image } if PT 14 eq { 16 16 1 [ 16
0 0 16 neg 0 16 ] { < 00 00 EE EF EE EF EE EF 0E E0 EE EE EE EE EE EE 00 EE
FE EE FE EE FE EE 00 00 FE EF FE EF FE EF > } image } if PT 15 eq { 16 16 1 [
16 0 0 16 neg 0 16 ] { < DD DD AA AA DD DD FF FF 77 77 AA AA 77 77 FF FF DD
DD AA AA DD DD FF FF 77 77 AA AA 77 77 FF FF > } image } if PT 16 eq { 16 16
1 [ 16 0 0 16 neg 0 16 ] { <  F1 F1 EE EE 1F 1F FF FF F1 F1 EE EE 1F 1F FF FF
F1 F1 EE EE 1F 1F FF FF F1 F1 EE EE 1F 1F FF FF > } image } if PT 17 eq { 16
16 1 [ 16 0 0 16 neg 0 16 ] { <  EE EE DD DD BB BB FF FF EE EE DD DD BB BB FF
 FF EE EE DD DD BB BB FF FF EE EE DD DD BB BB FF FF > } image } if PT 18 eq {
16 16 1 [ 16 0 0 16 neg 0 16 ] { <  BB BB DD DD EE EE FF FF BB BB DD DD EE EE
FF FF BB BB DD DD EE EE FF FF BB BB DD DD EE EE FF FF > } image } if PT 19 eq
{ 16 16 1 [ 16 0 0 16 neg 0 16 ] { < 1F FC 67 F3 7B EF BD DE BD DE DE BD E6
B3 F8 0F E6 B3 DE BD BD DE BD DE 7B EF 67 F3 1F FC 7F FF > } image } if PT
20 eq { 16 16 1 [ 16 0 0 16 neg 0 16 ] { < DD DD EE EE EE EE EE EE DD DD BB
BB BB BB BB BB DD DD EE EE EE EE EE EE DD DD BB BB BB BB BB BB > } image }
if PT 21 eq { 16 16 1 [ 16 0 0 16 neg 0 16 ] { < 0E 0E EF EF EF EF EF EF E0
E0 FE FE FE FE FE FE 0E 0E EF EF EF EF EF EF E0 E0 FE FE FE FE FE FE > }
image }  if PT 22 eq { 16 16 1 [ 16 0 0 16 neg 0 16 ] { < 70 70 F7 F7 F7 F7 F7
F7 07 07 7F 7F 7F 7F 7F 7F 70 70 F7 F7 F7 F7 F7 F7 07 07 7F 7F 7F 7F 7F 7F >
} image } if PT 23 eq  { 16 16 1 [ 16 0 0 16 neg 0 16 ] { < AA AA 55 55 A9 A9
D1 D1 E1 E1 D1 D1 A9 A9 55 55 AA AA 55 55 A9 A9 D1 D1 E1 E1 D1 D1 A9 A9 55 55
> } image } if PT 24 eq { 16 16 1 [ 16 0 0 16 neg 0 16 ] { < FF FE FF FC EA
A8 D5 54 EA A8 D5 54 E8 28 D4 54 E8 E8 D4 D4 E8 EA 54 D5 A8 EA 54 D5 00 C0 00
80 > } image } if PT 25 eq {  16 16 1 [ 16 0 0 16 neg 0 16 ] { < FF FE FF FC
FF F8 FF F0 F0 00 F0 00 F0 20 F0 60 F0 E0 F1 E0 F3 E0 F0 00 E0 00 C0 00 80 00
00 00 > } image } if gr } def /FA { /PT exch def gsave clip 0 0 translate 1 1
74 { 1 sub 47.2 mul /Xcurr exch def 1 1 74 { 1 sub 47.2 mul /Ycurr exch def
gsave Xcurr Ycurr translate PT DP gr } for } for gr newpath } def
/reencdict 24 dict def /ReEncode {reencdict begin /nco&na exch def
/nfnam exch def /basefontname exch def /basefontdict basefontname findfont def
/newfont basefontdict maxlength dict def basefontdict {exch dup /FID ne
{dup /Encoding eq {exch dup length array copy newfont 3 1 roll put} {exch 
newfont 3 1 roll put} ifelse} {pop pop} ifelse } forall newfont
/FontName nfnam put nco&na aload pop nco&na length 2 idiv {newfont
/Encoding get 3 1 roll put} repeat nfnam newfont definefont pop end } def
/accvec [ 176 /agrave 181 /Agrave 190 /acircumflex 192 /Acircumflex
201 /adieresis 204 /Adieresis 209 /ccedilla 210 /Ccedilla 211 /eacute
212 /Eacute 213 /egrave 214 /Egrave 215 /ecircumflex 216 /Ecircumflex
217 /edieresis 218 /Edieresis 219 /icircumflex 220 /Icircumflex
221 /idieresis 222 /Idieresis 223 /ntilde 224 /Ntilde 226 /ocircumflex
228 /Ocircumflex 229 /odieresis 230 /Odieresis 231 /ucircumflex 236 /Ucircumflex
237 /udieresis 238 /Udieresis 239 /aring 242 /Aring 243 /ydieresis
244 /Ydieresis 246 /aacute 247 /Aacute 252 /ugrave 253 /Ugrave] def
/Times-Roman /Times-Roman accvec ReEncode
/Times-Italic /Times-Italic accvec ReEncode
/Times-Bold /Times-Bold accvec ReEncode
/Times-BoldItalic /Times-BoldItalic accvec ReEncode
/Helvetica /Helvetica accvec ReEncode
/Helvetica-Oblique /Helvetica-Oblique accvec ReEncode
/Helvetica-Bold /Helvetica-Bold accvec ReEncode
/Helvetica-BoldOblique /Helvetica-BoldOblique  accvec ReEncode
/Courier /Courier accvec ReEncode
/Courier-Oblique /Courier-Oblique accvec ReEncode
/Courier-Bold /Courier-Bold accvec ReEncode
/Courier-BoldOblique /Courier-BoldOblique accvec ReEncode
/oshow {gsave [] 0 sd true charpath stroke gr} def
/stwn { /fs exch def /fn exch def /text exch def fn findfont fs sf
 text sw pop xs add /xs exch def} def
/stwb { /fs exch def /fn exch def /nbas exch def /textf exch def
textf length /tlen exch def nbas tlen gt {/nbas tlendef} if
fn findfont fs sf textf dup length nbas sub nbas getinterval sw
pop neg xs add /xs exch def} def
/accspe [ 65 /plusminus  66 /bar  67 /existential  68 /universal 
69 /exclam  70 /numbersign 71 /greater  72 /question  73 /integral 
74 /colon  75 /semicolon  76 /less  77 /bracketleft  78 /bracketright
79 /greaterequal 80 /braceleft 81 /braceright 82 /radical
83 /spade 84 /heart 85 /diamond 86 /club 87 /lessequal
88 /multiply 89 /percent 90 /infinity 48 /circlemultiply 49 /circleplus
50 /emptyset  51 /lozenge 52 /bullet 53 /arrowright 54 /arrowup
55 /arrowleft 56 /arrowdown 57 /arrowboth 48 /degree 44 /comma 43 /plus 45 /angle 42 /angleleft 47 /divide 61 /notequal
 40 /equivalence 41 /second 97 /approxequal 98 /congruent 99 /perpendicular 100 /partialdiff 101 /florin
 102 /intersection 103 /union 104 /propersuperset 105 /reflexsuperset 106 /notsubset 107 /propersubset 108 /reflexsubset
 109 /element 110 /notelement 111 /gradient 112 /logicaland 113 /logicalor 114 /arrowdblboth 115 /arrowdblleft
 116 /arrowdblup 117 /arrowdblright 118 /arrowdbldown 119 /ampersand 120 /omega1 121 /similar 122 /aleph ] def
/Symbol /Special accspe ReEncode
/Zone {/iy exch def /ix exch def  ix 1 sub  3144 mul  1 iy sub  2224
 mul t} def
%%EndProlog
 gsave  90 r 0 -594 t  28 20 t .25 .25 scale  gsave 
%%Page: number 1
 black [] 0 sd 1 lw 0.95 0.95 0.95 c 2948 1944 0 0 bf 0.8 0.8 0.8 c 0 0 m 2 2 d 1940 Y 2944 X 2 2 d -2948 X -1944 Y f
 0.3 0.3 0.3 c 0 0 m 2 2 d 2944 X 1940 Y 2 2 d -1944 Y -2948 X f black [] 0 sd 1 lw 0.95 0.95 0.95 c 2358 1556 295 194
 bf 0.8 0.8 0.8 c 295 194 m 1 1 d 1554 Y 2356 X 1 1 d -2358 X -1556 Y f 0.3 0.3 0.3 c 295 194 m 1 1 d 2356 X 1554 Y 1 1
 d -1556 Y -2358 X f [] 0 sd 1 lw black 295 194 m 2358 X s [] 0 sd 1 lw 2653 194 m 1556 Y s [] 0 sd 1 lw 2653 1750 m
 -2358 X s [] 0 sd 1 lw 295 1750 m -1556 Y s [] 0 sd 1 lw 1 1 1 c black [] 0 sd 1 lw 295 194 m 6 X s [] 0 sd 1 lw 301
 194 m 6 X s [] 0 sd 1 lw 307 194 m 5 X s [] 0 sd 1 lw 312 194 m 6 X s [] 0 sd 1 lw 318 194 m 6 X s [] 0 sd 1 lw 324 194
 m 6 X s [] 0 sd 1 lw 330 194 m 6 X s [] 0 sd 1 lw 336 194 m 6 X s [] 0 sd 1 lw 342 194 m 6 X s [] 0 sd 1 lw 348 194 m 6
 X s [] 0 sd 1 lw 354 194 m 6 X s [] 0 sd 1 lw 360 194 m 6 X s [] 0 sd 1 lw 366 194 m 5 X s [] 0 sd 1 lw 371 194 m 6 X s
 [] 0 sd 1 lw 377 194 m 6 X s [] 0 sd 1 lw 383 194 m 6 X s [] 0 sd 1 lw 389 194 m 6 X s [] 0 sd 1 lw 395 194 m 6 X s
 [] 0 sd 1 lw 401 194 m 6 X s [] 0 sd 1 lw 407 194 m 6 X s [] 0 sd 1 lw 413 194 m 6 X s [] 0 sd 1 lw 419 194 m 6 X s
 [] 0 sd 1 lw 425 194 m 5 X s [] 0 sd 1 lw 430 194 m 6 X s [] 0 sd 1 lw 436 194 m 6 X s [] 0 sd 1 lw 442 194 m 6 X s
 [] 0 sd 1 lw 448 194 m 6 X s [] 0 sd 1 lw 454 194 m 6 X s [] 0 sd 1 lw 460 194 m 6 X s [] 0 sd 1 lw 466 194 m 6 X s
 [] 0 sd 1 lw 472 194 m 6 X s [] 0 sd 1 lw 478 194 m 5 X s [] 0 sd 1 lw 489 194 m 124 Y s [] 0 sd 1 lw 489 318 m 123 Y s
 [] 0 sd 1 lw 483 318 m 6 X s [] 0 sd 1 lw 489 318 m 6 X s [] 0 sd 1 lw /w 2 def /w2 {w 2 div} def /w3 {w 3 div} def 489
 318 m20 [] 0 sd 1 lw [] 0 sd 1 lw 501 267 m 174 Y s [] 0 sd 1 lw 501 441 m 174 Y s [] 0 sd 1 lw 495 441 m 6 X s [] 0 sd
 1 lw 501 441 m 6 X s [] 0 sd 1 lw 501 441 m20 [] 0 sd 1 lw [] 0 sd 1 lw 507 194 m 6 X s [] 0 sd 1 lw 513 194 m 6 X s
 [] 0 sd 1 lw 525 267 m 174 Y s [] 0 sd 1 lw 525 441 m 175 Y s [] 0 sd 1 lw 519 441 m 6 X s [] 0 sd 1 lw 525 441 m 6 X s
 [] 0 sd 1 lw 525 441 m20 [] 0 sd 1 lw [] 0 sd 1 lw 531 194 m 6 X s [] 0 sd 1 lw 537 194 m 5 X s [] 0 sd 1 lw 548 267 m
 174 Y s [] 0 sd 1 lw 548 441 m 174 Y s [] 0 sd 1 lw 542 441 m 6 X s [] 0 sd 1 lw 548 441 m 6 X s [] 0 sd 1 lw 548 441
 m20 [] 0 sd 1 lw [] 0 sd 1 lw 560 194 m 123 Y s [] 0 sd 1 lw 560 317 m 123 Y s [] 0 sd 1 lw 554 317 m 6 X s [] 0 sd 1
 lw 560 317 m 6 X s [] 0 sd 1 lw 560 317 m20 [] 0 sd 1 lw [] 0 sd 1 lw 572 537 m 276 Y s [] 0 sd 1 lw 572 813 m 277 Y s
 [] 0 sd 1 lw 566 813 m 6 X s [] 0 sd 1 lw 572 813 m 6 X s [] 0 sd 1 lw 572 813 m20 [] 0 sd 1 lw [] 0 sd 1 lw 584 194 m
 124 Y s [] 0 sd 1 lw 584 318 m 124 Y s [] 0 sd 1 lw 578 318 m 6 X s [] 0 sd 1 lw 584 318 m 6 X s [] 0 sd 1 lw 584 318
 m20 [] 0 sd 1 lw [] 0 sd 1 lw 596 536 m 276 Y s [] 0 sd 1 lw 596 812 m 276 Y s [] 0 sd 1 lw 590 812 m 6 X s [] 0 sd 1
 lw 596 812 m 5 X s [] 0 sd 1 lw 596 812 m20 [] 0 sd 1 lw [] 0 sd 1 lw 607 267 m 174 Y s [] 0 sd 1 lw 607 441 m 175 Y s
 [] 0 sd 1 lw 601 441 m 6 X s [] 0 sd 1 lw 607 441 m 6 X s [] 0 sd 1 lw 607 441 m20 [] 0 sd 1 lw [] 0 sd 1 lw 619 194 m
 124 Y s [] 0 sd 1 lw 619 318 m 123 Y s [] 0 sd 1 lw 613 318 m 6 X s [] 0 sd 1 lw 619 318 m 6 X s [] 0 sd 1 lw 619 318
 m20 [] 0 sd 1 lw [] 0 sd 1 lw 631 536 m 276 Y s [] 0 sd 1 lw 631 812 m 276 Y s [] 0 sd 1 lw 625 812 m 6 X s [] 0 sd 1
 lw 631 812 m 6 X s [] 0 sd 1 lw 631 812 m20 [] 0 sd 1 lw [] 0 sd 1 lw 643 194 m 124 Y s [] 0 sd 1 lw 643 318 m 123 Y s
 [] 0 sd 1 lw 637 318 m 6 X s [] 0 sd 1 lw 643 318 m 6 X s [] 0 sd 1 lw 643 318 m20 [] 0 sd 1 lw [] 0 sd 1 lw 654 535 m
 276 Y s [] 0 sd 1 lw 654 811 m 276 Y s [] 0 sd 1 lw 649 811 m 5 X s [] 0 sd 1 lw 654 811 m 6 X s [] 0 sd 1 lw 654 811
 m20 [] 0 sd 1 lw [] 0 sd 1 lw 660 194 m 6 X s [] 0 sd 1 lw 666 194 m 6 X s [] 0 sd 1 lw 678 267 m 174 Y s [] 0 sd 1 lw
 678 441 m 175 Y s [] 0 sd 1 lw 672 441 m 6 X s [] 0 sd 1 lw 678 441 m 6 X s [] 0 sd 1 lw 678 441 m20 [] 0 sd 1 lw
 [] 0 sd 1 lw 690 441 m 247 Y s [] 0 sd 1 lw 690 688 m 247 Y s [] 0 sd 1 lw 684 688 m 6 X s [] 0 sd 1 lw 690 688 m 6 X s
 [] 0 sd 1 lw 690 688 m20 [] 0 sd 1 lw [] 0 sd 1 lw 696 194 m 6 X s [] 0 sd 1 lw 702 194 m 6 X s [] 0 sd 1 lw 713 194 m
 123 Y s [] 0 sd 1 lw 713 317 m 124 Y s [] 0 sd 1 lw 708 317 m 5 X s [] 0 sd 1 lw 713 317 m 6 X s [] 0 sd 1 lw 713 317
 m20 [] 0 sd 1 lw [] 0 sd 1 lw 725 351 m 215 Y s [] 0 sd 1 lw 725 566 m 214 Y s [] 0 sd 1 lw 719 566 m 6 X s [] 0 sd 1
 lw 725 566 m 6 X s [] 0 sd 1 lw 725 566 m20 [] 0 sd 1 lw [] 0 sd 1 lw 731 194 m 6 X s [] 0 sd 1 lw 737 194 m 6 X s
 [] 0 sd 1 lw 749 351 m 214 Y s [] 0 sd 1 lw 749 565 m 213 Y s [] 0 sd 1 lw 743 565 m 6 X s [] 0 sd 1 lw 749 565 m 6 X s
 [] 0 sd 1 lw 749 565 m20 [] 0 sd 1 lw [] 0 sd 1 lw 761 442 m 247 Y s [] 0 sd 1 lw 761 689 m 247 Y s [] 0 sd 1 lw 755
 689 m 6 X s [] 0 sd 1 lw 761 689 m 5 X s [] 0 sd 1 lw 761 689 m20 [] 0 sd 1 lw [] 0 sd 1 lw 772 194 m 124 Y s [] 0 sd 1
 lw 772 318 m 124 Y s [] 0 sd 1 lw 766 318 m 6 X s [] 0 sd 1 lw 772 318 m 6 X s [] 0 sd 1 lw 772 318 m20 [] 0 sd 1 lw
 [] 0 sd 1 lw 784 441 m 247 Y s [] 0 sd 1 lw 784 688 m 247 Y s [] 0 sd 1 lw 778 688 m 6 X s [] 0 sd 1 lw 784 688 m 6 X s
 [] 0 sd 1 lw 784 688 m20 [] 0 sd 1 lw [] 0 sd 1 lw 796 267 m 174 Y s [] 0 sd 1 lw 796 441 m 174 Y s [] 0 sd 1 lw 790
 441 m 6 X s [] 0 sd 1 lw 796 441 m 6 X s [] 0 sd 1 lw 796 441 m20 [] 0 sd 1 lw [] 0 sd 1 lw 802 194 m 6 X s [] 0 sd 1
 lw 808 194 m 6 X s [] 0 sd 1 lw 820 351 m 214 Y s [] 0 sd 1 lw 820 565 m 213 Y s [] 0 sd 1 lw 814 565 m 6 X s [] 0 sd 1
 lw 820 565 m 5 X s [] 0 sd 1 lw 820 565 m20 [] 0 sd 1 lw [] 0 sd 1 lw 831 632 m 302 Y s [] 0 sd 1 lw 831 934 m 302 Y s
 [] 0 sd 1 lw 825 934 m 6 X s [] 0 sd 1 lw 831 934 m 6 X s [] 0 sd 1 lw 831 934 m20 [] 0 sd 1 lw [] 0 sd 1 lw 843 194 m
 124 Y s [] 0 sd 1 lw 843 318 m 123 Y s [] 0 sd 1 lw 837 318 m 6 X s [] 0 sd 1 lw 843 318 m 6 X s [] 0 sd 1 lw 843 318
 m20 [] 0 sd 1 lw [] 0 sd 1 lw 855 266 m 174 Y s [] 0 sd 1 lw 855 440 m 174 Y s [] 0 sd 1 lw 849 440 m 6 X s [] 0 sd 1
 lw 855 440 m 6 X s [] 0 sd 1 lw 855 440 m20 [] 0 sd 1 lw [] 0 sd 1 lw 867 194 m 124 Y s [] 0 sd 1 lw 867 318 m 124 Y s
 [] 0 sd 1 lw 861 318 m 6 X s [] 0 sd 1 lw 867 318 m 6 X s [] 0 sd 1 lw 867 318 m20 [] 0 sd 1 lw [] 0 sd 1 lw 879 351 m
 214 Y s [] 0 sd 1 lw 879 565 m 214 Y s [] 0 sd 1 lw 873 565 m 6 X s [] 0 sd 1 lw 879 565 m 5 X s [] 0 sd 1 lw 879 565
 m20 [] 0 sd 1 lw [] 0 sd 1 lw 890 194 m 124 Y s [] 0 sd 1 lw 890 318 m 124 Y s [] 0 sd 1 lw 884 318 m 6 X s [] 0 sd 1
 lw 890 318 m 6 X s [] 0 sd 1 lw 890 318 m20 [] 0 sd 1 lw [] 0 sd 1 lw 902 351 m 215 Y s [] 0 sd 1 lw 902 566 m 214 Y s
 [] 0 sd 1 lw 896 566 m 6 X s [] 0 sd 1 lw 902 566 m 6 X s [] 0 sd 1 lw 902 566 m20 [] 0 sd 1 lw [] 0 sd 1 lw 914 442 m
 247 Y s [] 0 sd 1 lw 914 689 m 247 Y s [] 0 sd 1 lw 908 689 m 6 X s [] 0 sd 1 lw 914 689 m 6 X s [] 0 sd 1 lw 914 689
 m20 [] 0 sd 1 lw [] 0 sd 1 lw 920 194 m 6 X s [] 0 sd 1 lw 926 194 m 6 X s [] 0 sd 1 lw 937 351 m 214 Y s [] 0 sd 1 lw
 937 565 m 214 Y s [] 0 sd 1 lw 932 565 m 5 X s [] 0 sd 1 lw 937 565 m 6 X s [] 0 sd 1 lw 937 565 m20 [] 0 sd 1 lw
 [] 0 sd 1 lw 949 267 m 174 Y s [] 0 sd 1 lw 949 441 m 174 Y s [] 0 sd 1 lw 943 441 m 6 X s [] 0 sd 1 lw 949 441 m 6 X s
 [] 0 sd 1 lw 949 441 m20 [] 0 sd 1 lw [] 0 sd 1 lw 961 267 m 174 Y s [] 0 sd 1 lw 961 441 m 174 Y s [] 0 sd 1 lw 955
 441 m 6 X s [] 0 sd 1 lw 961 441 m 6 X s [] 0 sd 1 lw 961 441 m20 [] 0 sd 1 lw [] 0 sd 1 lw 967 194 m 6 X s [] 0 sd 1
 lw 973 194 m 6 X s [] 0 sd 1 lw 985 267 m 174 Y s [] 0 sd 1 lw 985 441 m 174 Y s [] 0 sd 1 lw 979 441 m 6 X s [] 0 sd 1
 lw 985 441 m 6 X s [] 0 sd 1 lw 985 441 m20 [] 0 sd 1 lw [] 0 sd 1 lw 996 441 m 247 Y s [] 0 sd 1 lw 996 688 m 247 Y s
 [] 0 sd 1 lw 991 688 m 5 X s [] 0 sd 1 lw 996 688 m 6 X s [] 0 sd 1 lw 996 688 m20 [] 0 sd 1 lw [] 0 sd 1 lw 1008 535 m
 275 Y s [] 0 sd 1 lw 1008 810 m 276 Y s [] 0 sd 1 lw 1002 810 m 6 X s [] 0 sd 1 lw 1008 810 m 6 X s [] 0 sd 1 lw 1008
 810 m20 [] 0 sd 1 lw [] 0 sd 1 lw 1020 536 m 276 Y s [] 0 sd 1 lw 1020 812 m 276 Y s [] 0 sd 1 lw 1014 812 m 6 X s
 [] 0 sd 1 lw 1020 812 m 6 X s [] 0 sd 1 lw 1020 812 m20 [] 0 sd 1 lw [] 0 sd 1 lw 1032 351 m 214 Y s [] 0 sd 1 lw 1032
 565 m 215 Y s [] 0 sd 1 lw 1026 565 m 6 X s [] 0 sd 1 lw 1032 565 m 6 X s [] 0 sd 1 lw 1032 565 m20 [] 0 sd 1 lw
 [] 0 sd 1 lw 1044 267 m 175 Y s [] 0 sd 1 lw 1044 442 m 174 Y s [] 0 sd 1 lw 1038 442 m 6 X s [] 0 sd 1 lw 1044 442 m 5
 X s [] 0 sd 1 lw 1044 442 m20 [] 0 sd 1 lw [] 0 sd 1 lw 1055 194 m 124 Y s [] 0 sd 1 lw 1055 318 m 124 Y s [] 0 sd 1 lw
 1049 318 m 6 X s [] 0 sd 1 lw 1055 318 m 6 X s [] 0 sd 1 lw 1055 318 m20 [] 0 sd 1 lw [] 0 sd 1 lw 1067 194 m 124 Y s
 [] 0 sd 1 lw 1067 318 m 123 Y s [] 0 sd 1 lw 1061 318 m 6 X s [] 0 sd 1 lw 1067 318 m 6 X s [] 0 sd 1 lw 1067 318 m20
 [] 0 sd 1 lw [] 0 sd 1 lw 1079 536 m 277 Y s [] 0 sd 1 lw 1079 813 m 277 Y s [] 0 sd 1 lw 1073 813 m 6 X s [] 0 sd 1 lw
 1079 813 m 6 X s [] 0 sd 1 lw 1079 813 m20 [] 0 sd 1 lw [] 0 sd 1 lw 1091 536 m 276 Y s [] 0 sd 1 lw 1091 812 m 276 Y s
 [] 0 sd 1 lw 1085 812 m 6 X s [] 0 sd 1 lw 1091 812 m 6 X s [] 0 sd 1 lw 1091 812 m20 [] 0 sd 1 lw [] 0 sd 1 lw 1097
 194 m 6 X s [] 0 sd 1 lw 1103 194 m 5 X s [] 0 sd 1 lw 1114 194 m 124 Y s [] 0 sd 1 lw 1114 318 m 123 Y s [] 0 sd 1 lw
 1108 318 m 6 X s [] 0 sd 1 lw 1114 318 m 6 X s [] 0 sd 1 lw 1114 318 m20 [] 0 sd 1 lw [] 0 sd 1 lw 1126 535 m 276 Y s
 [] 0 sd 1 lw 1126 811 m 275 Y s [] 0 sd 1 lw 1120 811 m 6 X s [] 0 sd 1 lw 1126 811 m 6 X s [] 0 sd 1 lw 1126 811 m20
 [] 0 sd 1 lw [] 0 sd 1 lw 1138 441 m 246 Y s [] 0 sd 1 lw 1138 687 m 247 Y s [] 0 sd 1 lw 1132 687 m 6 X s [] 0 sd 1 lw
 1138 687 m 6 X s [] 0 sd 1 lw 1138 687 m20 [] 0 sd 1 lw [] 0 sd 1 lw 1150 194 m 124 Y s [] 0 sd 1 lw 1150 318 m 124 Y s
 [] 0 sd 1 lw 1144 318 m 6 X s [] 0 sd 1 lw 1150 318 m 6 X s [] 0 sd 1 lw 1150 318 m20 [] 0 sd 1 lw [] 0 sd 1 lw 1162
 351 m 213 Y s [] 0 sd 1 lw 1162 564 m 213 Y s [] 0 sd 1 lw 1156 564 m 6 X s [] 0 sd 1 lw 1162 564 m 5 X s [] 0 sd 1 lw
 1162 564 m20 [] 0 sd 1 lw [] 0 sd 1 lw 1173 633 m 303 Y s [] 0 sd 1 lw 1173 936 m 303 Y s [] 0 sd 1 lw 1167 936 m 6 X s
 [] 0 sd 1 lw 1173 936 m 6 X s [] 0 sd 1 lw 1173 936 m20 [] 0 sd 1 lw [] 0 sd 1 lw 1185 194 m 124 Y s [] 0 sd 1 lw 1185
 318 m 124 Y s [] 0 sd 1 lw 1179 318 m 6 X s [] 0 sd 1 lw 1185 318 m 6 X s [] 0 sd 1 lw 1185 318 m20 [] 0 sd 1 lw
 [] 0 sd 1 lw 1197 441 m 247 Y s [] 0 sd 1 lw 1197 688 m 246 Y s [] 0 sd 1 lw 1191 688 m 6 X s [] 0 sd 1 lw 1197 688 m 6
 X s [] 0 sd 1 lw 1197 688 m20 [] 0 sd 1 lw [] 0 sd 1 lw 1209 194 m 124 Y s [] 0 sd 1 lw 1209 318 m 124 Y s [] 0 sd 1 lw
 1203 318 m 6 X s [] 0 sd 1 lw 1209 318 m 6 X s [] 0 sd 1 lw 1209 318 m20 [] 0 sd 1 lw [] 0 sd 1 lw 1220 267 m 174 Y s
 [] 0 sd 1 lw 1220 441 m 175 Y s [] 0 sd 1 lw 1215 441 m 5 X s [] 0 sd 1 lw 1220 441 m 6 X s [] 0 sd 1 lw 1220 441 m20
 [] 0 sd 1 lw [] 0 sd 1 lw 1232 194 m 124 Y s [] 0 sd 1 lw 1232 318 m 124 Y s [] 0 sd 1 lw 1226 318 m 6 X s [] 0 sd 1 lw
 1232 318 m 6 X s [] 0 sd 1 lw 1232 318 m20 [] 0 sd 1 lw [] 0 sd 1 lw 1244 441 m 247 Y s [] 0 sd 1 lw 1244 688 m 248 Y s
 [] 0 sd 1 lw 1238 688 m 6 X s [] 0 sd 1 lw 1244 688 m 6 X s [] 0 sd 1 lw 1244 688 m20 [] 0 sd 1 lw [] 0 sd 1 lw 1256
 194 m 124 Y s [] 0 sd 1 lw 1256 318 m 123 Y s [] 0 sd 1 lw 1250 318 m 6 X s [] 0 sd 1 lw 1256 318 m 6 X s [] 0 sd 1 lw
 1256 318 m20 [] 0 sd 1 lw [] 0 sd 1 lw 1268 267 m 174 Y s [] 0 sd 1 lw 1268 441 m 174 Y s [] 0 sd 1 lw 1262 441 m 6 X s
 [] 0 sd 1 lw 1268 441 m 6 X s [] 0 sd 1 lw 1268 441 m20 [] 0 sd 1 lw [] 0 sd 1 lw 1279 194 m 123 Y s [] 0 sd 1 lw 1279
 317 m 123 Y s [] 0 sd 1 lw 1274 317 m 5 X s [] 0 sd 1 lw 1279 317 m 6 X s [] 0 sd 1 lw 1279 317 m20 [] 0 sd 1 lw
 [] 0 sd 1 lw 1291 267 m 174 Y s [] 0 sd 1 lw 1291 441 m 174 Y s [] 0 sd 1 lw 1285 441 m 6 X s [] 0 sd 1 lw 1291 441 m 6
 X s [] 0 sd 1 lw 1291 441 m20 [] 0 sd 1 lw [] 0 sd 1 lw 1303 267 m 174 Y s [] 0 sd 1 lw 1303 441 m 174 Y s [] 0 sd 1 lw
 1297 441 m 6 X s [] 0 sd 1 lw 1303 441 m 6 X s [] 0 sd 1 lw 1303 441 m20 [] 0 sd 1 lw [] 0 sd 1 lw 1315 267 m 174 Y s
 [] 0 sd 1 lw 1315 441 m 175 Y s [] 0 sd 1 lw 1309 441 m 6 X s [] 0 sd 1 lw 1315 441 m 6 X s [] 0 sd 1 lw 1315 441 m20
 [] 0 sd 1 lw [] 0 sd 1 lw 1327 351 m 214 Y s [] 0 sd 1 lw 1327 565 m 214 Y s [] 0 sd 1 lw 1321 565 m 6 X s [] 0 sd 1 lw
 1327 565 m 6 X s [] 0 sd 1 lw 1327 565 m20 [] 0 sd 1 lw [] 0 sd 1 lw 1338 194 m 124 Y s [] 0 sd 1 lw 1338 318 m 123 Y s
 [] 0 sd 1 lw 1333 318 m 5 X s [] 0 sd 1 lw 1338 318 m 6 X s [] 0 sd 1 lw 1338 318 m20 [] 0 sd 1 lw [] 0 sd 1 lw 1350
 194 m 124 Y s [] 0 sd 1 lw 1350 318 m 124 Y s [] 0 sd 1 lw 1344 318 m 6 X s [] 0 sd 1 lw 1350 318 m 6 X s [] 0 sd 1 lw
 1350 318 m20 [] 0 sd 1 lw [] 0 sd 1 lw 1356 194 m 6 X s [] 0 sd 1 lw 1362 194 m 6 X s [] 0 sd 1 lw 1374 267 m 174 Y s
 [] 0 sd 1 lw 1374 441 m 175 Y s [] 0 sd 1 lw 1368 441 m 6 X s [] 0 sd 1 lw 1374 441 m 6 X s [] 0 sd 1 lw 1374 441 m20
 [] 0 sd 1 lw [] 0 sd 1 lw 1386 536 m 276 Y s [] 0 sd 1 lw 1386 812 m 276 Y s [] 0 sd 1 lw 1380 812 m 6 X s [] 0 sd 1 lw
 1386 812 m 5 X s [] 0 sd 1 lw 1386 812 m20 [] 0 sd 1 lw [] 0 sd 1 lw 1397 267 m 175 Y s [] 0 sd 1 lw 1397 442 m 174 Y s
 [] 0 sd 1 lw 1391 442 m 6 X s [] 0 sd 1 lw 1397 442 m 6 X s [] 0 sd 1 lw 1397 442 m20 [] 0 sd 1 lw [] 0 sd 1 lw 1409
 351 m 214 Y s [] 0 sd 1 lw 1409 565 m 213 Y s [] 0 sd 1 lw 1403 565 m 6 X s [] 0 sd 1 lw 1409 565 m 6 X s [] 0 sd 1 lw
 1409 565 m20 [] 0 sd 1 lw [] 0 sd 1 lw 1421 351 m 214 Y s [] 0 sd 1 lw 1421 565 m 214 Y s [] 0 sd 1 lw 1415 565 m 6 X s
 [] 0 sd 1 lw 1421 565 m 6 X s [] 0 sd 1 lw 1421 565 m20 [] 0 sd 1 lw [] 0 sd 1 lw 1433 441 m 246 Y s [] 0 sd 1 lw 1433
 687 m 246 Y s [] 0 sd 1 lw 1427 687 m 6 X s [] 0 sd 1 lw 1433 687 m 6 X s [] 0 sd 1 lw 1433 687 m20 [] 0 sd 1 lw
 [] 0 sd 1 lw 1445 536 m 276 Y s [] 0 sd 1 lw 1445 812 m 277 Y s [] 0 sd 1 lw 1439 812 m 6 X s [] 0 sd 1 lw 1445 812 m 5
 X s [] 0 sd 1 lw 1445 812 m20 [] 0 sd 1 lw [] 0 sd 1 lw 1456 267 m 174 Y s [] 0 sd 1 lw 1456 441 m 174 Y s [] 0 sd 1 lw
 1450 441 m 6 X s [] 0 sd 1 lw 1456 441 m 6 X s [] 0 sd 1 lw 1456 441 m20 [] 0 sd 1 lw [] 0 sd 1 lw 1468 441 m 247 Y s
 [] 0 sd 1 lw 1468 688 m 247 Y s [] 0 sd 1 lw 1462 688 m 6 X s [] 0 sd 1 lw 1468 688 m 6 X s [] 0 sd 1 lw 1468 688 m20
 [] 0 sd 1 lw [] 0 sd 1 lw 1480 536 m 276 Y s [] 0 sd 1 lw 1480 812 m 276 Y s [] 0 sd 1 lw 1474 812 m 6 X s [] 0 sd 1 lw
 1480 812 m 6 X s [] 0 sd 1 lw 1480 812 m20 [] 0 sd 1 lw [] 0 sd 1 lw 1492 267 m 175 Y s [] 0 sd 1 lw 1492 442 m 174 Y s
 [] 0 sd 1 lw 1486 442 m 6 X s [] 0 sd 1 lw 1492 442 m 6 X s [] 0 sd 1 lw 1492 442 m20 [] 0 sd 1 lw [] 0 sd 1 lw 1503
 442 m 247 Y s [] 0 sd 1 lw 1503 689 m 248 Y s [] 0 sd 1 lw 1498 689 m 5 X s [] 0 sd 1 lw 1503 689 m 6 X s [] 0 sd 1 lw
 1503 689 m20 [] 0 sd 1 lw [] 0 sd 1 lw 1515 441 m 247 Y s [] 0 sd 1 lw 1515 688 m 247 Y s [] 0 sd 1 lw 1509 688 m 6 X s
 [] 0 sd 1 lw 1515 688 m 6 X s [] 0 sd 1 lw 1515 688 m20 [] 0 sd 1 lw [] 0 sd 1 lw 1527 441 m 247 Y s [] 0 sd 1 lw 1527
 688 m 246 Y s [] 0 sd 1 lw 1521 688 m 6 X s [] 0 sd 1 lw 1527 688 m 6 X s [] 0 sd 1 lw 1527 688 m20 [] 0 sd 1 lw
 [] 0 sd 1 lw 1539 536 m 276 Y s [] 0 sd 1 lw 1539 812 m 276 Y s [] 0 sd 1 lw 1533 812 m 6 X s [] 0 sd 1 lw 1539 812 m 6
 X s [] 0 sd 1 lw 1539 812 m20 [] 0 sd 1 lw [] 0 sd 1 lw 1545 194 m 6 X s [] 0 sd 1 lw 1551 194 m 6 X s [] 0 sd 1 lw
 1562 351 m 213 Y s [] 0 sd 1 lw 1562 564 m 214 Y s [] 0 sd 1 lw 1557 564 m 5 X s [] 0 sd 1 lw 1562 564 m 6 X s [] 0 sd
 1 lw 1562 564 m20 [] 0 sd 1 lw [] 0 sd 1 lw 1568 194 m 6 X s [] 0 sd 1 lw 1574 194 m 6 X s [] 0 sd 1 lw 1586 441 m 246
 Y s [] 0 sd 1 lw 1586 687 m 247 Y s [] 0 sd 1 lw 1580 687 m 6 X s [] 0 sd 1 lw 1586 687 m 6 X s [] 0 sd 1 lw 1586 687
 m20 [] 0 sd 1 lw [] 0 sd 1 lw 1598 267 m 174 Y s [] 0 sd 1 lw 1598 441 m 174 Y s [] 0 sd 1 lw 1592 441 m 6 X s [] 0 sd
 1 lw 1598 441 m 6 X s [] 0 sd 1 lw 1598 441 m20 [] 0 sd 1 lw [] 0 sd 1 lw 1610 351 m 214 Y s [] 0 sd 1 lw 1610 565 m
 213 Y s [] 0 sd 1 lw 1604 565 m 6 X s [] 0 sd 1 lw 1610 565 m 6 X s [] 0 sd 1 lw 1610 565 m20 [] 0 sd 1 lw [] 0 sd 1 lw
 1621 194 m 124 Y s [] 0 sd 1 lw 1621 318 m 124 Y s [] 0 sd 1 lw 1616 318 m 5 X s [] 0 sd 1 lw 1621 318 m 6 X s [] 0 sd
 1 lw 1621 318 m20 [] 0 sd 1 lw [] 0 sd 1 lw 1633 194 m 124 Y s [] 0 sd 1 lw 1633 318 m 123 Y s [] 0 sd 1 lw 1627 318 m
 6 X s [] 0 sd 1 lw 1633 318 m 6 X s [] 0 sd 1 lw 1633 318 m20 [] 0 sd 1 lw [] 0 sd 1 lw 1645 267 m 174 Y s [] 0 sd 1 lw
 1645 441 m 175 Y s [] 0 sd 1 lw 1639 441 m 6 X s [] 0 sd 1 lw 1645 441 m 6 X s [] 0 sd 1 lw 1645 441 m20 [] 0 sd 1 lw
 [] 0 sd 1 lw 1657 351 m 214 Y s [] 0 sd 1 lw 1657 565 m 214 Y s [] 0 sd 1 lw 1651 565 m 6 X s [] 0 sd 1 lw 1657 565 m 6
 X s [] 0 sd 1 lw 1657 565 m20 [] 0 sd 1 lw [] 0 sd 1 lw 1669 194 m 124 Y s [] 0 sd 1 lw 1669 318 m 124 Y s [] 0 sd 1 lw
 1663 318 m 6 X s [] 0 sd 1 lw 1669 318 m 5 X s [] 0 sd 1 lw 1669 318 m20 [] 0 sd 1 lw [] 0 sd 1 lw 1680 536 m 276 Y s
 [] 0 sd 1 lw 1680 812 m 277 Y s [] 0 sd 1 lw 1674 812 m 6 X s [] 0 sd 1 lw 1680 812 m 6 X s [] 0 sd 1 lw 1680 812 m20
 [] 0 sd 1 lw [] 0 sd 1 lw 1692 351 m 214 Y s [] 0 sd 1 lw 1692 565 m 214 Y s [] 0 sd 1 lw 1686 565 m 6 X s [] 0 sd 1 lw
 1692 565 m 6 X s [] 0 sd 1 lw 1692 565 m20 [] 0 sd 1 lw [] 0 sd 1 lw 1698 194 m 6 X s [] 0 sd 1 lw 1704 194 m 6 X s
 [] 0 sd 1 lw 1716 935 m 370 Y s [] 0 sd 1 lw 1716 1305 m 370 Y s [] 0 sd 1 lw 1710 1305 m 6 X s [] 0 sd 1 lw 1716 1305
 m 6 X s [] 0 sd 1 lw 1716 1305 m20 [] 0 sd 1 lw [] 0 sd 1 lw 1728 194 m 124 Y s [] 0 sd 1 lw 1728 318 m 123 Y s [] 0 sd
 1 lw 1722 318 m 6 X s [] 0 sd 1 lw 1728 318 m 5 X s [] 0 sd 1 lw 1728 318 m20 [] 0 sd 1 lw [] 0 sd 1 lw 1739 194 m 124
 Y s [] 0 sd 1 lw 1739 318 m 124 Y s [] 0 sd 1 lw 1733 318 m 6 X s [] 0 sd 1 lw 1739 318 m 6 X s [] 0 sd 1 lw 1739 318
 m20 [] 0 sd 1 lw [] 0 sd 1 lw 1751 351 m 213 Y s [] 0 sd 1 lw 1751 564 m 213 Y s [] 0 sd 1 lw 1745 564 m 6 X s [] 0 sd
 1 lw 1751 564 m 6 X s [] 0 sd 1 lw 1751 564 m20 [] 0 sd 1 lw [] 0 sd 1 lw 1757 194 m 6 X s [] 0 sd 1 lw 1763 194 m 6 X
 s [] 0 sd 1 lw 1775 351 m 213 Y s [] 0 sd 1 lw 1775 564 m 214 Y s [] 0 sd 1 lw 1769 564 m 6 X s [] 0 sd 1 lw 1775 564 m
 6 X s [] 0 sd 1 lw 1775 564 m20 [] 0 sd 1 lw [] 0 sd 1 lw 1787 267 m 174 Y s [] 0 sd 1 lw 1787 441 m 175 Y s [] 0 sd 1
 lw 1781 441 m 6 X s [] 0 sd 1 lw 1787 441 m 5 X s [] 0 sd 1 lw 1787 441 m20 [] 0 sd 1 lw [] 0 sd 1 lw 1798 731 m 327 Y
 s [] 0 sd 1 lw 1798 1058 m 326 Y s [] 0 sd 1 lw 1792 1058 m 6 X s [] 0 sd 1 lw 1798 1058 m 6 X s [] 0 sd 1 lw 1798 1058
 m20 [] 0 sd 1 lw [] 0 sd 1 lw 1810 535 m 276 Y s [] 0 sd 1 lw 1810 811 m 276 Y s [] 0 sd 1 lw 1804 811 m 6 X s [] 0 sd
 1 lw 1810 811 m 6 X s [] 0 sd 1 lw 1810 811 m20 [] 0 sd 1 lw [] 0 sd 1 lw 1822 194 m 124 Y s [] 0 sd 1 lw 1822 318 m
 124 Y s [] 0 sd 1 lw 1816 318 m 6 X s [] 0 sd 1 lw 1822 318 m 6 X s [] 0 sd 1 lw 1822 318 m20 [] 0 sd 1 lw [] 0 sd 1 lw
 1834 442 m 247 Y s [] 0 sd 1 lw 1834 689 m 247 Y s [] 0 sd 1 lw 1828 689 m 6 X s [] 0 sd 1 lw 1834 689 m 6 X s [] 0 sd
 1 lw 1834 689 m20 [] 0 sd 1 lw [] 0 sd 1 lw 1845 267 m 174 Y s [] 0 sd 1 lw 1845 441 m 174 Y s [] 0 sd 1 lw 1840 441 m
 5 X s [] 0 sd 1 lw 1845 441 m 6 X s [] 0 sd 1 lw 1845 441 m20 [] 0 sd 1 lw [] 0 sd 1 lw 1857 266 m 175 Y s [] 0 sd 1 lw
 1857 441 m 174 Y s [] 0 sd 1 lw 1851 441 m 6 X s [] 0 sd 1 lw 1857 441 m 6 X s [] 0 sd 1 lw 1857 441 m20 [] 0 sd 1 lw
 [] 0 sd 1 lw 1869 267 m 174 Y s [] 0 sd 1 lw 1869 441 m 174 Y s [] 0 sd 1 lw 1863 441 m 6 X s [] 0 sd 1 lw 1869 441 m 6
 X s [] 0 sd 1 lw 1869 441 m20 [] 0 sd 1 lw [] 0 sd 1 lw 1881 442 m 247 Y s [] 0 sd 1 lw 1881 689 m 247 Y s [] 0 sd 1 lw
 1875 689 m 6 X s [] 0 sd 1 lw 1881 689 m 6 X s [] 0 sd 1 lw 1881 689 m20 [] 0 sd 1 lw [] 0 sd 1 lw 1893 267 m 175 Y s
 [] 0 sd 1 lw 1893 442 m 175 Y s [] 0 sd 1 lw 1887 442 m 6 X s [] 0 sd 1 lw 1893 442 m 6 X s [] 0 sd 1 lw 1893 442 m20
 [] 0 sd 1 lw [] 0 sd 1 lw 1904 267 m 174 Y s [] 0 sd 1 lw 1904 441 m 174 Y s [] 0 sd 1 lw 1899 441 m 5 X s [] 0 sd 1 lw
 1904 441 m 6 X s [] 0 sd 1 lw 1904 441 m20 [] 0 sd 1 lw [] 0 sd 1 lw 1916 267 m 174 Y s [] 0 sd 1 lw 1916 441 m 175 Y s
 [] 0 sd 1 lw 1910 441 m 6 X s [] 0 sd 1 lw 1916 441 m 6 X s [] 0 sd 1 lw 1916 441 m20 [] 0 sd 1 lw [] 0 sd 1 lw 1928
 267 m 174 Y s [] 0 sd 1 lw 1928 441 m 175 Y s [] 0 sd 1 lw 1922 441 m 6 X s [] 0 sd 1 lw 1928 441 m 6 X s [] 0 sd 1 lw
 1928 441 m20 [] 0 sd 1 lw [] 0 sd 1 lw 1940 834 m 349 Y s [] 0 sd 1 lw 1940 1183 m 350 Y s [] 0 sd 1 lw 1934 1183 m 6 X
 s [] 0 sd 1 lw 1940 1183 m 6 X s [] 0 sd 1 lw 1940 1183 m20 [] 0 sd 1 lw [] 0 sd 1 lw 1952 194 m 124 Y s [] 0 sd 1 lw
 1952 318 m 123 Y s [] 0 sd 1 lw 1946 318 m 6 X s [] 0 sd 1 lw 1952 318 m 5 X s [] 0 sd 1 lw 1952 318 m20 [] 0 sd 1 lw
 [] 0 sd 1 lw 1963 267 m 175 Y s [] 0 sd 1 lw 1963 442 m 174 Y s [] 0 sd 1 lw 1957 442 m 6 X s [] 0 sd 1 lw 1963 442 m 6
 X s [] 0 sd 1 lw 1963 442 m20 [] 0 sd 1 lw [] 0 sd 1 lw 1975 194 m 124 Y s [] 0 sd 1 lw 1975 318 m 123 Y s [] 0 sd 1 lw
 1969 318 m 6 X s [] 0 sd 1 lw 1975 318 m 6 X s [] 0 sd 1 lw 1975 318 m20 [] 0 sd 1 lw [] 0 sd 1 lw 1981 194 m 6 X s
 [] 0 sd 1 lw 1987 194 m 6 X s [] 0 sd 1 lw 1999 351 m 214 Y s [] 0 sd 1 lw 1999 565 m 214 Y s [] 0 sd 1 lw 1993 565 m 6
 X s [] 0 sd 1 lw 1999 565 m 6 X s [] 0 sd 1 lw 1999 565 m20 [] 0 sd 1 lw [] 0 sd 1 lw 2011 267 m 174 Y s [] 0 sd 1 lw
 2011 441 m 175 Y s [] 0 sd 1 lw 2005 441 m 6 X s [] 0 sd 1 lw 2011 441 m 5 X s [] 0 sd 1 lw 2011 441 m20 [] 0 sd 1 lw
 [] 0 sd 1 lw 2022 267 m 174 Y s [] 0 sd 1 lw 2022 441 m 175 Y s [] 0 sd 1 lw 2016 441 m 6 X s [] 0 sd 1 lw 2022 441 m 6
 X s [] 0 sd 1 lw 2022 441 m20 [] 0 sd 1 lw [] 0 sd 1 lw 2034 632 m 302 Y s [] 0 sd 1 lw 2034 934 m 302 Y s [] 0 sd 1 lw
 2028 934 m 6 X s [] 0 sd 1 lw 2034 934 m 6 X s [] 0 sd 1 lw 2034 934 m20 [] 0 sd 1 lw [] 0 sd 1 lw 2046 535 m 276 Y s
 [] 0 sd 1 lw 2046 811 m 276 Y s [] 0 sd 1 lw 2040 811 m 6 X s [] 0 sd 1 lw 2046 811 m 6 X s [] 0 sd 1 lw 2046 811 m20
 [] 0 sd 1 lw [] 0 sd 1 lw 2058 194 m 124 Y s [] 0 sd 1 lw 2058 318 m 123 Y s [] 0 sd 1 lw 2052 318 m 6 X s [] 0 sd 1 lw
 2058 318 m 6 X s [] 0 sd 1 lw 2058 318 m20 [] 0 sd 1 lw [] 0 sd 1 lw 2070 933 m 370 Y s [] 0 sd 1 lw 2070 1303 m 370 Y
 s [] 0 sd 1 lw 2064 1303 m 6 X s [] 0 sd 1 lw 2070 1303 m 5 X s [] 0 sd 1 lw 2070 1303 m20 [] 0 sd 1 lw [] 0 sd 1 lw
 2081 351 m 214 Y s [] 0 sd 1 lw 2081 565 m 214 Y s [] 0 sd 1 lw 2075 565 m 6 X s [] 0 sd 1 lw 2081 565 m 6 X s [] 0 sd
 1 lw 2081 565 m20 [] 0 sd 1 lw [] 0 sd 1 lw 2093 194 m 124 Y s [] 0 sd 1 lw 2093 318 m 124 Y s [] 0 sd 1 lw 2087 318 m
 6 X s [] 0 sd 1 lw 2093 318 m 6 X s [] 0 sd 1 lw 2093 318 m20 [] 0 sd 1 lw [] 0 sd 1 lw 2105 267 m 175 Y s [] 0 sd 1 lw
 2105 442 m 175 Y s [] 0 sd 1 lw 2099 442 m 6 X s [] 0 sd 1 lw 2105 442 m 6 X s [] 0 sd 1 lw 2105 442 m20 [] 0 sd 1 lw
 [] 0 sd 1 lw 2117 267 m 174 Y s [] 0 sd 1 lw 2117 441 m 175 Y s [] 0 sd 1 lw 2111 441 m 6 X s [] 0 sd 1 lw 2117 441 m 6
 X s [] 0 sd 1 lw 2117 441 m20 [] 0 sd 1 lw [] 0 sd 1 lw 2123 194 m 5 X s [] 0 sd 1 lw 2128 194 m 6 X s [] 0 sd 1 lw
 2140 267 m 175 Y s [] 0 sd 1 lw 2140 442 m 174 Y s [] 0 sd 1 lw 2134 442 m 6 X s [] 0 sd 1 lw 2140 442 m 6 X s [] 0 sd
 1 lw 2140 442 m20 [] 0 sd 1 lw [] 0 sd 1 lw 2152 732 m 326 Y s [] 0 sd 1 lw 2152 1058 m 327 Y s [] 0 sd 1 lw 2146 1058
 m 6 X s [] 0 sd 1 lw 2152 1058 m 6 X s [] 0 sd 1 lw 2152 1058 m20 [] 0 sd 1 lw [] 0 sd 1 lw 2164 194 m 124 Y s [] 0 sd
 1 lw 2164 318 m 123 Y s [] 0 sd 1 lw 2158 318 m 6 X s [] 0 sd 1 lw 2164 318 m 6 X s [] 0 sd 1 lw 2164 318 m20 [] 0 sd 1
 lw [] 0 sd 1 lw 2176 194 m 124 Y s [] 0 sd 1 lw 2176 318 m 124 Y s [] 0 sd 1 lw 2170 318 m 6 X s [] 0 sd 1 lw 2176 318
 m 6 X s [] 0 sd 1 lw 2176 318 m20 [] 0 sd 1 lw [] 0 sd 1 lw 2187 535 m 276 Y s [] 0 sd 1 lw 2187 811 m 275 Y s [] 0 sd
 1 lw 2182 811 m 5 X s [] 0 sd 1 lw 2187 811 m 6 X s [] 0 sd 1 lw 2187 811 m20 [] 0 sd 1 lw [] 0 sd 1 lw 2199 267 m 174
 Y s [] 0 sd 1 lw 2199 441 m 174 Y s [] 0 sd 1 lw 2193 441 m 6 X s [] 0 sd 1 lw 2199 441 m 6 X s [] 0 sd 1 lw 2199 441
 m20 [] 0 sd 1 lw [] 0 sd 1 lw 2211 267 m 175 Y s [] 0 sd 1 lw 2211 442 m 174 Y s [] 0 sd 1 lw 2205 442 m 6 X s [] 0 sd
 1 lw 2211 442 m 6 X s [] 0 sd 1 lw 2211 442 m20 [] 0 sd 1 lw [] 0 sd 1 lw 2223 832 m 349 Y s [] 0 sd 1 lw 2223 1181 m
 349 Y s [] 0 sd 1 lw 2217 1181 m 6 X s [] 0 sd 1 lw 2223 1181 m 6 X s [] 0 sd 1 lw 2223 1181 m20 [] 0 sd 1 lw [] 0 sd 1
 lw 2235 267 m 174 Y s [] 0 sd 1 lw 2235 441 m 175 Y s [] 0 sd 1 lw 2229 441 m 6 X s [] 0 sd 1 lw 2235 441 m 6 X s
 [] 0 sd 1 lw 2235 441 m20 [] 0 sd 1 lw [] 0 sd 1 lw 2246 351 m 214 Y s [] 0 sd 1 lw 2246 565 m 214 Y s [] 0 sd 1 lw
 2241 565 m 5 X s [] 0 sd 1 lw 2246 565 m 6 X s [] 0 sd 1 lw 2246 565 m20 [] 0 sd 1 lw [] 0 sd 1 lw 2258 536 m 276 Y s
 [] 0 sd 1 lw 2258 812 m 276 Y s [] 0 sd 1 lw 2252 812 m 6 X s [] 0 sd 1 lw 2258 812 m 6 X s [] 0 sd 1 lw 2258 812 m20
 [] 0 sd 1 lw [] 0 sd 1 lw 2270 536 m 276 Y s [] 0 sd 1 lw 2270 812 m 277 Y s [] 0 sd 1 lw 2264 812 m 6 X s [] 0 sd 1 lw
 2270 812 m 6 X s [] 0 sd 1 lw 2270 812 m20 [] 0 sd 1 lw [] 0 sd 1 lw 2282 267 m 175 Y s [] 0 sd 1 lw 2282 442 m 175 Y s
 [] 0 sd 1 lw 2276 442 m 6 X s [] 0 sd 1 lw 2282 442 m 6 X s [] 0 sd 1 lw 2282 442 m20 [] 0 sd 1 lw [] 0 sd 1 lw 2294
 351 m 214 Y s [] 0 sd 1 lw 2294 565 m 215 Y s [] 0 sd 1 lw 2288 565 m 6 X s [] 0 sd 1 lw 2294 565 m 5 X s [] 0 sd 1 lw
 2294 565 m20 [] 0 sd 1 lw [] 0 sd 1 lw 2305 351 m 213 Y s [] 0 sd 1 lw 2305 564 m 213 Y s [] 0 sd 1 lw 2299 564 m 6 X s
 [] 0 sd 1 lw 2305 564 m 6 X s [] 0 sd 1 lw 2305 564 m20 [] 0 sd 1 lw [] 0 sd 1 lw 2317 351 m 214 Y s [] 0 sd 1 lw 2317
 565 m 213 Y s [] 0 sd 1 lw 2311 565 m 6 X s [] 0 sd 1 lw 2317 565 m 6 X s [] 0 sd 1 lw 2317 565 m20 [] 0 sd 1 lw
 [] 0 sd 1 lw 2323 194 m 6 X s [] 0 sd 1 lw 2329 194 m 6 X s [] 0 sd 1 lw 2341 267 m 174 Y s [] 0 sd 1 lw 2341 441 m 175
 Y s [] 0 sd 1 lw 2335 441 m 6 X s [] 0 sd 1 lw 2341 441 m 6 X s [] 0 sd 1 lw 2341 441 m20 [] 0 sd 1 lw [] 0 sd 1 lw
 2353 441 m 247 Y s [] 0 sd 1 lw 2353 688 m 247 Y s [] 0 sd 1 lw 2347 688 m 6 X s [] 0 sd 1 lw 2353 688 m 5 X s [] 0 sd
 1 lw 2353 688 m20 [] 0 sd 1 lw [] 0 sd 1 lw 2364 351 m 213 Y s [] 0 sd 1 lw 2364 564 m 214 Y s [] 0 sd 1 lw 2358 564 m
 6 X s [] 0 sd 1 lw 2364 564 m 6 X s [] 0 sd 1 lw 2364 564 m20 [] 0 sd 1 lw [] 0 sd 1 lw 2376 351 m 213 Y s [] 0 sd 1 lw
 2376 564 m 214 Y s [] 0 sd 1 lw 2370 564 m 6 X s [] 0 sd 1 lw 2376 564 m 6 X s [] 0 sd 1 lw 2376 564 m20 [] 0 sd 1 lw
 [] 0 sd 1 lw 2388 194 m 124 Y s [] 0 sd 1 lw 2388 318 m 123 Y s [] 0 sd 1 lw 2382 318 m 6 X s [] 0 sd 1 lw 2388 318 m 6
 X s [] 0 sd 1 lw 2388 318 m20 [] 0 sd 1 lw [] 0 sd 1 lw 2400 351 m 214 Y s [] 0 sd 1 lw 2400 565 m 214 Y s [] 0 sd 1 lw
 2394 565 m 6 X s [] 0 sd 1 lw 2400 565 m 6 X s [] 0 sd 1 lw 2400 565 m20 [] 0 sd 1 lw [] 0 sd 1 lw 2411 267 m 175 Y s
 [] 0 sd 1 lw 2411 442 m 175 Y s [] 0 sd 1 lw 2406 442 m 5 X s [] 0 sd 1 lw 2411 442 m 6 X s [] 0 sd 1 lw 2411 442 m20
 [] 0 sd 1 lw [] 0 sd 1 lw 2423 194 m 124 Y s [] 0 sd 1 lw 2423 318 m 123 Y s [] 0 sd 1 lw 2417 318 m 6 X s [] 0 sd 1 lw
 2423 318 m 6 X s [] 0 sd 1 lw 2423 318 m20 [] 0 sd 1 lw [] 0 sd 1 lw 2435 351 m 214 Y s [] 0 sd 1 lw 2435 565 m 214 Y s
 [] 0 sd 1 lw 2429 565 m 6 X s [] 0 sd 1 lw 2435 565 m 6 X s [] 0 sd 1 lw 2435 565 m20 [] 0 sd 1 lw [] 0 sd 1 lw 2447
 351 m 214 Y s [] 0 sd 1 lw 2447 565 m 214 Y s [] 0 sd 1 lw 2441 565 m 6 X s [] 0 sd 1 lw 2447 565 m 6 X s [] 0 sd 1 lw
 2447 565 m20 [] 0 sd 1 lw [] 0 sd 1 lw 2459 194 m 124 Y s [] 0 sd 1 lw 2459 318 m 123 Y s [] 0 sd 1 lw 2453 318 m 6 X s
 [] 0 sd 1 lw 2459 318 m 6 X s [] 0 sd 1 lw 2459 318 m20 [] 0 sd 1 lw [] 0 sd 1 lw 2465 194 m 5 X s [] 0 sd 1 lw 2470
 194 m 6 X s [] 0 sd 1 lw 2476 194 m 6 X s [] 0 sd 1 lw 2482 194 m 6 X s [] 0 sd 1 lw 2488 194 m 6 X s [] 0 sd 1 lw 2494
 194 m 6 X s [] 0 sd 1 lw 2500 194 m 6 X s [] 0 sd 1 lw 2506 194 m 6 X s [] 0 sd 1 lw 2512 194 m 6 X s [] 0 sd 1 lw 2518
 194 m 6 X s [] 0 sd 1 lw 2524 194 m 5 X s [] 0 sd 1 lw 2529 194 m 6 X s [] 0 sd 1 lw 2535 194 m 6 X s [] 0 sd 1 lw 2541
 194 m 6 X s [] 0 sd 1 lw 2547 194 m 6 X s [] 0 sd 1 lw 2553 194 m 6 X s [] 0 sd 1 lw 2559 194 m 6 X s [] 0 sd 1 lw 2565
 194 m 6 X s [] 0 sd 1 lw 2571 194 m 6 X s [] 0 sd 1 lw 2577 194 m 5 X s [] 0 sd 1 lw 2582 194 m 6 X s [] 0 sd 1 lw 2588
 194 m 6 X s [] 0 sd 1 lw 2594 194 m 6 X s [] 0 sd 1 lw 2600 194 m 6 X s [] 0 sd 1 lw 2606 194 m 6 X s [] 0 sd 1 lw 2612
 194 m 6 X s [] 0 sd 1 lw 2618 194 m 6 X s [] 0 sd 1 lw 2624 194 m 6 X s [] 0 sd 1 lw 2630 194 m 6 X s [] 0 sd 1 lw 2636
 194 m 5 X s [] 0 sd 1 lw 2641 194 m 6 X s [] 0 sd 1 lw 2647 194 m 6 X s [] 0 sd 1 lw [] 0 sd 1 lw 295 194 m 2358 X s s
 /xs 0 def (Z \(cm\)) /Helvetica-Bold 72 stwn  gsave  2653 49
 t 0 r  xs neg 0 t 0 0 m /Helvetica-Bold findfont 72 sf 0 0 m (Z \(cm\)) show  gr  [] 0 sd 1 lw [] 0 sd 1 lw 317 241 m
 -47 Y s s [] 0 sd 1 lw [] 0 sd 1 lw 414 218 m -24 Y s s [] 0 sd 1 lw [] 0 sd 1 lw 510 218 m -24 Y s s [] 0 sd 1 lw
 [] 0 sd 1 lw 607 218 m -24 Y s s [] 0 sd 1 lw [] 0 sd 1 lw 703 241 m -47 Y s s [] 0 sd 1 lw [] 0 sd 1 lw 799 218 m -24
 Y s s [] 0 sd 1 lw [] 0 sd 1 lw 896 218 m -24 Y s s [] 0 sd 1 lw [] 0 sd 1 lw 992 218 m -24 Y s s [] 0 sd 1 lw [] 0 sd
 1 lw 1088 241 m -47 Y s s [] 0 sd 1 lw [] 0 sd 1 lw 1185 218 m -24 Y s s [] 0 sd 1 lw [] 0 sd 1 lw 1281 218 m -24 Y s s
 [] 0 sd 1 lw [] 0 sd 1 lw 1378 218 m -24 Y s s [] 0 sd 1 lw [] 0 sd 1 lw 1474 241 m -47 Y s s [] 0 sd 1 lw [] 0 sd 1 lw
 1570 218 m -24 Y s s [] 0 sd 1 lw [] 0 sd 1 lw 1667 218 m -24 Y s s [] 0 sd 1 lw [] 0 sd 1 lw 1763 218 m -24 Y s s
 [] 0 sd 1 lw [] 0 sd 1 lw 1860 241 m -47 Y s s [] 0 sd 1 lw [] 0 sd 1 lw 1956 218 m -24 Y s s [] 0 sd 1 lw [] 0 sd 1 lw
 2052 218 m -24 Y s s [] 0 sd 1 lw [] 0 sd 1 lw 2149 218 m -24 Y s s [] 0 sd 1 lw [] 0 sd 1 lw 2245 241 m -47 Y s s
 [] 0 sd 1 lw [] 0 sd 1 lw 2342 218 m -24 Y s s [] 0 sd 1 lw [] 0 sd 1 lw 2438 218 m -24 Y s s [] 0 sd 1 lw [] 0 sd 1 lw
 2534 218 m -24 Y s s [] 0 sd 1 lw [] 0 sd 1 lw 2631 241 m -47 Y s s [] 0 sd 1 lw [] 0 sd 1 lw 317 241 m -47 Y s s
 [] 0 sd 1 lw [] 0 sd 1 lw 2631 241 m -47 Y s s
 /xs 0 def (-60) /Helvetica-Bold 72 stwn  gsave  317 107
 t 0 r xs 2 div neg 0 t 0 0 m /Helvetica-Bold findfont 72 sf 0 0 m (-60) show  gr 
 /xs 0 def (-40) /Helvetica-Bold 72 stwn  gsave  703 107
 t 0 r xs 2 div neg 0 t 0 0 m /Helvetica-Bold findfont 72 sf 0 0 m (-40) show  gr 
 /xs 0 def (-20) /Helvetica-Bold 72 stwn  gsave  1088 107
 t 0 r xs 2 div neg 0 t 0 0 m /Helvetica-Bold findfont 72 sf 0 0 m (-20) show  gr 
 /xs 0 def (0) /Helvetica-Bold 72 stwn  gsave  1474 107
 t 0 r xs 2 div neg 0 t 0 0 m /Helvetica-Bold findfont 72 sf 0 0 m (0) show  gr 
 /xs 0 def (20) /Helvetica-Bold 72 stwn  gsave  1860 107
 t 0 r xs 2 div neg 0 t 0 0 m /Helvetica-Bold findfont 72 sf 0 0 m (20) show  gr 
 /xs 0 def (40) /Helvetica-Bold 72 stwn  gsave  2245 107
 t 0 r xs 2 div neg 0 t 0 0 m /Helvetica-Bold findfont 72 sf 0 0 m (40) show  gr 
 /xs 0 def (60) /Helvetica-Bold 72 stwn  gsave  2631 107
 t 0 r xs 2 div neg 0 t 0 0 m /Helvetica-Bold findfont 72 sf 0 0 m (60) show  gr  [] 0 sd 1 lw [] 0 sd 1 lw 295 194 m
 1556 Y s s
 /xs 0 def (Number of Hits \(cm) /Helvetica-Bold 72 stwn (-2\)) /Helvetica-Bold 50 stwn  gsave  136 1750
 t 90 r  xs neg 0 t 0 0 m /Helvetica-Bold findfont 72 sf 0 0 m (Number of Hits \(cm) show  currentpoint pop 0 t 
 /Helvetica-Bold findfont 50 sf 0 36 m (-2\)) show  gr  [] 0 sd 1 lw [] 0 sd 1 lw 366 194 m -71 X s s [] 0 sd 1 lw
 [] 0 sd 1 lw 330 228 m -35 X s s [] 0 sd 1 lw [] 0 sd 1 lw 330 262 m -35 X s s [] 0 sd 1 lw [] 0 sd 1 lw 330 296 m -35
 X s s [] 0 sd 1 lw [] 0 sd 1 lw 330 331 m -35 X s s [] 0 sd 1 lw [] 0 sd 1 lw 366 365 m -71 X s s [] 0 sd 1 lw [] 0 sd
 1 lw 330 399 m -35 X s s [] 0 sd 1 lw [] 0 sd 1 lw 330 433 m -35 X s s [] 0 sd 1 lw [] 0 sd 1 lw 330 467 m -35 X s s
 [] 0 sd 1 lw [] 0 sd 1 lw 330 501 m -35 X s s [] 0 sd 1 lw [] 0 sd 1 lw 366 535 m -71 X s s [] 0 sd 1 lw [] 0 sd 1 lw
 330 569 m -35 X s s [] 0 sd 1 lw [] 0 sd 1 lw 330 603 m -35 X s s [] 0 sd 1 lw [] 0 sd 1 lw 330 637 m -35 X s s [] 0 sd
 1 lw [] 0 sd 1 lw 330 671 m -35 X s s [] 0 sd 1 lw [] 0 sd 1 lw 366 705 m -71 X s s [] 0 sd 1 lw [] 0 sd 1 lw 330 739 m
 -35 X s s [] 0 sd 1 lw [] 0 sd 1 lw 330 773 m -35 X s s [] 0 sd 1 lw [] 0 sd 1 lw 330 807 m -35 X s s [] 0 sd 1 lw
 [] 0 sd 1 lw 330 841 m -35 X s s [] 0 sd 1 lw [] 0 sd 1 lw 366 875 m -71 X s s [] 0 sd 1 lw [] 0 sd 1 lw 330 909 m -35
 X s s [] 0 sd 1 lw [] 0 sd 1 lw 330 943 m -35 X s s [] 0 sd 1 lw [] 0 sd 1 lw 330 977 m -35 X s s [] 0 sd 1 lw [] 0 sd
 1 lw 330 1011 m -35 X s s [] 0 sd 1 lw [] 0 sd 1 lw 366 1045 m -71 X s s [] 0 sd 1 lw [] 0 sd 1 lw 330 1079 m -35 X s s
 [] 0 sd 1 lw [] 0 sd 1 lw 330 1113 m -35 X s s [] 0 sd 1 lw [] 0 sd 1 lw 330 1147 m -35 X s s [] 0 sd 1 lw [] 0 sd 1 lw
 330 1181 m -35 X s s [] 0 sd 1 lw [] 0 sd 1 lw 366 1215 m -71 X s s [] 0 sd 1 lw [] 0 sd 1 lw 330 1249 m -35 X s s
 [] 0 sd 1 lw [] 0 sd 1 lw 330 1283 m -35 X s s [] 0 sd 1 lw [] 0 sd 1 lw 330 1317 m -35 X s s [] 0 sd 1 lw [] 0 sd 1 lw
 330 1351 m -35 X s s [] 0 sd 1 lw [] 0 sd 1 lw 366 1385 m -71 X s s [] 0 sd 1 lw [] 0 sd 1 lw 330 1419 m -35 X s s
 [] 0 sd 1 lw [] 0 sd 1 lw 330 1453 m -35 X s s [] 0 sd 1 lw [] 0 sd 1 lw 330 1487 m -35 X s s [] 0 sd 1 lw [] 0 sd 1 lw
 330 1521 m -35 X s s [] 0 sd 1 lw [] 0 sd 1 lw 366 1555 m -71 X s s [] 0 sd 1 lw [] 0 sd 1 lw 330 1590 m -35 X s s
 [] 0 sd 1 lw [] 0 sd 1 lw 330 1624 m -35 X s s [] 0 sd 1 lw [] 0 sd 1 lw 330 1658 m -35 X s s [] 0 sd 1 lw [] 0 sd 1 lw
 330 1692 m -35 X s s [] 0 sd 1 lw [] 0 sd 1 lw 366 1726 m -71 X s s [] 0 sd 1 lw [] 0 sd 1 lw 366 1726 m -71 X s s
 /xs 0 def (0) /Helvetica-Bold 72 stwn  gsave  280 174
 t 0 r  xs neg 0 t 0 0 m /Helvetica-Bold findfont 72 sf 0 0 m (0) show  gr 
 /xs 0 def (0.1) /Helvetica-Bold 72 stwn  gsave  280 344
 t 0 r  xs neg 0 t 0 0 m /Helvetica-Bold findfont 72 sf 0 0 m (0.1) show  gr 
 /xs 0 def (0.2) /Helvetica-Bold 72 stwn  gsave  280 514
 t 0 r  xs neg 0 t 0 0 m /Helvetica-Bold findfont 72 sf 0 0 m (0.2) show  gr 
 /xs 0 def (0.3) /Helvetica-Bold 72 stwn  gsave  280 684
 t 0 r  xs neg 0 t 0 0 m /Helvetica-Bold findfont 72 sf 0 0 m (0.3) show  gr 
 /xs 0 def (0.4) /Helvetica-Bold 72 stwn  gsave  280 854
 t 0 r  xs neg 0 t 0 0 m /Helvetica-Bold findfont 72 sf 0 0 m (0.4) show  gr 
 /xs 0 def (0.5) /Helvetica-Bold 72 stwn  gsave  280 1024
 t 0 r  xs neg 0 t 0 0 m /Helvetica-Bold findfont 72 sf 0 0 m (0.5) show  gr 
 /xs 0 def (0.6) /Helvetica-Bold 72 stwn  gsave  280 1195
 t 0 r  xs neg 0 t 0 0 m /Helvetica-Bold findfont 72 sf 0 0 m (0.6) show  gr 
 /xs 0 def (0.7) /Helvetica-Bold 72 stwn  gsave  280 1365
 t 0 r  xs neg 0 t 0 0 m /Helvetica-Bold findfont 72 sf 0 0 m (0.7) show  gr 
 /xs 0 def (0.8) /Helvetica-Bold 72 stwn  gsave  280 1535
 t 0 r  xs neg 0 t 0 0 m /Helvetica-Bold findfont 72 sf 0 0 m (0.8) show  gr 
 /xs 0 def (0.9) /Helvetica-Bold 72 stwn  gsave  280 1705
 t 0 r  xs neg 0 t 0 0 m /Helvetica-Bold findfont 72 sf 0 0 m (0.9) show  gr  [] 0 sd 1 lw 0.95 0.95 0.95 c 1342 97 29
 1837 bf black [] 0 sd 1 lw 49 1837 m -13 Y 1335 X 91 Y -13 X -78 Y f [] 0 sd 1 lw 29 1837 m 97 Y s [] 0 sd 1 lw 29 1934
 m 1342 X s [] 0 sd 1 lw 1371 1934 m -97 Y s [] 0 sd 1 lw 1371 1837 m -1342 X s
 /xs 0 def (Density of Hits for Layer 6) /Helvetica-Bold 76 stwn  gsave  700 1864
 t 0 r xs 2 div neg 0 t 0 0 m /Helvetica-Bold findfont 76 sf 0 0 m (Density of Hits for Layer 6) show  gr  [] 0 sd 1 lw
 0.95 0.95 0.95 c 590 311 2299 1594 bf black [] 0 sd 1 lw 2319 1594 m -13 Y 583 X 305 Y -13 X -292 Y f [] 0 sd 1 lw 2299
 1594 m 311 Y s [] 0 sd 1 lw 2299 1905 m 590 X s [] 0 sd 1 lw 2889 1905 m -311 Y s [] 0 sd 1 lw 2889 1594 m -590 X s
 gsave  2329 1849
 t 0 r 0 0 m /Helvetica-Bold findfont 64 sf 0 0 m (hzetapden_z6) show  gr 
 gsave  2329 1771
 t 0 r 0 0 m /Helvetica-Bold findfont 64 sf 0 0 m (Nent = 31    \040) show  gr 
 gsave  2329 1693
 t 0 r 0 0 m /Helvetica-Bold findfont 64 sf 0 0 m (Mean  =  2.577) show  gr 
 gsave  2329 1615
 t 0 r 0 0 m /Helvetica-Bold findfont 64 sf 0 0 m (RMS   =  28.79) show  gr  1 1 0 c gr 
showpage gr
 gr 
%%Trailer
%%Pages:  1
%%EOF
