%!PS-Adobe-2.0
%%Title: ITShitOccupancy_1_z.ps (Landscape A 4)
%%Pages: (atend)
%%Creator: ROOT Version 2.22/09
%%CreationDate:Sat Sep 18 07:10:17 1999
%%EndComments
%%BeginProlog
/s {stroke} def /l {lineto} def /m {moveto} def /t {translate} def
/sw {stringwidth} def /r {rotate} def /rl {roll}  def /R {repeat} def
/d {rlineto} def /rm {rmoveto} def /gr {grestore} def /f {eofill} def
/c {setrgbcolor} def /lw {setlinewidth} def /sd {setdash} def
/cl {closepath} def /sf {scalefont setfont} def /black {0 setgray} def
/box {m dup 0 exch d exch 0 d 0 exch neg d cl} def
/NC{systemdict begin initclip end}def/C{NC box clip newpath}def
/bl {box s} def /bf {box f} def /Y { 0 exch d} def /X { 0 d} def 
/mp {newpath /y exch def /x exch def} def
/side {[w .77 mul w .23 mul] .385 w mul sd w 0 l currentpoint t -144 r} def
/mr {mp x y w2 0 360 arc} def /m24 {mr s} def /m20 {mr f} def
/mb {mp x y w2 add m w2 neg 0 d 0 w neg d w 0 d 0 w d cl} def
/mt {mp x y w2 add m w2 neg w neg d w 0 d cl} def
/m21 {mb f} def /m25 {mb s} def /m22 {mt f} def /m26{mt s} def
/m23 {mp x y w2 sub m w2 w d w neg 0 d cl f} def
/m27 {mp x y w2 add m w3 neg w2 neg d w3 w2 neg d w3 w2 d cl s} def
/m28 {mp x w2 sub y w2 sub w3 add m w3 0 d  0 w3 neg d w3 0 d 0 w3 d w3 0 d  0 w3 d w3 neg 0 d 0 w3 d w3 neg 0 d
 0 w3 neg d w3 neg 0 d cl s } def
/m29 {mp gsave x w2 sub y w2 add w3 sub m currentpoint t
 4 {side} repeat cl fill gr} def
/m30 {mp gsave x w2 sub y w2 add w3 sub m currentpoint t
 5 {side} repeat s gr} def
/m31 {mp x y w2 sub m 0 w d x w2 sub y m w 0 d x w2 sub y w2 add m w w neg d x w2 sub y w2
 sub m w w d s} def
/m2 {mp x y w2 sub m 0 w d x w2 sub y m w 0 d s} def
/m5 {mp x w2 sub y w2 sub m w w d x w2 sub y w2 add m w w neg d s} def
/DP {/PT exch def gsave 47.2 47.2 scale PT 1  eq { 16 16 1 [ 16 0 0 16 neg 0 16
] { < AA AA 55 55 AA AA 55 55 AA AA 55 55 AA AA 55 55 AA AA 55 55 AA AA 55 55
AA AA 55 55 AA AA 55 55 > } image } if PT 2 eq { 16 16 1 [ 16 0 0 16 neg 0 16
] { < BB BB EE EE BB BB EE EE BB BB EE EE BB BB EE EE BB BB EE EE BB BB EE EE
BB BB EE EE BB BB EE EE > } image } if PT 3 eq { 16 16 1 [ 16 0 0 16 neg 0 16
] { < FF FF BB BB FF FF EE EE FF FF BB BB FF FF EE EE FF FF BB BB FF FF EE EE
FF FF BB BB FF FF EE EE > } image } if PT 4 eq { 16 16 1 [ 16 0 0 16 neg 0 16
] { < DF DF BF BF 7F 7F FE FE FD FD FB FB F7 F7 EF EF DF DF BF BF 7F 7F FE FE
FD FD FB FB F7 F7 EF EF > } image } if PT 5 eq { 16 16 1 [ 16 0 0 16 neg 0 16
] { < 7F 7F BF B F DF DF EF EF F7 F7 FB FB FD FD FE FE 7F 7F BF BF DF DF EF
EF F7 F7 FB FB FD FD FE FE > } image } if PT 6 eq { 16 16 1 [ 16 0 0 16 neg 0
16 ] { < BB BB BB BB BB BB BB BB BB BB BB BB BB BB BB BB BB BB BB BB BB BB BB
BB BB BB BB BB BB BB BB BB > } image } if PT 7 eq { 16 16 1 [ 16 0 0 16 neg 0
16 ] { < FF FF FF FF FF FF 00 00 FF FF FF FF FF FF 00 00 FF FF FF FF FF FF 00
00 FF FF FF FF FF FF 00 00 > } image } if PT 8 eq { 16 16 1 [ 16 0 0 16 neg 0
16 ] { < EE EE 47 47 83 83 C5 C5 EE EE 5C 5C 38 38 74 74 EE EE 47 47 83 83 C5
C5 EE EE 5C 5C 38 38 74 74 > } image } if PT 9 eq { 16 16 1 [ 16 0 0 16 neg 0
16 ] { < EF EF EF EF D7 D7 38 38 FE FE FE FE 7D 7D 83 83 EF EF EF EF D7 D7 38
38  FE FE FE FE 7D 7D 83 83 > } image } if PT 10 eq { 16 16 1 [ 16 0 0 16 neg
0 16 ] { <  EF EF EF EF EF EF 00 00 FE FE FE FE FE FE 00 00 EF EF EF EF EF EF
00 00 FE FE FE FE FE FE 00 00 > } image } if PT 11 eq { 16 16 1 [ 16 0 0 16
neg 0 16 ] { < F7 F7 B6 B6 D5 D5 E3 E3 D5 D5 B6 B6 F7 F7 FF FF 7F 7F 6B 6B 5D
5D 3E 3E 5D 5D 6B 6B 7F 7F FF FF > } image } if PT 12 eq { 16 16 1 [ 16 0 0
16 neg 0 16 ] { < E3 E3 DD DD BE BE BE BE BE BE DD DD E3 E3 FF FF 3E 3E DD DD
EB EB EB EB EB EB DD DD 3E 3E FF FF > } image } if PT 13 eq { 16 16 1 [ 16 0
0 16 neg 0 16 ] { <  FE FE 7D 7D BB BB D7 D7 EF EF D7 D7 BB BB 7D 7D FE FE 7D
7D BB BB D7 D7 EF EF D7 D7 BB BB 7D 7D > } image } if PT 14 eq { 16 16 1 [ 16
0 0 16 neg 0 16 ] { < 00 00 EE EF EE EF EE EF 0E E0 EE EE EE EE EE EE 00 EE
FE EE FE EE FE EE 00 00 FE EF FE EF FE EF > } image } if PT 15 eq { 16 16 1 [
16 0 0 16 neg 0 16 ] { < DD DD AA AA DD DD FF FF 77 77 AA AA 77 77 FF FF DD
DD AA AA DD DD FF FF 77 77 AA AA 77 77 FF FF > } image } if PT 16 eq { 16 16
1 [ 16 0 0 16 neg 0 16 ] { <  F1 F1 EE EE 1F 1F FF FF F1 F1 EE EE 1F 1F FF FF
F1 F1 EE EE 1F 1F FF FF F1 F1 EE EE 1F 1F FF FF > } image } if PT 17 eq { 16
16 1 [ 16 0 0 16 neg 0 16 ] { <  EE EE DD DD BB BB FF FF EE EE DD DD BB BB FF
 FF EE EE DD DD BB BB FF FF EE EE DD DD BB BB FF FF > } image } if PT 18 eq {
16 16 1 [ 16 0 0 16 neg 0 16 ] { <  BB BB DD DD EE EE FF FF BB BB DD DD EE EE
FF FF BB BB DD DD EE EE FF FF BB BB DD DD EE EE FF FF > } image } if PT 19 eq
{ 16 16 1 [ 16 0 0 16 neg 0 16 ] { < 1F FC 67 F3 7B EF BD DE BD DE DE BD E6
B3 F8 0F E6 B3 DE BD BD DE BD DE 7B EF 67 F3 1F FC 7F FF > } image } if PT
20 eq { 16 16 1 [ 16 0 0 16 neg 0 16 ] { < DD DD EE EE EE EE EE EE DD DD BB
BB BB BB BB BB DD DD EE EE EE EE EE EE DD DD BB BB BB BB BB BB > } image }
if PT 21 eq { 16 16 1 [ 16 0 0 16 neg 0 16 ] { < 0E 0E EF EF EF EF EF EF E0
E0 FE FE FE FE FE FE 0E 0E EF EF EF EF EF EF E0 E0 FE FE FE FE FE FE > }
image }  if PT 22 eq { 16 16 1 [ 16 0 0 16 neg 0 16 ] { < 70 70 F7 F7 F7 F7 F7
F7 07 07 7F 7F 7F 7F 7F 7F 70 70 F7 F7 F7 F7 F7 F7 07 07 7F 7F 7F 7F 7F 7F >
} image } if PT 23 eq  { 16 16 1 [ 16 0 0 16 neg 0 16 ] { < AA AA 55 55 A9 A9
D1 D1 E1 E1 D1 D1 A9 A9 55 55 AA AA 55 55 A9 A9 D1 D1 E1 E1 D1 D1 A9 A9 55 55
> } image } if PT 24 eq { 16 16 1 [ 16 0 0 16 neg 0 16 ] { < FF FE FF FC EA
A8 D5 54 EA A8 D5 54 E8 28 D4 54 E8 E8 D4 D4 E8 EA 54 D5 A8 EA 54 D5 00 C0 00
80 > } image } if PT 25 eq {  16 16 1 [ 16 0 0 16 neg 0 16 ] { < FF FE FF FC
FF F8 FF F0 F0 00 F0 00 F0 20 F0 60 F0 E0 F1 E0 F3 E0 F0 00 E0 00 C0 00 80 00
00 00 > } image } if gr } def /FA { /PT exch def gsave clip 0 0 translate 1 1
74 { 1 sub 47.2 mul /Xcurr exch def 1 1 74 { 1 sub 47.2 mul /Ycurr exch def
gsave Xcurr Ycurr translate PT DP gr } for } for gr newpath } def
/reencdict 24 dict def /ReEncode {reencdict begin /nco&na exch def
/nfnam exch def /basefontname exch def /basefontdict basefontname findfont def
/newfont basefontdict maxlength dict def basefontdict {exch dup /FID ne
{dup /Encoding eq {exch dup length array copy newfont 3 1 roll put} {exch 
newfont 3 1 roll put} ifelse} {pop pop} ifelse } forall newfont
/FontName nfnam put nco&na aload pop nco&na length 2 idiv {newfont
/Encoding get 3 1 roll put} repeat nfnam newfont definefont pop end } def
/accvec [ 176 /agrave 181 /Agrave 190 /acircumflex 192 /Acircumflex
201 /adieresis 204 /Adieresis 209 /ccedilla 210 /Ccedilla 211 /eacute
212 /Eacute 213 /egrave 214 /Egrave 215 /ecircumflex 216 /Ecircumflex
217 /edieresis 218 /Edieresis 219 /icircumflex 220 /Icircumflex
221 /idieresis 222 /Idieresis 223 /ntilde 224 /Ntilde 226 /ocircumflex
228 /Ocircumflex 229 /odieresis 230 /Odieresis 231 /ucircumflex 236 /Ucircumflex
237 /udieresis 238 /Udieresis 239 /aring 242 /Aring 243 /ydieresis
244 /Ydieresis 246 /aacute 247 /Aacute 252 /ugrave 253 /Ugrave] def
/Times-Roman /Times-Roman accvec ReEncode
/Times-Italic /Times-Italic accvec ReEncode
/Times-Bold /Times-Bold accvec ReEncode
/Times-BoldItalic /Times-BoldItalic accvec ReEncode
/Helvetica /Helvetica accvec ReEncode
/Helvetica-Oblique /Helvetica-Oblique accvec ReEncode
/Helvetica-Bold /Helvetica-Bold accvec ReEncode
/Helvetica-BoldOblique /Helvetica-BoldOblique  accvec ReEncode
/Courier /Courier accvec ReEncode
/Courier-Oblique /Courier-Oblique accvec ReEncode
/Courier-Bold /Courier-Bold accvec ReEncode
/Courier-BoldOblique /Courier-BoldOblique accvec ReEncode
/oshow {gsave [] 0 sd true charpath stroke gr} def
/stwn { /fs exch def /fn exch def /text exch def fn findfont fs sf
 text sw pop xs add /xs exch def} def
/stwb { /fs exch def /fn exch def /nbas exch def /textf exch def
textf length /tlen exch def nbas tlen gt {/nbas tlendef} if
fn findfont fs sf textf dup length nbas sub nbas getinterval sw
pop neg xs add /xs exch def} def
/accspe [ 65 /plusminus  66 /bar  67 /existential  68 /universal 
69 /exclam  70 /numbersign 71 /greater  72 /question  73 /integral 
74 /colon  75 /semicolon  76 /less  77 /bracketleft  78 /bracketright
79 /greaterequal 80 /braceleft 81 /braceright 82 /radical
83 /spade 84 /heart 85 /diamond 86 /club 87 /lessequal
88 /multiply 89 /percent 90 /infinity 48 /circlemultiply 49 /circleplus
50 /emptyset  51 /lozenge 52 /bullet 53 /arrowright 54 /arrowup
55 /arrowleft 56 /arrowdown 57 /arrowboth 48 /degree 44 /comma 43 /plus 45 /angle 42 /angleleft 47 /divide 61 /notequal
 40 /equivalence 41 /second 97 /approxequal 98 /congruent 99 /perpendicular 100 /partialdiff 101 /florin
 102 /intersection 103 /union 104 /propersuperset 105 /reflexsuperset 106 /notsubset 107 /propersubset 108 /reflexsubset
 109 /element 110 /notelement 111 /gradient 112 /logicaland 113 /logicalor 114 /arrowdblboth 115 /arrowdblleft
 116 /arrowdblup 117 /arrowdblright 118 /arrowdbldown 119 /ampersand 120 /omega1 121 /similar 122 /aleph ] def
/Symbol /Special accspe ReEncode
/Zone {/iy exch def /ix exch def  ix 1 sub  3144 mul  1 iy sub  2224
 mul t} def
%%EndProlog
 gsave  90 r 0 -594 t  28 20 t .25 .25 scale  gsave 
%%Page: number 1
 black [] 0 sd 1 lw 0.95 0.95 0.95 c 2948 1944 0 0 bf 0.8 0.8 0.8 c 0 0 m 2 2 d 1940 Y 2944 X 2 2 d -2948 X -1944 Y f
 0.3 0.3 0.3 c 0 0 m 2 2 d 2944 X 1940 Y 2 2 d -1944 Y -2948 X f black [] 0 sd 1 lw 0.95 0.95 0.95 c 2358 1556 295 194
 bf 0.8 0.8 0.8 c 295 194 m 1 1 d 1554 Y 2356 X 1 1 d -2358 X -1556 Y f 0.3 0.3 0.3 c 295 194 m 1 1 d 2356 X 1554 Y 1 1
 d -1556 Y -2358 X f [] 0 sd 1 lw black 295 194 m 2358 X s [] 0 sd 1 lw 2653 194 m 1556 Y s [] 0 sd 1 lw 2653 1750 m
 -2358 X s [] 0 sd 1 lw 295 1750 m -1556 Y s [] 0 sd 1 lw 1 1 1 c black [] 0 sd 1 lw 295 194 m 6 X s [] 0 sd 1 lw 301
 194 m 6 X s [] 0 sd 1 lw 307 194 m 5 X s [] 0 sd 1 lw 312 194 m 6 X s [] 0 sd 1 lw 318 194 m 6 X s [] 0 sd 1 lw 324 194
 m 6 X s [] 0 sd 1 lw 330 194 m 6 X s [] 0 sd 1 lw 336 194 m 6 X s [] 0 sd 1 lw 342 194 m 6 X s [] 0 sd 1 lw 348 194 m 6
 X s [] 0 sd 1 lw 354 194 m 6 X s [] 0 sd 1 lw 360 194 m 6 X s [] 0 sd 1 lw 366 194 m 5 X s [] 0 sd 1 lw 371 194 m 6 X s
 [] 0 sd 1 lw 377 194 m 6 X s [] 0 sd 1 lw 383 194 m 6 X s [] 0 sd 1 lw 389 194 m 6 X s [] 0 sd 1 lw 395 194 m 6 X s
 [] 0 sd 1 lw 401 194 m 6 X s [] 0 sd 1 lw 407 194 m 6 X s [] 0 sd 1 lw 413 194 m 6 X s [] 0 sd 1 lw 419 194 m 6 X s
 [] 0 sd 1 lw 425 194 m 5 X s [] 0 sd 1 lw 430 194 m 6 X s [] 0 sd 1 lw 436 194 m 6 X s [] 0 sd 1 lw 442 194 m 6 X s
 [] 0 sd 1 lw 448 194 m 6 X s [] 0 sd 1 lw 454 194 m 6 X s [] 0 sd 1 lw 460 194 m 6 X s [] 0 sd 1 lw 466 194 m 6 X s
 [] 0 sd 1 lw 472 194 m 6 X s [] 0 sd 1 lw 478 194 m 5 X s [] 0 sd 1 lw 489 194 m 84 Y s [] 0 sd 1 lw 489 278 m 83 Y s
 [] 0 sd 1 lw 483 278 m 6 X s [] 0 sd 1 lw 489 278 m 6 X s [] 0 sd 1 lw /w 2 def /w2 {w 2 div} def /w3 {w 3 div} def 489
 278 m20 [] 0 sd 1 lw [] 0 sd 1 lw 495 194 m 6 X s [] 0 sd 1 lw 501 194 m 6 X s [] 0 sd 1 lw 507 194 m 6 X s [] 0 sd 1
 lw 513 194 m 6 X s [] 0 sd 1 lw 519 194 m 6 X s [] 0 sd 1 lw 525 194 m 6 X s [] 0 sd 1 lw 537 243 m 118 Y s [] 0 sd 1
 lw 537 361 m 118 Y s [] 0 sd 1 lw 531 361 m 6 X s [] 0 sd 1 lw 537 361 m 5 X s [] 0 sd 1 lw 537 361 m20 [] 0 sd 1 lw
 [] 0 sd 1 lw 548 194 m 84 Y s [] 0 sd 1 lw 548 278 m 83 Y s [] 0 sd 1 lw 542 278 m 6 X s [] 0 sd 1 lw 548 278 m 6 X s
 [] 0 sd 1 lw 548 278 m20 [] 0 sd 1 lw [] 0 sd 1 lw 560 194 m 84 Y s [] 0 sd 1 lw 560 278 m 83 Y s [] 0 sd 1 lw 554 278
 m 6 X s [] 0 sd 1 lw 560 278 m 6 X s [] 0 sd 1 lw 560 278 m20 [] 0 sd 1 lw [] 0 sd 1 lw 572 194 m 84 Y s [] 0 sd 1 lw
 572 278 m 83 Y s [] 0 sd 1 lw 566 278 m 6 X s [] 0 sd 1 lw 572 278 m 6 X s [] 0 sd 1 lw 572 278 m20 [] 0 sd 1 lw
 [] 0 sd 1 lw 584 300 m 145 Y s [] 0 sd 1 lw 584 445 m 144 Y s [] 0 sd 1 lw 578 445 m 6 X s [] 0 sd 1 lw 584 445 m 6 X s
 [] 0 sd 1 lw 584 445 m20 [] 0 sd 1 lw [] 0 sd 1 lw 596 243 m 118 Y s [] 0 sd 1 lw 596 361 m 118 Y s [] 0 sd 1 lw 590
 361 m 6 X s [] 0 sd 1 lw 596 361 m 5 X s [] 0 sd 1 lw 596 361 m20 [] 0 sd 1 lw [] 0 sd 1 lw 601 194 m 6 X s [] 0 sd 1
 lw 607 194 m 6 X s [] 0 sd 1 lw 619 300 m 145 Y s [] 0 sd 1 lw 619 445 m 144 Y s [] 0 sd 1 lw 613 445 m 6 X s [] 0 sd 1
 lw 619 445 m 6 X s [] 0 sd 1 lw 619 445 m20 [] 0 sd 1 lw [] 0 sd 1 lw 631 300 m 145 Y s [] 0 sd 1 lw 631 445 m 144 Y s
 [] 0 sd 1 lw 625 445 m 6 X s [] 0 sd 1 lw 631 445 m 6 X s [] 0 sd 1 lw 631 445 m20 [] 0 sd 1 lw [] 0 sd 1 lw 643 194 m
 84 Y s [] 0 sd 1 lw 643 278 m 83 Y s [] 0 sd 1 lw 637 278 m 6 X s [] 0 sd 1 lw 643 278 m 6 X s [] 0 sd 1 lw 643 278 m20
 [] 0 sd 1 lw [] 0 sd 1 lw 654 243 m 118 Y s [] 0 sd 1 lw 654 361 m 118 Y s [] 0 sd 1 lw 649 361 m 5 X s [] 0 sd 1 lw
 654 361 m 6 X s [] 0 sd 1 lw 654 361 m20 [] 0 sd 1 lw [] 0 sd 1 lw 666 194 m 84 Y s [] 0 sd 1 lw 666 278 m 83 Y s
 [] 0 sd 1 lw 660 278 m 6 X s [] 0 sd 1 lw 666 278 m 6 X s [] 0 sd 1 lw 666 278 m20 [] 0 sd 1 lw [] 0 sd 1 lw 678 194 m
 84 Y s [] 0 sd 1 lw 678 278 m 83 Y s [] 0 sd 1 lw 672 278 m 6 X s [] 0 sd 1 lw 678 278 m 6 X s [] 0 sd 1 lw 678 278 m20
 [] 0 sd 1 lw [] 0 sd 1 lw 690 243 m 118 Y s [] 0 sd 1 lw 690 361 m 118 Y s [] 0 sd 1 lw 684 361 m 6 X s [] 0 sd 1 lw
 690 361 m 6 X s [] 0 sd 1 lw 690 361 m20 [] 0 sd 1 lw [] 0 sd 1 lw 702 361 m 167 Y s [] 0 sd 1 lw 702 528 m 167 Y s
 [] 0 sd 1 lw 696 528 m 6 X s [] 0 sd 1 lw 702 528 m 6 X s [] 0 sd 1 lw 702 528 m20 [] 0 sd 1 lw [] 0 sd 1 lw 713 300 m
 145 Y s [] 0 sd 1 lw 713 445 m 144 Y s [] 0 sd 1 lw 708 445 m 5 X s [] 0 sd 1 lw 713 445 m 6 X s [] 0 sd 1 lw 713 445
 m20 [] 0 sd 1 lw [] 0 sd 1 lw 725 243 m 118 Y s [] 0 sd 1 lw 725 361 m 118 Y s [] 0 sd 1 lw 719 361 m 6 X s [] 0 sd 1
 lw 725 361 m 6 X s [] 0 sd 1 lw 725 361 m20 [] 0 sd 1 lw [] 0 sd 1 lw 737 300 m 145 Y s [] 0 sd 1 lw 737 445 m 144 Y s
 [] 0 sd 1 lw 731 445 m 6 X s [] 0 sd 1 lw 737 445 m 6 X s [] 0 sd 1 lw 737 445 m20 [] 0 sd 1 lw [] 0 sd 1 lw 749 243 m
 118 Y s [] 0 sd 1 lw 749 361 m 118 Y s [] 0 sd 1 lw 743 361 m 6 X s [] 0 sd 1 lw 749 361 m 6 X s [] 0 sd 1 lw 749 361
 m20 [] 0 sd 1 lw [] 0 sd 1 lw 761 243 m 118 Y s [] 0 sd 1 lw 761 361 m 118 Y s [] 0 sd 1 lw 755 361 m 6 X s [] 0 sd 1
 lw 761 361 m 5 X s [] 0 sd 1 lw 761 361 m20 [] 0 sd 1 lw [] 0 sd 1 lw 766 194 m 6 X s [] 0 sd 1 lw 772 194 m 6 X s
 [] 0 sd 1 lw 784 300 m 145 Y s [] 0 sd 1 lw 784 445 m 144 Y s [] 0 sd 1 lw 778 445 m 6 X s [] 0 sd 1 lw 784 445 m 6 X s
 [] 0 sd 1 lw 784 445 m20 [] 0 sd 1 lw [] 0 sd 1 lw 796 361 m 167 Y s [] 0 sd 1 lw 796 528 m 167 Y s [] 0 sd 1 lw 790
 528 m 6 X s [] 0 sd 1 lw 796 528 m 6 X s [] 0 sd 1 lw 796 528 m20 [] 0 sd 1 lw [] 0 sd 1 lw 808 558 m 221 Y s [] 0 sd 1
 lw 808 779 m 221 Y s [] 0 sd 1 lw 802 779 m 6 X s [] 0 sd 1 lw 808 779 m 6 X s [] 0 sd 1 lw 808 779 m20 [] 0 sd 1 lw
 [] 0 sd 1 lw 820 243 m 118 Y s [] 0 sd 1 lw 820 361 m 118 Y s [] 0 sd 1 lw 814 361 m 6 X s [] 0 sd 1 lw 820 361 m 5 X s
 [] 0 sd 1 lw 820 361 m20 [] 0 sd 1 lw [] 0 sd 1 lw 831 300 m 145 Y s [] 0 sd 1 lw 831 445 m 144 Y s [] 0 sd 1 lw 825
 445 m 6 X s [] 0 sd 1 lw 831 445 m 6 X s [] 0 sd 1 lw 831 445 m20 [] 0 sd 1 lw [] 0 sd 1 lw 843 491 m 204 Y s [] 0 sd 1
 lw 843 695 m 205 Y s [] 0 sd 1 lw 837 695 m 6 X s [] 0 sd 1 lw 843 695 m 6 X s [] 0 sd 1 lw 843 695 m20 [] 0 sd 1 lw
 [] 0 sd 1 lw 855 194 m 84 Y s [] 0 sd 1 lw 855 278 m 83 Y s [] 0 sd 1 lw 849 278 m 6 X s [] 0 sd 1 lw 855 278 m 6 X s
 [] 0 sd 1 lw 855 278 m20 [] 0 sd 1 lw [] 0 sd 1 lw 867 194 m 84 Y s [] 0 sd 1 lw 867 278 m 83 Y s [] 0 sd 1 lw 861 278
 m 6 X s [] 0 sd 1 lw 867 278 m 6 X s [] 0 sd 1 lw 867 278 m20 [] 0 sd 1 lw [] 0 sd 1 lw 879 300 m 145 Y s [] 0 sd 1 lw
 879 445 m 144 Y s [] 0 sd 1 lw 873 445 m 6 X s [] 0 sd 1 lw 879 445 m 5 X s [] 0 sd 1 lw 879 445 m20 [] 0 sd 1 lw
 [] 0 sd 1 lw 890 243 m 118 Y s [] 0 sd 1 lw 890 361 m 118 Y s [] 0 sd 1 lw 884 361 m 6 X s [] 0 sd 1 lw 890 361 m 6 X s
 [] 0 sd 1 lw 890 361 m20 [] 0 sd 1 lw [] 0 sd 1 lw 902 243 m 118 Y s [] 0 sd 1 lw 902 361 m 118 Y s [] 0 sd 1 lw 896
 361 m 6 X s [] 0 sd 1 lw 902 361 m 6 X s [] 0 sd 1 lw 902 361 m20 [] 0 sd 1 lw [] 0 sd 1 lw 914 300 m 145 Y s [] 0 sd 1
 lw 914 445 m 144 Y s [] 0 sd 1 lw 908 445 m 6 X s [] 0 sd 1 lw 914 445 m 6 X s [] 0 sd 1 lw 914 445 m20 [] 0 sd 1 lw
 [] 0 sd 1 lw 926 300 m 145 Y s [] 0 sd 1 lw 926 445 m 144 Y s [] 0 sd 1 lw 920 445 m 6 X s [] 0 sd 1 lw 926 445 m 6 X s
 [] 0 sd 1 lw 926 445 m20 [] 0 sd 1 lw [] 0 sd 1 lw 937 361 m 167 Y s [] 0 sd 1 lw 937 528 m 167 Y s [] 0 sd 1 lw 932
 528 m 5 X s [] 0 sd 1 lw 937 528 m 6 X s [] 0 sd 1 lw 937 528 m20 [] 0 sd 1 lw [] 0 sd 1 lw 949 558 m 221 Y s [] 0 sd 1
 lw 949 779 m 221 Y s [] 0 sd 1 lw 943 779 m 6 X s [] 0 sd 1 lw 949 779 m 6 X s [] 0 sd 1 lw 949 779 m20 [] 0 sd 1 lw
 [] 0 sd 1 lw 961 300 m 145 Y s [] 0 sd 1 lw 961 445 m 144 Y s [] 0 sd 1 lw 955 445 m 6 X s [] 0 sd 1 lw 961 445 m 6 X s
 [] 0 sd 1 lw 961 445 m20 [] 0 sd 1 lw [] 0 sd 1 lw 967 194 m 6 X s [] 0 sd 1 lw 973 194 m 6 X s [] 0 sd 1 lw 985 425 m
 187 Y s [] 0 sd 1 lw 985 612 m 186 Y s [] 0 sd 1 lw 979 612 m 6 X s [] 0 sd 1 lw 985 612 m 6 X s [] 0 sd 1 lw 985 612
 m20 [] 0 sd 1 lw [] 0 sd 1 lw 996 300 m 145 Y s [] 0 sd 1 lw 996 445 m 144 Y s [] 0 sd 1 lw 991 445 m 5 X s [] 0 sd 1
 lw 996 445 m 6 X s [] 0 sd 1 lw 996 445 m20 [] 0 sd 1 lw [] 0 sd 1 lw 1008 194 m 84 Y s [] 0 sd 1 lw 1008 278 m 83 Y s
 [] 0 sd 1 lw 1002 278 m 6 X s [] 0 sd 1 lw 1008 278 m 6 X s [] 0 sd 1 lw 1008 278 m20 [] 0 sd 1 lw [] 0 sd 1 lw 1020
 491 m 204 Y s [] 0 sd 1 lw 1020 695 m 205 Y s [] 0 sd 1 lw 1014 695 m 6 X s [] 0 sd 1 lw 1020 695 m 6 X s [] 0 sd 1 lw
 1020 695 m20 [] 0 sd 1 lw [] 0 sd 1 lw 1032 194 m 84 Y s [] 0 sd 1 lw 1032 278 m 83 Y s [] 0 sd 1 lw 1026 278 m 6 X s
 [] 0 sd 1 lw 1032 278 m 6 X s [] 0 sd 1 lw 1032 278 m20 [] 0 sd 1 lw [] 0 sd 1 lw 1044 491 m 204 Y s [] 0 sd 1 lw 1044
 695 m 205 Y s [] 0 sd 1 lw 1038 695 m 6 X s [] 0 sd 1 lw 1044 695 m 6 X s [] 0 sd 1 lw 1044 695 m20 [] 0 sd 1 lw
 [] 0 sd 1 lw 1050 194 m 5 X s [] 0 sd 1 lw 1055 194 m 6 X s [] 0 sd 1 lw 1067 243 m 118 Y s [] 0 sd 1 lw 1067 361 m 118
 Y s [] 0 sd 1 lw 1061 361 m 6 X s [] 0 sd 1 lw 1067 361 m 6 X s [] 0 sd 1 lw 1067 361 m20 [] 0 sd 1 lw [] 0 sd 1 lw
 1079 243 m 118 Y s [] 0 sd 1 lw 1079 361 m 118 Y s [] 0 sd 1 lw 1073 361 m 6 X s [] 0 sd 1 lw 1079 361 m 6 X s [] 0 sd
 1 lw 1079 361 m20 [] 0 sd 1 lw [] 0 sd 1 lw 1091 361 m 167 Y s [] 0 sd 1 lw 1091 528 m 167 Y s [] 0 sd 1 lw 1085 528 m
 6 X s [] 0 sd 1 lw 1091 528 m 6 X s [] 0 sd 1 lw 1091 528 m20 [] 0 sd 1 lw [] 0 sd 1 lw 1103 765 m 264 Y s [] 0 sd 1 lw
 1103 1029 m 264 Y s [] 0 sd 1 lw 1097 1029 m 6 X s [] 0 sd 1 lw 1103 1029 m 5 X s [] 0 sd 1 lw 1103 1029 m20 [] 0 sd 1
 lw [] 0 sd 1 lw 1114 361 m 167 Y s [] 0 sd 1 lw 1114 528 m 167 Y s [] 0 sd 1 lw 1108 528 m 6 X s [] 0 sd 1 lw 1114 528
 m 6 X s [] 0 sd 1 lw 1114 528 m20 [] 0 sd 1 lw [] 0 sd 1 lw 1126 425 m 187 Y s [] 0 sd 1 lw 1126 612 m 186 Y s [] 0 sd
 1 lw 1120 612 m 6 X s [] 0 sd 1 lw 1126 612 m 6 X s [] 0 sd 1 lw 1126 612 m20 [] 0 sd 1 lw [] 0 sd 1 lw 1138 300 m 145
 Y s [] 0 sd 1 lw 1138 445 m 144 Y s [] 0 sd 1 lw 1132 445 m 6 X s [] 0 sd 1 lw 1138 445 m 6 X s [] 0 sd 1 lw 1138 445
 m20 [] 0 sd 1 lw [] 0 sd 1 lw 1150 243 m 118 Y s [] 0 sd 1 lw 1150 361 m 118 Y s [] 0 sd 1 lw 1144 361 m 6 X s [] 0 sd
 1 lw 1150 361 m 6 X s [] 0 sd 1 lw 1150 361 m20 [] 0 sd 1 lw [] 0 sd 1 lw 1162 300 m 145 Y s [] 0 sd 1 lw 1162 445 m
 144 Y s [] 0 sd 1 lw 1156 445 m 6 X s [] 0 sd 1 lw 1162 445 m 5 X s [] 0 sd 1 lw 1162 445 m20 [] 0 sd 1 lw [] 0 sd 1 lw
 1173 695 m 251 Y s [] 0 sd 1 lw 1173 946 m 250 Y s [] 0 sd 1 lw 1167 946 m 6 X s [] 0 sd 1 lw 1173 946 m 6 X s [] 0 sd
 1 lw 1173 946 m20 [] 0 sd 1 lw [] 0 sd 1 lw 1185 361 m 167 Y s [] 0 sd 1 lw 1185 528 m 167 Y s [] 0 sd 1 lw 1179 528 m
 6 X s [] 0 sd 1 lw 1185 528 m 6 X s [] 0 sd 1 lw 1185 528 m20 [] 0 sd 1 lw [] 0 sd 1 lw 1197 626 m 236 Y s [] 0 sd 1 lw
 1197 862 m 236 Y s [] 0 sd 1 lw 1191 862 m 6 X s [] 0 sd 1 lw 1197 862 m 6 X s [] 0 sd 1 lw 1197 862 m20 [] 0 sd 1 lw
 [] 0 sd 1 lw 1209 243 m 118 Y s [] 0 sd 1 lw 1209 361 m 118 Y s [] 0 sd 1 lw 1203 361 m 6 X s [] 0 sd 1 lw 1209 361 m 6
 X s [] 0 sd 1 lw 1209 361 m20 [] 0 sd 1 lw [] 0 sd 1 lw 1220 300 m 145 Y s [] 0 sd 1 lw 1220 445 m 144 Y s [] 0 sd 1 lw
 1215 445 m 5 X s [] 0 sd 1 lw 1220 445 m 6 X s [] 0 sd 1 lw 1220 445 m20 [] 0 sd 1 lw [] 0 sd 1 lw 1232 558 m 221 Y s
 [] 0 sd 1 lw 1232 779 m 221 Y s [] 0 sd 1 lw 1226 779 m 6 X s [] 0 sd 1 lw 1232 779 m 6 X s [] 0 sd 1 lw 1232 779 m20
 [] 0 sd 1 lw [] 0 sd 1 lw 1244 695 m 251 Y s [] 0 sd 1 lw 1244 946 m 250 Y s [] 0 sd 1 lw 1238 946 m 6 X s [] 0 sd 1 lw
 1244 946 m 6 X s [] 0 sd 1 lw 1244 946 m20 [] 0 sd 1 lw [] 0 sd 1 lw 1256 491 m 204 Y s [] 0 sd 1 lw 1256 695 m 205 Y s
 [] 0 sd 1 lw 1250 695 m 6 X s [] 0 sd 1 lw 1256 695 m 6 X s [] 0 sd 1 lw 1256 695 m20 [] 0 sd 1 lw [] 0 sd 1 lw 1268
 491 m 204 Y s [] 0 sd 1 lw 1268 695 m 205 Y s [] 0 sd 1 lw 1262 695 m 6 X s [] 0 sd 1 lw 1268 695 m 6 X s [] 0 sd 1 lw
 1268 695 m20 [] 0 sd 1 lw [] 0 sd 1 lw 1279 425 m 187 Y s [] 0 sd 1 lw 1279 612 m 186 Y s [] 0 sd 1 lw 1274 612 m 5 X s
 [] 0 sd 1 lw 1279 612 m 6 X s [] 0 sd 1 lw 1279 612 m20 [] 0 sd 1 lw [] 0 sd 1 lw 1291 558 m 221 Y s [] 0 sd 1 lw 1291
 779 m 221 Y s [] 0 sd 1 lw 1285 779 m 6 X s [] 0 sd 1 lw 1291 779 m 6 X s [] 0 sd 1 lw 1291 779 m20 [] 0 sd 1 lw
 [] 0 sd 1 lw 1303 836 m 277 Y s [] 0 sd 1 lw 1303 1113 m 277 Y s [] 0 sd 1 lw 1297 1113 m 6 X s [] 0 sd 1 lw 1303 1113
 m 6 X s [] 0 sd 1 lw 1303 1113 m20 [] 0 sd 1 lw [] 0 sd 1 lw 1315 765 m 264 Y s [] 0 sd 1 lw 1315 1029 m 264 Y s
 [] 0 sd 1 lw 1309 1029 m 6 X s [] 0 sd 1 lw 1315 1029 m 6 X s [] 0 sd 1 lw 1315 1029 m20 [] 0 sd 1 lw [] 0 sd 1 lw 1327
 836 m 277 Y s [] 0 sd 1 lw 1327 1113 m 277 Y s [] 0 sd 1 lw 1321 1113 m 6 X s [] 0 sd 1 lw 1327 1113 m 6 X s [] 0 sd 1
 lw 1327 1113 m20 [] 0 sd 1 lw [] 0 sd 1 lw 1338 626 m 236 Y s [] 0 sd 1 lw 1338 862 m 236 Y s [] 0 sd 1 lw 1333 862 m 5
 X s [] 0 sd 1 lw 1338 862 m 6 X s [] 0 sd 1 lw 1338 862 m20 [] 0 sd 1 lw [] 0 sd 1 lw 1350 907 m 289 Y s [] 0 sd 1 lw
 1350 1196 m 289 Y s [] 0 sd 1 lw 1344 1196 m 6 X s [] 0 sd 1 lw 1350 1196 m 6 X s [] 0 sd 1 lw 1350 1196 m20 [] 0 sd 1
 lw [] 0 sd 1 lw 1362 491 m 204 Y s [] 0 sd 1 lw 1362 695 m 205 Y s [] 0 sd 1 lw 1356 695 m 6 X s [] 0 sd 1 lw 1362 695
 m 6 X s [] 0 sd 1 lw 1362 695 m20 [] 0 sd 1 lw [] 0 sd 1 lw 1374 695 m 251 Y s [] 0 sd 1 lw 1374 946 m 250 Y s [] 0 sd
 1 lw 1368 946 m 6 X s [] 0 sd 1 lw 1374 946 m 6 X s [] 0 sd 1 lw 1374 946 m20 [] 0 sd 1 lw [] 0 sd 1 lw 1386 836 m 277
 Y s [] 0 sd 1 lw 1386 1113 m 277 Y s [] 0 sd 1 lw 1380 1113 m 6 X s [] 0 sd 1 lw 1386 1113 m 5 X s [] 0 sd 1 lw 1386
 1113 m20 [] 0 sd 1 lw [] 0 sd 1 lw 1397 558 m 221 Y s [] 0 sd 1 lw 1397 779 m 221 Y s [] 0 sd 1 lw 1391 779 m 6 X s
 [] 0 sd 1 lw 1397 779 m 6 X s [] 0 sd 1 lw 1397 779 m20 [] 0 sd 1 lw [] 0 sd 1 lw 1409 558 m 221 Y s [] 0 sd 1 lw 1409
 779 m 221 Y s [] 0 sd 1 lw 1403 779 m 6 X s [] 0 sd 1 lw 1409 779 m 6 X s [] 0 sd 1 lw 1409 779 m20 [] 0 sd 1 lw
 [] 0 sd 1 lw 1421 425 m 187 Y s [] 0 sd 1 lw 1421 612 m 186 Y s [] 0 sd 1 lw 1415 612 m 6 X s [] 0 sd 1 lw 1421 612 m 6
 X s [] 0 sd 1 lw 1421 612 m20 [] 0 sd 1 lw [] 0 sd 1 lw 1433 695 m 251 Y s [] 0 sd 1 lw 1433 946 m 250 Y s [] 0 sd 1 lw
 1427 946 m 6 X s [] 0 sd 1 lw 1433 946 m 6 X s [] 0 sd 1 lw 1433 946 m20 [] 0 sd 1 lw [] 0 sd 1 lw 1445 695 m 251 Y s
 [] 0 sd 1 lw 1445 946 m 250 Y s [] 0 sd 1 lw 1439 946 m 6 X s [] 0 sd 1 lw 1445 946 m 5 X s [] 0 sd 1 lw 1445 946 m20
 [] 0 sd 1 lw [] 0 sd 1 lw 1456 765 m 264 Y s [] 0 sd 1 lw 1456 1029 m 264 Y s [] 0 sd 1 lw 1450 1029 m 6 X s [] 0 sd 1
 lw 1456 1029 m 6 X s [] 0 sd 1 lw 1456 1029 m20 [] 0 sd 1 lw [] 0 sd 1 lw 1468 558 m 221 Y s [] 0 sd 1 lw 1468 779 m
 221 Y s [] 0 sd 1 lw 1462 779 m 6 X s [] 0 sd 1 lw 1468 779 m 6 X s [] 0 sd 1 lw 1468 779 m20 [] 0 sd 1 lw [] 0 sd 1 lw
 1480 626 m 236 Y s [] 0 sd 1 lw 1480 862 m 236 Y s [] 0 sd 1 lw 1474 862 m 6 X s [] 0 sd 1 lw 1480 862 m 6 X s [] 0 sd
 1 lw 1480 862 m20 [] 0 sd 1 lw [] 0 sd 1 lw 1492 491 m 204 Y s [] 0 sd 1 lw 1492 695 m 205 Y s [] 0 sd 1 lw 1486 695 m
 6 X s [] 0 sd 1 lw 1492 695 m 6 X s [] 0 sd 1 lw 1492 695 m20 [] 0 sd 1 lw [] 0 sd 1 lw 1503 626 m 236 Y s [] 0 sd 1 lw
 1503 862 m 236 Y s [] 0 sd 1 lw 1498 862 m 5 X s [] 0 sd 1 lw 1503 862 m 6 X s [] 0 sd 1 lw 1503 862 m20 [] 0 sd 1 lw
 [] 0 sd 1 lw 1515 425 m 187 Y s [] 0 sd 1 lw 1515 612 m 186 Y s [] 0 sd 1 lw 1509 612 m 6 X s [] 0 sd 1 lw 1515 612 m 6
 X s [] 0 sd 1 lw 1515 612 m20 [] 0 sd 1 lw [] 0 sd 1 lw 1527 558 m 221 Y s [] 0 sd 1 lw 1527 779 m 221 Y s [] 0 sd 1 lw
 1521 779 m 6 X s [] 0 sd 1 lw 1527 779 m 6 X s [] 0 sd 1 lw 1527 779 m20 [] 0 sd 1 lw [] 0 sd 1 lw 1539 626 m 236 Y s
 [] 0 sd 1 lw 1539 862 m 236 Y s [] 0 sd 1 lw 1533 862 m 6 X s [] 0 sd 1 lw 1539 862 m 6 X s [] 0 sd 1 lw 1539 862 m20
 [] 0 sd 1 lw [] 0 sd 1 lw 1551 491 m 204 Y s [] 0 sd 1 lw 1551 695 m 205 Y s [] 0 sd 1 lw 1545 695 m 6 X s [] 0 sd 1 lw
 1551 695 m 6 X s [] 0 sd 1 lw 1551 695 m20 [] 0 sd 1 lw [] 0 sd 1 lw 1562 907 m 289 Y s [] 0 sd 1 lw 1562 1196 m 289 Y
 s [] 0 sd 1 lw 1557 1196 m 5 X s [] 0 sd 1 lw 1562 1196 m 6 X s [] 0 sd 1 lw 1562 1196 m20 [] 0 sd 1 lw [] 0 sd 1 lw
 1574 558 m 221 Y s [] 0 sd 1 lw 1574 779 m 221 Y s [] 0 sd 1 lw 1568 779 m 6 X s [] 0 sd 1 lw 1574 779 m 6 X s [] 0 sd
 1 lw 1574 779 m20 [] 0 sd 1 lw [] 0 sd 1 lw 1586 491 m 204 Y s [] 0 sd 1 lw 1586 695 m 205 Y s [] 0 sd 1 lw 1580 695 m
 6 X s [] 0 sd 1 lw 1586 695 m 6 X s [] 0 sd 1 lw 1586 695 m20 [] 0 sd 1 lw [] 0 sd 1 lw 1598 765 m 264 Y s [] 0 sd 1 lw
 1598 1029 m 264 Y s [] 0 sd 1 lw 1592 1029 m 6 X s [] 0 sd 1 lw 1598 1029 m 6 X s [] 0 sd 1 lw 1598 1029 m20 [] 0 sd 1
 lw [] 0 sd 1 lw 1610 425 m 187 Y s [] 0 sd 1 lw 1610 612 m 186 Y s [] 0 sd 1 lw 1604 612 m 6 X s [] 0 sd 1 lw 1610 612
 m 6 X s [] 0 sd 1 lw 1610 612 m20 [] 0 sd 1 lw [] 0 sd 1 lw 1621 491 m 204 Y s [] 0 sd 1 lw 1621 695 m 205 Y s [] 0 sd
 1 lw 1616 695 m 5 X s [] 0 sd 1 lw 1621 695 m 6 X s [] 0 sd 1 lw 1621 695 m20 [] 0 sd 1 lw [] 0 sd 1 lw 1633 425 m 187
 Y s [] 0 sd 1 lw 1633 612 m 186 Y s [] 0 sd 1 lw 1627 612 m 6 X s [] 0 sd 1 lw 1633 612 m 6 X s [] 0 sd 1 lw 1633 612
 m20 [] 0 sd 1 lw [] 0 sd 1 lw 1645 300 m 145 Y s [] 0 sd 1 lw 1645 445 m 144 Y s [] 0 sd 1 lw 1639 445 m 6 X s [] 0 sd
 1 lw 1645 445 m 6 X s [] 0 sd 1 lw 1645 445 m20 [] 0 sd 1 lw [] 0 sd 1 lw 1657 425 m 187 Y s [] 0 sd 1 lw 1657 612 m
 186 Y s [] 0 sd 1 lw 1651 612 m 6 X s [] 0 sd 1 lw 1657 612 m 6 X s [] 0 sd 1 lw 1657 612 m20 [] 0 sd 1 lw [] 0 sd 1 lw
 1669 836 m 277 Y s [] 0 sd 1 lw 1669 1113 m 277 Y s [] 0 sd 1 lw 1663 1113 m 6 X s [] 0 sd 1 lw 1669 1113 m 5 X s
 [] 0 sd 1 lw 1669 1113 m20 [] 0 sd 1 lw [] 0 sd 1 lw 1680 491 m 204 Y s [] 0 sd 1 lw 1680 695 m 205 Y s [] 0 sd 1 lw
 1674 695 m 6 X s [] 0 sd 1 lw 1680 695 m 6 X s [] 0 sd 1 lw 1680 695 m20 [] 0 sd 1 lw [] 0 sd 1 lw 1692 491 m 204 Y s
 [] 0 sd 1 lw 1692 695 m 205 Y s [] 0 sd 1 lw 1686 695 m 6 X s [] 0 sd 1 lw 1692 695 m 6 X s [] 0 sd 1 lw 1692 695 m20
 [] 0 sd 1 lw [] 0 sd 1 lw 1704 1051 m 312 Y s [] 0 sd 1 lw 1704 1363 m 312 Y s [] 0 sd 1 lw 1698 1363 m 6 X s [] 0 sd 1
 lw 1704 1363 m 6 X s [] 0 sd 1 lw 1704 1363 m20 [] 0 sd 1 lw [] 0 sd 1 lw 1716 558 m 221 Y s [] 0 sd 1 lw 1716 779 m
 221 Y s [] 0 sd 1 lw 1710 779 m 6 X s [] 0 sd 1 lw 1716 779 m 6 X s [] 0 sd 1 lw 1716 779 m20 [] 0 sd 1 lw [] 0 sd 1 lw
 1728 361 m 167 Y s [] 0 sd 1 lw 1728 528 m 167 Y s [] 0 sd 1 lw 1722 528 m 6 X s [] 0 sd 1 lw 1728 528 m 5 X s [] 0 sd
 1 lw 1728 528 m20 [] 0 sd 1 lw [] 0 sd 1 lw 1739 194 m 84 Y s [] 0 sd 1 lw 1739 278 m 83 Y s [] 0 sd 1 lw 1733 278 m 6
 X s [] 0 sd 1 lw 1739 278 m 6 X s [] 0 sd 1 lw 1739 278 m20 [] 0 sd 1 lw [] 0 sd 1 lw 1751 558 m 221 Y s [] 0 sd 1 lw
 1751 779 m 221 Y s [] 0 sd 1 lw 1745 779 m 6 X s [] 0 sd 1 lw 1751 779 m 6 X s [] 0 sd 1 lw 1751 779 m20 [] 0 sd 1 lw
 [] 0 sd 1 lw 1763 194 m 84 Y s [] 0 sd 1 lw 1763 278 m 83 Y s [] 0 sd 1 lw 1757 278 m 6 X s [] 0 sd 1 lw 1763 278 m 6 X
 s [] 0 sd 1 lw 1763 278 m20 [] 0 sd 1 lw [] 0 sd 1 lw 1775 243 m 118 Y s [] 0 sd 1 lw 1775 361 m 118 Y s [] 0 sd 1 lw
 1769 361 m 6 X s [] 0 sd 1 lw 1775 361 m 6 X s [] 0 sd 1 lw 1775 361 m20 [] 0 sd 1 lw [] 0 sd 1 lw 1787 300 m 145 Y s
 [] 0 sd 1 lw 1787 445 m 144 Y s [] 0 sd 1 lw 1781 445 m 6 X s [] 0 sd 1 lw 1787 445 m 5 X s [] 0 sd 1 lw 1787 445 m20
 [] 0 sd 1 lw [] 0 sd 1 lw 1798 243 m 118 Y s [] 0 sd 1 lw 1798 361 m 118 Y s [] 0 sd 1 lw 1792 361 m 6 X s [] 0 sd 1 lw
 1798 361 m 6 X s [] 0 sd 1 lw 1798 361 m20 [] 0 sd 1 lw [] 0 sd 1 lw 1810 626 m 236 Y s [] 0 sd 1 lw 1810 862 m 236 Y s
 [] 0 sd 1 lw 1804 862 m 6 X s [] 0 sd 1 lw 1810 862 m 6 X s [] 0 sd 1 lw 1810 862 m20 [] 0 sd 1 lw [] 0 sd 1 lw 1822
 243 m 118 Y s [] 0 sd 1 lw 1822 361 m 118 Y s [] 0 sd 1 lw 1816 361 m 6 X s [] 0 sd 1 lw 1822 361 m 6 X s [] 0 sd 1 lw
 1822 361 m20 [] 0 sd 1 lw [] 0 sd 1 lw 1834 425 m 187 Y s [] 0 sd 1 lw 1834 612 m 186 Y s [] 0 sd 1 lw 1828 612 m 6 X s
 [] 0 sd 1 lw 1834 612 m 6 X s [] 0 sd 1 lw 1834 612 m20 [] 0 sd 1 lw [] 0 sd 1 lw 1845 425 m 187 Y s [] 0 sd 1 lw 1845
 612 m 186 Y s [] 0 sd 1 lw 1840 612 m 5 X s [] 0 sd 1 lw 1845 612 m 6 X s [] 0 sd 1 lw 1845 612 m20 [] 0 sd 1 lw
 [] 0 sd 1 lw 1857 425 m 187 Y s [] 0 sd 1 lw 1857 612 m 186 Y s [] 0 sd 1 lw 1851 612 m 6 X s [] 0 sd 1 lw 1857 612 m 6
 X s [] 0 sd 1 lw 1857 612 m20 [] 0 sd 1 lw [] 0 sd 1 lw 1869 626 m 236 Y s [] 0 sd 1 lw 1869 862 m 236 Y s [] 0 sd 1 lw
 1863 862 m 6 X s [] 0 sd 1 lw 1869 862 m 6 X s [] 0 sd 1 lw 1869 862 m20 [] 0 sd 1 lw [] 0 sd 1 lw 1881 425 m 187 Y s
 [] 0 sd 1 lw 1881 612 m 186 Y s [] 0 sd 1 lw 1875 612 m 6 X s [] 0 sd 1 lw 1881 612 m 6 X s [] 0 sd 1 lw 1881 612 m20
 [] 0 sd 1 lw [] 0 sd 1 lw 1893 243 m 118 Y s [] 0 sd 1 lw 1893 361 m 118 Y s [] 0 sd 1 lw 1887 361 m 6 X s [] 0 sd 1 lw
 1893 361 m 6 X s [] 0 sd 1 lw 1893 361 m20 [] 0 sd 1 lw [] 0 sd 1 lw 1904 194 m 84 Y s [] 0 sd 1 lw 1904 278 m 83 Y s
 [] 0 sd 1 lw 1899 278 m 5 X s [] 0 sd 1 lw 1904 278 m 6 X s [] 0 sd 1 lw 1904 278 m20 [] 0 sd 1 lw [] 0 sd 1 lw 1916
 194 m 84 Y s [] 0 sd 1 lw 1916 278 m 83 Y s [] 0 sd 1 lw 1910 278 m 6 X s [] 0 sd 1 lw 1916 278 m 6 X s [] 0 sd 1 lw
 1916 278 m20 [] 0 sd 1 lw [] 0 sd 1 lw 1928 425 m 187 Y s [] 0 sd 1 lw 1928 612 m 186 Y s [] 0 sd 1 lw 1922 612 m 6 X s
 [] 0 sd 1 lw 1928 612 m 6 X s [] 0 sd 1 lw 1928 612 m20 [] 0 sd 1 lw [] 0 sd 1 lw 1940 361 m 167 Y s [] 0 sd 1 lw 1940
 528 m 167 Y s [] 0 sd 1 lw 1934 528 m 6 X s [] 0 sd 1 lw 1940 528 m 6 X s [] 0 sd 1 lw 1940 528 m20 [] 0 sd 1 lw
 [] 0 sd 1 lw 1952 300 m 145 Y s [] 0 sd 1 lw 1952 445 m 144 Y s [] 0 sd 1 lw 1946 445 m 6 X s [] 0 sd 1 lw 1952 445 m 5
 X s [] 0 sd 1 lw 1952 445 m20 [] 0 sd 1 lw [] 0 sd 1 lw 1963 300 m 145 Y s [] 0 sd 1 lw 1963 445 m 144 Y s [] 0 sd 1 lw
 1957 445 m 6 X s [] 0 sd 1 lw 1963 445 m 6 X s [] 0 sd 1 lw 1963 445 m20 [] 0 sd 1 lw [] 0 sd 1 lw 1975 300 m 145 Y s
 [] 0 sd 1 lw 1975 445 m 144 Y s [] 0 sd 1 lw 1969 445 m 6 X s [] 0 sd 1 lw 1975 445 m 6 X s [] 0 sd 1 lw 1975 445 m20
 [] 0 sd 1 lw [] 0 sd 1 lw 1987 300 m 145 Y s [] 0 sd 1 lw 1987 445 m 144 Y s [] 0 sd 1 lw 1981 445 m 6 X s [] 0 sd 1 lw
 1987 445 m 6 X s [] 0 sd 1 lw 1987 445 m20 [] 0 sd 1 lw [] 0 sd 1 lw 1999 300 m 145 Y s [] 0 sd 1 lw 1999 445 m 144 Y s
 [] 0 sd 1 lw 1993 445 m 6 X s [] 0 sd 1 lw 1999 445 m 6 X s [] 0 sd 1 lw 1999 445 m20 [] 0 sd 1 lw [] 0 sd 1 lw 2011
 194 m 84 Y s [] 0 sd 1 lw 2011 278 m 83 Y s [] 0 sd 1 lw 2005 278 m 6 X s [] 0 sd 1 lw 2011 278 m 5 X s [] 0 sd 1 lw
 2011 278 m20 [] 0 sd 1 lw [] 0 sd 1 lw 2022 300 m 145 Y s [] 0 sd 1 lw 2022 445 m 144 Y s [] 0 sd 1 lw 2016 445 m 6 X s
 [] 0 sd 1 lw 2022 445 m 6 X s [] 0 sd 1 lw 2022 445 m20 [] 0 sd 1 lw [] 0 sd 1 lw 2034 194 m 84 Y s [] 0 sd 1 lw 2034
 278 m 83 Y s [] 0 sd 1 lw 2028 278 m 6 X s [] 0 sd 1 lw 2034 278 m 6 X s [] 0 sd 1 lw 2034 278 m20 [] 0 sd 1 lw [] 0 sd
 1 lw 2046 300 m 145 Y s [] 0 sd 1 lw 2046 445 m 144 Y s [] 0 sd 1 lw 2040 445 m 6 X s [] 0 sd 1 lw 2046 445 m 6 X s
 [] 0 sd 1 lw 2046 445 m20 [] 0 sd 1 lw [] 0 sd 1 lw 2058 243 m 118 Y s [] 0 sd 1 lw 2058 361 m 118 Y s [] 0 sd 1 lw
 2052 361 m 6 X s [] 0 sd 1 lw 2058 361 m 6 X s [] 0 sd 1 lw 2058 361 m20 [] 0 sd 1 lw [] 0 sd 1 lw 2064 194 m 6 X s
 [] 0 sd 1 lw 2070 194 m 5 X s [] 0 sd 1 lw 2081 243 m 118 Y s [] 0 sd 1 lw 2081 361 m 118 Y s [] 0 sd 1 lw 2075 361 m 6
 X s [] 0 sd 1 lw 2081 361 m 6 X s [] 0 sd 1 lw 2081 361 m20 [] 0 sd 1 lw [] 0 sd 1 lw 2093 194 m 84 Y s [] 0 sd 1 lw
 2093 278 m 83 Y s [] 0 sd 1 lw 2087 278 m 6 X s [] 0 sd 1 lw 2093 278 m 6 X s [] 0 sd 1 lw 2093 278 m20 [] 0 sd 1 lw
 [] 0 sd 1 lw 2105 243 m 118 Y s [] 0 sd 1 lw 2105 361 m 118 Y s [] 0 sd 1 lw 2099 361 m 6 X s [] 0 sd 1 lw 2105 361 m 6
 X s [] 0 sd 1 lw 2105 361 m20 [] 0 sd 1 lw [] 0 sd 1 lw 2117 243 m 118 Y s [] 0 sd 1 lw 2117 361 m 118 Y s [] 0 sd 1 lw
 2111 361 m 6 X s [] 0 sd 1 lw 2117 361 m 6 X s [] 0 sd 1 lw 2117 361 m20 [] 0 sd 1 lw [] 0 sd 1 lw 2128 194 m 84 Y s
 [] 0 sd 1 lw 2128 278 m 83 Y s [] 0 sd 1 lw 2123 278 m 5 X s [] 0 sd 1 lw 2128 278 m 6 X s [] 0 sd 1 lw 2128 278 m20
 [] 0 sd 1 lw [] 0 sd 1 lw 2140 243 m 118 Y s [] 0 sd 1 lw 2140 361 m 118 Y s [] 0 sd 1 lw 2134 361 m 6 X s [] 0 sd 1 lw
 2140 361 m 6 X s [] 0 sd 1 lw 2140 361 m20 [] 0 sd 1 lw [] 0 sd 1 lw 2152 194 m 84 Y s [] 0 sd 1 lw 2152 278 m 83 Y s
 [] 0 sd 1 lw 2146 278 m 6 X s [] 0 sd 1 lw 2152 278 m 6 X s [] 0 sd 1 lw 2152 278 m20 [] 0 sd 1 lw [] 0 sd 1 lw 2164
 491 m 204 Y s [] 0 sd 1 lw 2164 695 m 205 Y s [] 0 sd 1 lw 2158 695 m 6 X s [] 0 sd 1 lw 2164 695 m 6 X s [] 0 sd 1 lw
 2164 695 m20 [] 0 sd 1 lw [] 0 sd 1 lw 2176 243 m 118 Y s [] 0 sd 1 lw 2176 361 m 118 Y s [] 0 sd 1 lw 2170 361 m 6 X s
 [] 0 sd 1 lw 2176 361 m 6 X s [] 0 sd 1 lw 2176 361 m20 [] 0 sd 1 lw [] 0 sd 1 lw 2182 194 m 5 X s [] 0 sd 1 lw 2187
 194 m 6 X s [] 0 sd 1 lw 2193 194 m 6 X s [] 0 sd 1 lw 2199 194 m 6 X s [] 0 sd 1 lw 2211 243 m 118 Y s [] 0 sd 1 lw
 2211 361 m 118 Y s [] 0 sd 1 lw 2205 361 m 6 X s [] 0 sd 1 lw 2211 361 m 6 X s [] 0 sd 1 lw 2211 361 m20 [] 0 sd 1 lw
 [] 0 sd 1 lw 2223 243 m 118 Y s [] 0 sd 1 lw 2223 361 m 118 Y s [] 0 sd 1 lw 2217 361 m 6 X s [] 0 sd 1 lw 2223 361 m 6
 X s [] 0 sd 1 lw 2223 361 m20 [] 0 sd 1 lw [] 0 sd 1 lw 2235 194 m 84 Y s [] 0 sd 1 lw 2235 278 m 83 Y s [] 0 sd 1 lw
 2229 278 m 6 X s [] 0 sd 1 lw 2235 278 m 6 X s [] 0 sd 1 lw 2235 278 m20 [] 0 sd 1 lw [] 0 sd 1 lw 2246 194 m 84 Y s
 [] 0 sd 1 lw 2246 278 m 83 Y s [] 0 sd 1 lw 2241 278 m 5 X s [] 0 sd 1 lw 2246 278 m 6 X s [] 0 sd 1 lw 2246 278 m20
 [] 0 sd 1 lw [] 0 sd 1 lw 2252 194 m 6 X s [] 0 sd 1 lw 2258 194 m 6 X s [] 0 sd 1 lw 2270 243 m 118 Y s [] 0 sd 1 lw
 2270 361 m 118 Y s [] 0 sd 1 lw 2264 361 m 6 X s [] 0 sd 1 lw 2270 361 m 6 X s [] 0 sd 1 lw 2270 361 m20 [] 0 sd 1 lw
 [] 0 sd 1 lw 2276 194 m 6 X s [] 0 sd 1 lw 2282 194 m 6 X s [] 0 sd 1 lw 2288 194 m 6 X s [] 0 sd 1 lw 2294 194 m 5 X s
 [] 0 sd 1 lw 2305 194 m 84 Y s [] 0 sd 1 lw 2305 278 m 83 Y s [] 0 sd 1 lw 2299 278 m 6 X s [] 0 sd 1 lw 2305 278 m 6 X
 s [] 0 sd 1 lw 2305 278 m20 [] 0 sd 1 lw [] 0 sd 1 lw 2317 194 m 84 Y s [] 0 sd 1 lw 2317 278 m 83 Y s [] 0 sd 1 lw
 2311 278 m 6 X s [] 0 sd 1 lw 2317 278 m 6 X s [] 0 sd 1 lw 2317 278 m20 [] 0 sd 1 lw [] 0 sd 1 lw 2329 194 m 84 Y s
 [] 0 sd 1 lw 2329 278 m 83 Y s [] 0 sd 1 lw 2323 278 m 6 X s [] 0 sd 1 lw 2329 278 m 6 X s [] 0 sd 1 lw 2329 278 m20
 [] 0 sd 1 lw [] 0 sd 1 lw 2341 243 m 118 Y s [] 0 sd 1 lw 2341 361 m 118 Y s [] 0 sd 1 lw 2335 361 m 6 X s [] 0 sd 1 lw
 2341 361 m 6 X s [] 0 sd 1 lw 2341 361 m20 [] 0 sd 1 lw [] 0 sd 1 lw 2353 243 m 118 Y s [] 0 sd 1 lw 2353 361 m 118 Y s
 [] 0 sd 1 lw 2347 361 m 6 X s [] 0 sd 1 lw 2353 361 m 5 X s [] 0 sd 1 lw 2353 361 m20 [] 0 sd 1 lw [] 0 sd 1 lw 2364
 243 m 118 Y s [] 0 sd 1 lw 2364 361 m 118 Y s [] 0 sd 1 lw 2358 361 m 6 X s [] 0 sd 1 lw 2364 361 m 6 X s [] 0 sd 1 lw
 2364 361 m20 [] 0 sd 1 lw [] 0 sd 1 lw 2370 194 m 6 X s [] 0 sd 1 lw 2376 194 m 6 X s [] 0 sd 1 lw 2388 194 m 84 Y s
 [] 0 sd 1 lw 2388 278 m 83 Y s [] 0 sd 1 lw 2382 278 m 6 X s [] 0 sd 1 lw 2388 278 m 6 X s [] 0 sd 1 lw 2388 278 m20
 [] 0 sd 1 lw [] 0 sd 1 lw 2400 194 m 84 Y s [] 0 sd 1 lw 2400 278 m 83 Y s [] 0 sd 1 lw 2394 278 m 6 X s [] 0 sd 1 lw
 2400 278 m 6 X s [] 0 sd 1 lw 2400 278 m20 [] 0 sd 1 lw [] 0 sd 1 lw 2406 194 m 5 X s [] 0 sd 1 lw 2411 194 m 6 X s
 [] 0 sd 1 lw 2423 194 m 84 Y s [] 0 sd 1 lw 2423 278 m 83 Y s [] 0 sd 1 lw 2417 278 m 6 X s [] 0 sd 1 lw 2423 278 m 6 X
 s [] 0 sd 1 lw 2423 278 m20 [] 0 sd 1 lw [] 0 sd 1 lw 2435 194 m 84 Y s [] 0 sd 1 lw 2435 278 m 83 Y s [] 0 sd 1 lw
 2429 278 m 6 X s [] 0 sd 1 lw 2435 278 m 6 X s [] 0 sd 1 lw 2435 278 m20 [] 0 sd 1 lw [] 0 sd 1 lw 2441 194 m 6 X s
 [] 0 sd 1 lw 2447 194 m 6 X s [] 0 sd 1 lw 2459 300 m 145 Y s [] 0 sd 1 lw 2459 445 m 144 Y s [] 0 sd 1 lw 2453 445 m 6
 X s [] 0 sd 1 lw 2459 445 m 6 X s [] 0 sd 1 lw 2459 445 m20 [] 0 sd 1 lw [] 0 sd 1 lw 2470 194 m 84 Y s [] 0 sd 1 lw
 2470 278 m 83 Y s [] 0 sd 1 lw 2465 278 m 5 X s [] 0 sd 1 lw 2470 278 m 6 X s [] 0 sd 1 lw 2470 278 m20 [] 0 sd 1 lw
 [] 0 sd 1 lw 2476 194 m 6 X s [] 0 sd 1 lw 2482 194 m 6 X s [] 0 sd 1 lw 2488 194 m 6 X s [] 0 sd 1 lw 2494 194 m 6 X s
 [] 0 sd 1 lw 2500 194 m 6 X s [] 0 sd 1 lw 2506 194 m 6 X s [] 0 sd 1 lw 2512 194 m 6 X s [] 0 sd 1 lw 2518 194 m 6 X s
 [] 0 sd 1 lw 2524 194 m 5 X s [] 0 sd 1 lw 2529 194 m 6 X s [] 0 sd 1 lw 2535 194 m 6 X s [] 0 sd 1 lw 2541 194 m 6 X s
 [] 0 sd 1 lw 2547 194 m 6 X s [] 0 sd 1 lw 2553 194 m 6 X s [] 0 sd 1 lw 2559 194 m 6 X s [] 0 sd 1 lw 2565 194 m 6 X s
 [] 0 sd 1 lw 2571 194 m 6 X s [] 0 sd 1 lw 2577 194 m 5 X s [] 0 sd 1 lw 2582 194 m 6 X s [] 0 sd 1 lw 2588 194 m 6 X s
 [] 0 sd 1 lw 2594 194 m 6 X s [] 0 sd 1 lw 2600 194 m 6 X s [] 0 sd 1 lw 2606 194 m 6 X s [] 0 sd 1 lw 2612 194 m 6 X s
 [] 0 sd 1 lw 2618 194 m 6 X s [] 0 sd 1 lw 2624 194 m 6 X s [] 0 sd 1 lw 2630 194 m 6 X s [] 0 sd 1 lw 2636 194 m 5 X s
 [] 0 sd 1 lw 2641 194 m 6 X s [] 0 sd 1 lw 2647 194 m 6 X s [] 0 sd 1 lw [] 0 sd 1 lw 295 194 m 2358 X s s
 /xs 0 def (Z \(cm\)) /Helvetica-Bold 72 stwn  gsave  2653 49
 t 0 r  xs neg 0 t 0 0 m /Helvetica-Bold findfont 72 sf 0 0 m (Z \(cm\)) show  gr  [] 0 sd 1 lw [] 0 sd 1 lw 301 241 m
 -47 Y s s [] 0 sd 1 lw [] 0 sd 1 lw 360 218 m -24 Y s s [] 0 sd 1 lw [] 0 sd 1 lw 419 218 m -24 Y s s [] 0 sd 1 lw
 [] 0 sd 1 lw 477 218 m -24 Y s s [] 0 sd 1 lw [] 0 sd 1 lw 536 218 m -24 Y s s [] 0 sd 1 lw [] 0 sd 1 lw 595 241 m -47
 Y s s [] 0 sd 1 lw [] 0 sd 1 lw 653 218 m -24 Y s s [] 0 sd 1 lw [] 0 sd 1 lw 712 218 m -24 Y s s [] 0 sd 1 lw [] 0 sd
 1 lw 770 218 m -24 Y s s [] 0 sd 1 lw [] 0 sd 1 lw 829 218 m -24 Y s s [] 0 sd 1 lw [] 0 sd 1 lw 888 241 m -47 Y s s
 [] 0 sd 1 lw [] 0 sd 1 lw 946 218 m -24 Y s s [] 0 sd 1 lw [] 0 sd 1 lw 1005 218 m -24 Y s s [] 0 sd 1 lw [] 0 sd 1 lw
 1064 218 m -24 Y s s [] 0 sd 1 lw [] 0 sd 1 lw 1122 218 m -24 Y s s [] 0 sd 1 lw [] 0 sd 1 lw 1181 241 m -47 Y s s
 [] 0 sd 1 lw [] 0 sd 1 lw 1239 218 m -24 Y s s [] 0 sd 1 lw [] 0 sd 1 lw 1298 218 m -24 Y s s [] 0 sd 1 lw [] 0 sd 1 lw
 1357 218 m -24 Y s s [] 0 sd 1 lw [] 0 sd 1 lw 1415 218 m -24 Y s s [] 0 sd 1 lw [] 0 sd 1 lw 1474 241 m -47 Y s s
 [] 0 sd 1 lw [] 0 sd 1 lw 1533 218 m -24 Y s s [] 0 sd 1 lw [] 0 sd 1 lw 1591 218 m -24 Y s s [] 0 sd 1 lw [] 0 sd 1 lw
 1650 218 m -24 Y s s [] 0 sd 1 lw [] 0 sd 1 lw 1709 218 m -24 Y s s [] 0 sd 1 lw [] 0 sd 1 lw 1767 241 m -47 Y s s
 [] 0 sd 1 lw [] 0 sd 1 lw 1826 218 m -24 Y s s [] 0 sd 1 lw [] 0 sd 1 lw 1884 218 m -24 Y s s [] 0 sd 1 lw [] 0 sd 1 lw
 1943 218 m -24 Y s s [] 0 sd 1 lw [] 0 sd 1 lw 2002 218 m -24 Y s s [] 0 sd 1 lw [] 0 sd 1 lw 2060 241 m -47 Y s s
 [] 0 sd 1 lw [] 0 sd 1 lw 2119 218 m -24 Y s s [] 0 sd 1 lw [] 0 sd 1 lw 2178 218 m -24 Y s s [] 0 sd 1 lw [] 0 sd 1 lw
 2236 218 m -24 Y s s [] 0 sd 1 lw [] 0 sd 1 lw 2295 218 m -24 Y s s [] 0 sd 1 lw [] 0 sd 1 lw 2354 241 m -47 Y s s
 [] 0 sd 1 lw [] 0 sd 1 lw 2412 218 m -24 Y s s [] 0 sd 1 lw [] 0 sd 1 lw 2471 218 m -24 Y s s [] 0 sd 1 lw [] 0 sd 1 lw
 2529 218 m -24 Y s s [] 0 sd 1 lw [] 0 sd 1 lw 2588 218 m -24 Y s s [] 0 sd 1 lw [] 0 sd 1 lw 2647 241 m -47 Y s s
 [] 0 sd 1 lw [] 0 sd 1 lw 301 241 m -47 Y s s [] 0 sd 1 lw [] 0 sd 1 lw 2647 241 m -47 Y s s
 /xs 0 def (-20) /Helvetica-Bold 72 stwn  gsave  301 107
 t 0 r xs 2 div neg 0 t 0 0 m /Helvetica-Bold findfont 72 sf 0 0 m (-20) show  gr 
 /xs 0 def (-15) /Helvetica-Bold 72 stwn  gsave  595 107
 t 0 r xs 2 div neg 0 t 0 0 m /Helvetica-Bold findfont 72 sf 0 0 m (-15) show  gr 
 /xs 0 def (-10) /Helvetica-Bold 72 stwn  gsave  888 107
 t 0 r xs 2 div neg 0 t 0 0 m /Helvetica-Bold findfont 72 sf 0 0 m (-10) show  gr 
 /xs 0 def (-5) /Helvetica-Bold 72 stwn  gsave  1181 107
 t 0 r xs 2 div neg 0 t 0 0 m /Helvetica-Bold findfont 72 sf 0 0 m (-5) show  gr 
 /xs 0 def (0) /Helvetica-Bold 72 stwn  gsave  1474 107
 t 0 r xs 2 div neg 0 t 0 0 m /Helvetica-Bold findfont 72 sf 0 0 m (0) show  gr 
 /xs 0 def (5) /Helvetica-Bold 72 stwn  gsave  1767 107
 t 0 r xs 2 div neg 0 t 0 0 m /Helvetica-Bold findfont 72 sf 0 0 m (5) show  gr 
 /xs 0 def (10) /Helvetica-Bold 72 stwn  gsave  2060 107
 t 0 r xs 2 div neg 0 t 0 0 m /Helvetica-Bold findfont 72 sf 0 0 m (10) show  gr 
 /xs 0 def (15) /Helvetica-Bold 72 stwn  gsave  2354 107
 t 0 r xs 2 div neg 0 t 0 0 m /Helvetica-Bold findfont 72 sf 0 0 m (15) show  gr 
 /xs 0 def (20) /Helvetica-Bold 72 stwn  gsave  2647 107
 t 0 r xs 2 div neg 0 t 0 0 m /Helvetica-Bold findfont 72 sf 0 0 m (20) show  gr  [] 0 sd 1 lw [] 0 sd 1 lw 295 194 m
 1556 Y s s
 /xs 0 def (Number of Hits per cm) /Helvetica-Bold 72 stwn  gsave  136 1750
 t 90 r  xs neg 0 t 0 0 m /Helvetica-Bold findfont 72 sf 0 0 m (Number of Hits per cm) show  gr  [] 0 sd 1 lw [] 0 sd 1
 lw 366 194 m -71 X s s [] 0 sd 1 lw [] 0 sd 1 lw 330 236 m -35 X s s [] 0 sd 1 lw [] 0 sd 1 lw 330 278 m -35 X s s
 [] 0 sd 1 lw [] 0 sd 1 lw 330 320 m -35 X s s [] 0 sd 1 lw [] 0 sd 1 lw 366 361 m -71 X s s [] 0 sd 1 lw [] 0 sd 1 lw
 330 403 m -35 X s s [] 0 sd 1 lw [] 0 sd 1 lw 330 445 m -35 X s s [] 0 sd 1 lw [] 0 sd 1 lw 330 487 m -35 X s s [] 0 sd
 1 lw [] 0 sd 1 lw 366 528 m -71 X s s [] 0 sd 1 lw [] 0 sd 1 lw 330 570 m -35 X s s [] 0 sd 1 lw [] 0 sd 1 lw 330 612 m
 -35 X s s [] 0 sd 1 lw [] 0 sd 1 lw 330 654 m -35 X s s [] 0 sd 1 lw [] 0 sd 1 lw 366 695 m -71 X s s [] 0 sd 1 lw
 [] 0 sd 1 lw 330 737 m -35 X s s [] 0 sd 1 lw [] 0 sd 1 lw 330 779 m -35 X s s [] 0 sd 1 lw [] 0 sd 1 lw 330 820 m -35
 X s s [] 0 sd 1 lw [] 0 sd 1 lw 366 862 m -71 X s s [] 0 sd 1 lw [] 0 sd 1 lw 330 904 m -35 X s s [] 0 sd 1 lw [] 0 sd
 1 lw 330 946 m -35 X s s [] 0 sd 1 lw [] 0 sd 1 lw 330 987 m -35 X s s [] 0 sd 1 lw [] 0 sd 1 lw 366 1029 m -71 X s s
 [] 0 sd 1 lw [] 0 sd 1 lw 330 1071 m -35 X s s [] 0 sd 1 lw [] 0 sd 1 lw 330 1113 m -35 X s s [] 0 sd 1 lw [] 0 sd 1 lw
 330 1154 m -35 X s s [] 0 sd 1 lw [] 0 sd 1 lw 366 1196 m -71 X s s [] 0 sd 1 lw [] 0 sd 1 lw 330 1238 m -35 X s s
 [] 0 sd 1 lw [] 0 sd 1 lw 330 1280 m -35 X s s [] 0 sd 1 lw [] 0 sd 1 lw 330 1321 m -35 X s s [] 0 sd 1 lw [] 0 sd 1 lw
 366 1363 m -71 X s s [] 0 sd 1 lw [] 0 sd 1 lw 330 1405 m -35 X s s [] 0 sd 1 lw [] 0 sd 1 lw 330 1447 m -35 X s s
 [] 0 sd 1 lw [] 0 sd 1 lw 330 1488 m -35 X s s [] 0 sd 1 lw [] 0 sd 1 lw 366 1530 m -71 X s s [] 0 sd 1 lw [] 0 sd 1 lw
 330 1572 m -35 X s s [] 0 sd 1 lw [] 0 sd 1 lw 330 1614 m -35 X s s [] 0 sd 1 lw [] 0 sd 1 lw 330 1655 m -35 X s s
 [] 0 sd 1 lw [] 0 sd 1 lw 366 1697 m -71 X s s [] 0 sd 1 lw [] 0 sd 1 lw 366 1697 m -71 X s s [] 0 sd 1 lw [] 0 sd 1 lw
 330 1739 m -35 X s s
 /xs 0 def (0) /Helvetica-Bold 72 stwn  gsave  280 174
 t 0 r  xs neg 0 t 0 0 m /Helvetica-Bold findfont 72 sf 0 0 m (0) show  gr 
 /xs 0 def (2) /Helvetica-Bold 72 stwn  gsave  280 341
 t 0 r  xs neg 0 t 0 0 m /Helvetica-Bold findfont 72 sf 0 0 m (2) show  gr 
 /xs 0 def (4) /Helvetica-Bold 72 stwn  gsave  280 508
 t 0 r  xs neg 0 t 0 0 m /Helvetica-Bold findfont 72 sf 0 0 m (4) show  gr 
 /xs 0 def (6) /Helvetica-Bold 72 stwn  gsave  280 675
 t 0 r  xs neg 0 t 0 0 m /Helvetica-Bold findfont 72 sf 0 0 m (6) show  gr 
 /xs 0 def (8) /Helvetica-Bold 72 stwn  gsave  280 842
 t 0 r  xs neg 0 t 0 0 m /Helvetica-Bold findfont 72 sf 0 0 m (8) show  gr 
 /xs 0 def (10) /Helvetica-Bold 72 stwn  gsave  280 1009
 t 0 r  xs neg 0 t 0 0 m /Helvetica-Bold findfont 72 sf 0 0 m (10) show  gr 
 /xs 0 def (12) /Helvetica-Bold 72 stwn  gsave  280 1175
 t 0 r  xs neg 0 t 0 0 m /Helvetica-Bold findfont 72 sf 0 0 m (12) show  gr 
 /xs 0 def (14) /Helvetica-Bold 72 stwn  gsave  280 1342
 t 0 r  xs neg 0 t 0 0 m /Helvetica-Bold findfont 72 sf 0 0 m (14) show  gr 
 /xs 0 def (16) /Helvetica-Bold 72 stwn  gsave  280 1509
 t 0 r  xs neg 0 t 0 0 m /Helvetica-Bold findfont 72 sf 0 0 m (16) show  gr 
 /xs 0 def (18) /Helvetica-Bold 72 stwn  gsave  280 1676
 t 0 r  xs neg 0 t 0 0 m /Helvetica-Bold findfont 72 sf 0 0 m (18) show  gr  [] 0 sd 1 lw 0.95 0.95 0.95 c 855 97 29
 1837 bf black [] 0 sd 1 lw 49 1837 m -13 Y 848 X 91 Y -13 X -78 Y f [] 0 sd 1 lw 29 1837 m 97 Y s [] 0 sd 1 lw 29 1934
 m 855 X s [] 0 sd 1 lw 884 1934 m -97 Y s [] 0 sd 1 lw 884 1837 m -855 X s
 /xs 0 def (Hits for Layer 1) /Helvetica-Bold 76 stwn  gsave  457 1864
 t 0 r xs 2 div neg 0 t 0 0 m /Helvetica-Bold findfont 76 sf 0 0 m (Hits for Layer 1) show  gr  [] 0 sd 1 lw 0.95 0.95
 0.95 c 590 311 2299 1594 bf black [] 0 sd 1 lw 2319 1594 m -13 Y 583 X 305 Y -13 X -292 Y f [] 0 sd 1 lw 2299 1594 m
 311 Y s [] 0 sd 1 lw 2299 1905 m 590 X s [] 0 sd 1 lw 2889 1905 m -311 Y s [] 0 sd 1 lw 2889 1594 m -590 X s
 gsave  2329 1849
 t 0 r 0 0 m /Helvetica-Bold findfont 64 sf 0 0 m (hzetap_z1) show  gr 
 gsave  2329 1771
 t 0 r 0 0 m /Helvetica-Bold findfont 64 sf 0 0 m (Nent = 641   \040) show  gr 
 gsave  2329 1693
 t 0 r 0 0 m /Helvetica-Bold findfont 64 sf 0 0 m (Mean  = -0.6436) show  gr 
 gsave  2329 1615
 t 0 r 0 0 m /Helvetica-Bold findfont 64 sf 0 0 m (RMS   =  6.985) show  gr  1 1 0 c gr 
showpage gr
 gr 
%%Trailer
%%Pages:  1
%%EOF
